ALP74LS173/simulation/qsim/ALP74LS173.msim.vcd
$comment
	File created using the following command:
		vcd file ALP74LS173.msim.vcd -direction
$end
$date
	Wed Jul 26 22:50:11 2023
$end
$version
	ModelSim Version 2020.1
$end
$timescale
	1ps
$end

$scope module ALP74LS173_vlg_vec_tst $end
$var reg 1 ! CP $end
$var reg 1 " D0 $end
$var reg 1 # D1 $end
$var reg 1 $ D2 $end
$var reg 1 % D3 $end
$var reg 1 & IE1 $end
$var reg 1 ' IE2 $end
$var reg 1 ( MR $end
$var reg 1 ) OE1 $end
$var reg 1 * OE2 $end
$var wire 1 + Q0 $end
$var wire 1 , Q1 $end
$var wire 1 - Q2 $end
$var wire 1 . Q3 $end

$scope module i1 $end
$var wire 1 / gnd $end
$var wire 1 0 vcc $end
$var wire 1 1 unknown $end
$var tri1 1 2 devclrn $end
$var tri1 1 3 devpor $end
$var tri1 1 4 devoe $end
$var wire 1 5 ~QUARTUS_CREATED_GND~I_combout $end
$var wire 1 6 ~QUARTUS_CREATED_UNVM~~busy $end
$var wire 1 7 ~QUARTUS_CREATED_ADC1~~eoc $end
$var wire 1 8 Q0~output_o $end
$var wire 1 9 Q1~output_o $end
$var wire 1 : Q2~output_o $end
$var wire 1 ; Q3~output_o $end
$var wire 1 < OE1~input_o $end
$var wire 1 = CP~input_o $end
$var wire 1 > CP~inputclkctrl_outclk $end
$var wire 1 ? D0~input_o $end
$var wire 1 @ MR~input_o $end
$var wire 1 A MR~inputclkctrl_outclk $end
$var wire 1 B IE2~input_o $end
$var wire 1 C IE1~input_o $end
$var wire 1 D inst~combout $end
$var wire 1 E inst20~q $end
$var wire 1 F OE2~input_o $end
$var wire 1 G inst17~0_combout $end
$var wire 1 H D1~input_o $end
$var wire 1 I inst21~q $end
$var wire 1 J inst19~0_combout $end
$var wire 1 K D2~input_o $end
$var wire 1 L inst22~q $end
$var wire 1 M inst26~0_combout $end
$var wire 1 N D3~input_o $end
$var wire 1 O inst23~q $end
$var wire 1 P inst28~0_combout $end
$upscope $end
$upscope $end
$enddefinitions $end
#0
$dumpvars
x!
x"
x#
x$
x%
x&
x'
1(
0)
0*
0+
0,
0-
0.
0/
10
x1
12
13
14
05
z6
z7
08
09
0:
0;
0<
x=
x>
x?
1@
1A
xB
xC
xD
0E
0F
1G
xH
0I
1J
xK
0L
1M
xN
0O
1P
$end
#30000
0!
0(
0@
0=
0A
0>
#60000
1&
1C
0D
#70000
1!
1=
1>
#80000
0!
0=
0>
#90000
1'
x&
xC
1B
#100000
1!
1=
1>
#110000
0!
0=
0>
#120000
0"
0'
0&
0C
0B
0?
1D
#130000
1!
1=
1>
#140000
0!
0=
0>
#150000
1"
1?
#160000
1!
1=
1>
#170000
0!
0=
0>
#180000
0"
0?
