RegistradorB/simulation/qsim/RegistradorB.msim.vcd
$comment
	File created using the following command:
		vcd file RegistradorB.msim.vcd -direction
$end
$date
	Tue Aug 01 22:54:08 2023
$end
$version
	ModelSim Version 2020.1
$end
$timescale
	1ps
$end

$scope module RegistradorB_vlg_vec_tst $end
$var reg 1 ! CLK $end
$var reg 1 " D0 $end
$var reg 1 # D1 $end
$var reg 1 $ D2 $end
$var reg 1 % D3 $end
$var reg 1 & D4 $end
$var reg 1 ' D5 $end
$var reg 1 ( D6 $end
$var reg 1 ) D7 $end
$var reg 1 * negLb $end
$var wire 1 + Q0 $end
$var wire 1 , Q1 $end
$var wire 1 - Q2 $end
$var wire 1 . Q3 $end
$var wire 1 / Q4 $end
$var wire 1 0 Q5 $end
$var wire 1 1 Q6 $end
$var wire 1 2 Q7 $end

$scope module i1 $end
$var wire 1 3 gnd $end
$var wire 1 4 vcc $end
$var wire 1 5 unknown $end
$var tri1 1 6 devclrn $end
$var tri1 1 7 devpor $end
$var tri1 1 8 devoe $end
$var wire 1 9 ~QUARTUS_CREATED_GND~I_combout $end
$var wire 1 : CLK~input_o $end
$var wire 1 ; CLK~inputCLKENA0_outclk $end
$var wire 1 < D0~input_o $end
$var wire 1 = inst|inst20~feeder_combout $end
$var wire 1 > negLb~input_o $end
$var wire 1 ? inst|inst20~q $end
$var wire 1 @ D1~input_o $end
$var wire 1 A inst|inst21~feeder_combout $end
$var wire 1 B inst|inst21~q $end
$var wire 1 C D2~input_o $end
$var wire 1 D inst|inst22~q $end
$var wire 1 E D3~input_o $end
$var wire 1 F inst|inst23~feeder_combout $end
$var wire 1 G inst|inst23~q $end
$var wire 1 H D4~input_o $end
$var wire 1 I inst2|inst20~feeder_combout $end
$var wire 1 J inst2|inst20~q $end
$var wire 1 K D5~input_o $end
$var wire 1 L inst2|inst21~feeder_combout $end
$var wire 1 M inst2|inst21~q $end
$var wire 1 N D6~input_o $end
$var wire 1 O inst2|inst22~q $end
$var wire 1 P D7~input_o $end
$var wire 1 Q inst2|inst23~feeder_combout $end
$var wire 1 R inst2|inst23~q $end
$upscope $end
$upscope $end
$enddefinitions $end
#0
$dumpvars
0!
1"
1#
1$
0%
0&
1'
0(
0)
0*
0+
0,
0-
0.
0/
00
01
02
03
14
x5
16
17
18
09
0:
0;
1<
1=
0>
0?
1@
1A
0B
1C
0D
0E
0F
0G
0H
0I
0J
1K
1L
0M
0N
0O
0P
0Q
0R
$end
#10000
1!
1:
1;
1M
1D
1B
1?
1+
1,
1-
10
#20000
0"
1%
1(
1)
0!
0<
1E
1N
1P
0:
0;
1Q
1F
0=
#30000
1!
1:
1;
1R
1O
1G
0?
0+
1.
11
12
#40000
0$
0%
0(
0!
0C
0E
0N
0:
0;
0F
#50000
1!
1:
1;
0O
0G
0D
0-
0.
01
#60000
0#
1&
1"
0)
1%
1(
0!
0@
1H
1<
0P
1E
1N
0:
0;
1F
0Q
1=
1I
0A
#70000
1!
1:
1;
0R
1O
1J
1G
0B
1?
1+
0,
1.
1/
11
02
#80000
1$
1#
0&
1)
0(
0!
1C
1@
0H
1P
0N
0:
0;
1Q
0I
1A
#90000
1!
1:
1;
1R
0O
0J
1D
1B
1,
1-
0/
01
12
#100000
0'
0%
0$
0#
1&
0)
0!
0K
0E
0C
0@
1H
0P
0:
0;
0Q
1I
0A
0F
0L
#110000
1!
1:
1;
0R
0M
1J
0G
0D
0B
0,
0-
0.
1/
00
02
#120000
0"
1(
1'
1#
1)
0!
0<
1N
1K
1@
1P
0:
0;
1Q
1A
1L
0=
#130000
1!
1:
1;
1R
1O
1M
1B
0?
0+
1,
10
11
12
#140000
1%
1$
0(
0#
0)
0!
1E
1C
0N
0@
0P
0:
0;
0Q
0A
1F
#150000
1!
1:
1;
0R
0O
1G
1D
0B
0,
1-
1.
01
02
#160000
0&
0'
0$
0!
0H
0K
0C
0:
0;
0L
0I
#170000
1!
1:
1;
0M
0J
0D
0-
0/
00
#180000
1#
1'
0!
1@
1K
0:
0;
1L
1A
#190000
1!
1:
1;
1M
1B
1,
10
#200000
1"
0%
1)
0'
0!
1<
0E
1P
0K
0:
0;
0L
1Q
0F
1=
#210000
1!
1:
1;
1R
0M
0G
1?
1+
0.
00
12
#220000
1(
1&
1%
0)
1'
0!
1N
1H
1E
0P
1K
0:
0;
1L
0Q
1F
1I
#230000
1*
1!
1>
1:
1;
#240000
0#
0(
1)
0!
0@
0N
1P
0:
0;
1Q
0A
#250000
1!
1:
1;
#260000
1$
0"
0&
1#
0!
1C
0<
0H
1@
0:
0;
1A
0I
0=
#270000
1!
1:
1;
#280000
0%
0'
1(
0)
1&
0#
0!
0E
0K
1N
0P
1H
0@
0:
0;
0A
1I
0Q
0L
0F
#290000
1!
1:
1;
#300000
1'
0(
0&
1#
0!
1K
0N
0H
1@
0:
0;
1A
0I
1L
#310000
1!
1:
1;
#320000
1)
1&
0#
0!
1P
1H
0@
0:
0;
0A
1I
1Q
#330000
1!
1:
1;
#340000
1"
1%
1(
0)
0&
1#
0!
1<
1E
1N
0P
0H
1@
0:
0;
1A
0I
0Q
1F
1=
#350000
1!
1:
1;
#360000
0'
0"
0%
1&
0#
0!
0K
0<
0E
1H
0@
0:
0;
0A
1I
0F
0=
0L
#370000
1!
1:
1;
#380000
1)
1'
0&
1#
0!
1P
1K
0H
1@
0:
0;
1A
0I
1L
1Q
#390000
1!
1:
1;
#400000
0$
0)
0!
0C
0P
0:
0;
0Q
#410000
1!
1:
1;
#420000
0(
1"
1%
0'
1&
0#
1)
0!
0N
1<
1E
0K
1H
0@
1P
0:
0;
1Q
0A
1I
0L
1F
1=
#430000
1!
1:
1;
#440000
0%
0!
0E
0:
0;
0F
#450000
1!
1:
1;
#460000
1$
0"
1'
1#
1%
0!
1C
0<
1K
1@
1E
0:
0;
1F
1A
1L
0=
#470000
1!
1:
1;
#480000
0)
1"
0#
0!
0P
1<
0@
0:
0;
0A
1=
0Q
#490000
1!
1:
1;
#500000
0*
0&
0$
0'
0%
0"
1#
0!
0>
0H
0C
0K
0E
0<
1@
0:
0;
1A
0=
0F
0L
0I
#510000
1!
1:
1;
0R
0?
0+
02
#520000
1&
1'
0!
1H
1K
0:
0;
1L
1I
#530000
1!
1:
1;
1M
1J
1/
10
#540000
0!
0:
0;
#550000
1!
1:
1;
#560000
1(
0&
0!
1N
0H
0:
0;
0I
#570000
1!
1:
1;
1O
0J
0/
11
#580000
1)
1$
1"
0#
1&
0!
1P
1C
1<
0@
1H
0:
0;
1I
0A
1=
1Q
#590000
1!
1:
1;
1R
1J
1D
0B
1?
1+
0,
1-
1/
12
#600000
0'
0(
0$
0"
0&
0!
0K
0N
0C
0<
0H
0:
0;
0I
0=
0L
#610000
1!
1:
1;
0O
0M
0J
0D
0?
0+
0-
0/
00
01
#620000
1%
1#
1'
1$
0!
1E
1@
1K
1C
0:
0;
1L
1A
1F
#630000
1!
1:
1;
1M
1G
1D
1B
1,
1-
1.
10
#640000
0)
1(
1"
0!
0P
1N
1<
0:
0;
1=
0Q
#650000
1!
1:
1;
0R
1O
1?
1+
11
02
#660000
1&
0#
1)
0"
0!
1H
0@
1P
0<
0:
0;
0=
1Q
0A
1I
#670000
1!
1:
1;
1R
1J
0B
0?
0+
0,
1/
12
#680000
0'
0$
0&
0)
0!
0K
0C
0H
0P
0:
0;
0Q
0I
0L
#690000
1!
1:
1;
0R
0M
0J
0D
0-
0/
00
02
#700000
0(
1#
1$
1&
1)
0!
0N
1@
1C
1H
1P
0:
0;
1Q
1I
1A
#710000
1!
1:
1;
1R
0O
1J
1D
1B
1,
1-
1/
01
12
#720000
0%
1(
0#
0&
0)
0!
0E
1N
0@
0H
0P
0:
0;
0Q
0I
0A
0F
#730000
1!
1:
1;
0R
1O
0J
0G
0B
0,
0.
0/
11
02
#740000
1'
0$
1%
0(
1#
0!
1K
0C
1E
0N
1@
0:
0;
1A
1F
1L
#750000
1*
1!
1>
1:
1;
#760000
1"
1&
1)
0'
1$
0#
0!
1<
1H
1P
0K
1C
0@
0:
0;
0A
0L
1Q
1I
1=
#770000
1!
1:
1;
#780000
0%
1(
0"
0!
0E
1N
0<
0:
0;
0=
0F
#790000
1!
1:
1;
#800000
0&
0)
1'
0$
1%
0(
0!
0H
0P
1K
0C
1E
0N
0:
0;
1F
1L
0Q
0I
#810000
1!
1:
1;
#820000
1&
1$
0%
0!
1H
1C
0E
0:
0;
0F
1I
#830000
1!
1:
1;
#840000
1#
1"
1)
0'
0!
1@
1<
1P
0K
0:
0;
0L
1Q
1=
1A
#850000
1!
1:
1;
#860000
1(
0&
0$
1%
0!
1N
0H
0C
1E
0:
0;
1F
0I
#870000
1!
1:
1;
#880000
0"
0(
1&
0%
0!
0<
0N
1H
0E
0:
0;
0F
1I
0=
#890000
1!
1:
1;
#900000
1'
1"
0&
0!
1K
1<
0H
0:
0;
0I
1=
1L
#910000
1!
1:
1;
#920000
0#
0'
0"
1&
0!
0@
0K
0<
1H
0:
0;
1I
0=
0L
0A
#930000
1!
1:
1;
#940000
0)
1(
1%
1'
1"
0!
0P
1N
1E
1K
1<
0:
0;
1=
1L
1F
0Q
#950000
1!
1:
1;
#960000
1#
0&
0(
0"
0!
1@
0H
0N
0<
0:
0;
0=
0I
1A
#970000
1!
1:
1;
#980000
1$
1)
0%
0'
0#
1&
1(
1"
0!
1C
1P
0E
0K
0@
1H
1N
1<
0:
0;
1=
1I
0A
0L
0F
1Q
#990000
1!
1:
1;
