RegistradorB/simulation/qsim/RegistradorB.msim.vcd
$comment
	File created using the following command:
		vcd file RegistradorB.msim.vcd -direction
$end
$date
	Sun Jul 30 23:21:06 2023
$end
$version
	ModelSim Version 2020.1
$end
$timescale
	1ps
$end

$scope module RegistradorB_vlg_vec_tst $end
$var reg 1 ! CLK $end
$var reg 1 " D0 $end
$var reg 1 # D1 $end
$var reg 1 $ D2 $end
$var reg 1 % D3 $end
$var reg 1 & D4 $end
$var reg 1 ' D5 $end
$var reg 1 ( D6 $end
$var reg 1 ) D7 $end
$var reg 1 * negLb $end
$var wire 1 + Q0 $end
$var wire 1 , Q1 $end
$var wire 1 - Q2 $end
$var wire 1 . Q3 $end
$var wire 1 / Q4 $end
$var wire 1 0 Q5 $end
$var wire 1 1 Q6 $end
$var wire 1 2 Q7 $end

$scope module i1 $end
$var wire 1 3 gnd $end
$var wire 1 4 vcc $end
$var wire 1 5 unknown $end
$var tri1 1 6 devclrn $end
$var tri1 1 7 devpor $end
$var tri1 1 8 devoe $end
$var wire 1 9 ~QUARTUS_CREATED_GND~I_combout $end
$var wire 1 : CLK~input_o $end
$var wire 1 ; CLK~inputCLKENA0_outclk $end
$var wire 1 < D0~input_o $end
$var wire 1 = inst|inst20~feeder_combout $end
$var wire 1 > negLb~input_o $end
$var wire 1 ? inst|inst20~q $end
$var wire 1 @ D1~input_o $end
$var wire 1 A inst|inst21~feeder_combout $end
$var wire 1 B inst|inst21~q $end
$var wire 1 C D2~input_o $end
$var wire 1 D inst|inst22~q $end
$var wire 1 E D3~input_o $end
$var wire 1 F inst|inst23~feeder_combout $end
$var wire 1 G inst|inst23~q $end
$var wire 1 H D4~input_o $end
$var wire 1 I inst2|inst20~feeder_combout $end
$var wire 1 J inst2|inst20~q $end
$var wire 1 K D5~input_o $end
$var wire 1 L inst2|inst21~feeder_combout $end
$var wire 1 M inst2|inst21~q $end
$var wire 1 N D6~input_o $end
$var wire 1 O inst2|inst22~q $end
$var wire 1 P D7~input_o $end
$var wire 1 Q inst2|inst23~feeder_combout $end
$var wire 1 R inst2|inst23~q $end
$upscope $end
$upscope $end
$enddefinitions $end
#0
$dumpvars
1!
1"
1#
1$
0%
0&
0'
0(
0)
0*
0+
0,
0-
0.
0/
00
01
02
03
14
x5
16
17
18
09
1:
1;
1<
1=
0>
0?
1@
1A
0B
1C
0D
0E
0F
0G
0H
0I
0J
0K
0L
0M
0N
0O
0P
0Q
0R
$end
#5000
1%
1&
1'
1(
1E
1H
1K
1N
1L
1I
1F
#10000
0!
0"
0#
0$
0:
0<
0@
0C
0;
0A
0=
#15000
1)
1*
0%
0&
0'
0(
1P
1>
0E
0H
0K
0N
0L
0I
0F
1Q
#20000
1!
1"
1#
1$
1:
1<
1@
1C
1;
1A
1=
#30000
0)
0*
0!
0"
0#
0$
0P
0>
0:
0<
0@
0C
0;
0A
0=
0Q
#45000
1)
1*
1!
1"
1#
1$
1P
1>
1:
1<
1@
1C
1;
1A
1=
1Q
#50000
0)
0*
0P
0>
0Q
#55000
1%
1&
1'
1(
0!
0"
0#
0$
1E
1H
1K
1N
0:
0<
0@
0C
0;
0A
0=
1L
1I
1F
#60000
1)
1*
1P
1>
1Q
#65000
0)
0*
0P
0>
0Q
#70000
1)
1*
1P
1>
1Q
#75000
0%
0&
0'
0(
1!
1"
1#
1$
0)
0*
0E
0H
0K
0N
1:
1<
1@
1C
0P
0>
1;
0Q
1A
1=
0L
0I
0F
1R
1M
1J
1G
1D
1-
1.
1/
10
12
#80000
0!
0"
0#
0$
0:
0<
0@
0C
0;
0A
0=
#85000
1%
1&
1'
1(
1)
1*
1!
1"
1#
1$
1E
1H
1K
1N
1P
1>
1:
1<
1@
1C
1;
1A
1=
1Q
1L
1I
1F
#90000
0%
0&
0'
0(
0)
0*
0!
0"
0#
0$
0E
0H
0K
0N
0P
0>
0:
0<
0@
0C
0;
0A
0=
0Q
0L
0I
0F
#95000
1%
1&
1'
1(
1!
1"
1#
1$
1E
1H
1K
1N
1:
1<
1@
1C
1;
1A
1=
1L
1I
1F
0R
1O
0M
0J
0G
0.
0/
00
11
02
#100000
1)
1*
0!
0"
0#
0$
1P
1>
0:
0<
0@
0C
0;
0A
0=
1Q
#105000
0)
0*
1!
1"
1#
1$
0P
0>
1:
1<
1@
1C
1;
1A
1=
0Q
1R
1M
1J
1G
1.
1/
10
12
#110000
0%
0&
0'
0(
1)
1*
0!
0"
0#
0$
0E
0H
0K
0N
1P
1>
0:
0<
0@
0C
0;
0A
0=
1Q
0L
0I
0F
#115000
1%
1&
1'
1(
0)
0*
1E
1H
1K
1N
0P
0>
0Q
1L
1I
1F
#120000
1!
1"
1#
1$
1)
1*
1:
1<
1@
1C
1P
1>
1;
1Q
1A
1=
#125000
0%
0&
0'
0(
0!
0"
0#
0$
0E
0H
0K
0N
0:
0<
0@
0C
0;
0A
0=
0L
0I
0F
#130000
0)
0*
1%
1&
1'
1(
1!
1"
1#
1$
0P
0>
1E
1H
1K
1N
1:
1<
1@
1C
1;
1A
1=
1L
1I
1F
0Q
0M
0J
0G
0.
0/
00
#135000
1)
1*
0%
0&
0'
0(
1P
1>
0E
0H
0K
0N
0L
0I
0F
1Q
#140000
0!
0"
0#
0$
0)
0*
0:
0<
0@
0C
0P
0>
0;
0Q
0A
0=
#145000
1%
1&
1'
1(
1!
1"
1#
1$
1E
1H
1K
1N
1:
1<
1@
1C
1;
1A
1=
1L
1I
1F
0R
02
#150000
1)
1*
0%
0&
0'
0(
0!
0"
0#
0$
1P
1>
0E
0H
0K
0N
0:
0<
0@
0C
0;
0A
0=
0L
0I
0F
1Q
#155000
1%
1&
1'
1(
1E
1H
1K
1N
1L
1I
1F
#160000
0)
0*
0%
0&
0'
0(
0P
0>
0E
0H
0K
0N
0L
0I
0F
0Q
#165000
1)
1*
1%
1&
1'
1(
1P
1>
1E
1H
1K
1N
1L
1I
1F
1Q
#170000
1!
1"
1#
1$
0%
0&
0'
0(
1:
1<
1@
1C
0E
0H
0K
0N
1;
0L
0I
0F
1A
1=
#175000
0)
0*
0P
0>
0Q
#180000
1%
1&
1'
1(
1)
1*
1E
1H
1K
1N
1P
1>
1Q
1L
1I
1F
#185000
0!
0"
0#
0$
0%
0&
0'
0(
0)
0*
0:
0<
0@
0C
0E
0H
0K
0N
0P
0>
0;
0Q
0L
0I
0F
0A
0=
#190000
1%
1&
1'
1(
1)
1*
1E
1H
1K
1N
1P
1>
1Q
1L
1I
1F
#195000
0)
0*
0P
0>
0Q
#200000
0%
0&
0'
0(
1)
1*
0E
0H
0K
0N
1P
1>
1Q
0L
0I
0F
#205000
1!
1"
1#
1$
1:
1<
1@
1C
1;
1A
1=
#215000
0)
0*
0!
0"
0#
0$
0P
0>
0:
0<
0@
0C
0;
0A
0=
0Q
#220000
1!
1"
1#
1$
1:
1<
1@
1C
1;
1A
1=
0O
01
#225000
0!
0"
0#
0$
0:
0<
0@
0C
0;
0A
0=
#230000
1!
1"
1#
1$
1:
1<
1@
1C
1;
1A
1=
#235000
1)
1*
0!
0"
0#
0$
1P
1>
0:
0<
0@
0C
0;
0A
0=
1Q
#240000
1%
1&
1'
1(
1!
1"
1#
1$
1E
1H
1K
1N
1:
1<
1@
1C
1;
1A
1=
1L
1I
1F
#245000
0)
0*
0!
0"
0#
0$
0P
0>
0:
0<
0@
0C
0;
0A
0=
0Q
#250000
0%
0&
0'
0(
0E
0H
0K
0N
0L
0I
0F
#255000
1!
1"
1#
1$
1%
1&
1'
1(
1:
1<
1@
1C
1E
1H
1K
1N
1;
1L
1I
1F
1A
1=
1O
11
#260000
0!
0"
0#
0$
0:
0<
0@
0C
0;
0A
0=
#265000
1)
1*
0%
0&
0'
0(
1!
1"
1#
1$
1P
1>
0E
0H
0K
0N
1:
1<
1@
1C
1;
1A
1=
0L
0I
0F
1Q
#270000
0)
0*
0P
0>
0Q
#275000
1%
1&
1'
1(
1E
1H
1K
1N
1L
1I
1F
#285000
1)
1*
0%
0&
0'
0(
1P
1>
0E
0H
0K
0N
0L
0I
0F
1Q
#290000
1%
1&
1'
1(
1E
1H
1K
1N
1L
1I
1F
#295000
0!
0"
0#
0$
0:
0<
0@
0C
0;
0A
0=
#300000
0)
0*
1!
1"
1#
1$
0P
0>
1:
1<
1@
1C
1;
1A
1=
0Q
1R
1M
1J
1G
1.
1/
10
12
#305000
1)
1*
0!
0"
0#
0$
1P
1>
0:
0<
0@
0C
0;
0A
0=
1Q
#310000
0%
0&
0'
0(
1!
1"
1#
1$
0E
0H
0K
0N
1:
1<
1@
1C
1;
1A
1=
0L
0I
0F
#315000
0)
0*
1%
1&
1'
1(
0P
0>
1E
1H
1K
1N
1L
1I
1F
0Q
#320000
0!
0"
0#
0$
1)
1*
0:
0<
0@
0C
1P
1>
0;
1Q
0A
0=
#325000
0%
0&
0'
0(
1!
1"
1#
1$
0E
0H
0K
0N
1:
1<
1@
1C
1;
1A
1=
0L
0I
0F
#330000
0)
0*
0!
0"
0#
0$
0P
0>
0:
0<
0@
0C
0;
0A
0=
0Q
#335000
1%
1&
1'
1(
1!
1"
1#
1$
1E
1H
1K
1N
1:
1<
1@
1C
1;
1A
1=
1L
1I
1F
0R
0M
0J
0G
0.
0/
00
02
#340000
0!
0"
0#
0$
0:
0<
0@
0C
0;
0A
0=
#355000
1)
1*
1!
1"
1#
1$
1P
1>
1:
1<
1@
1C
1;
1A
1=
1Q
#360000
0!
0"
0#
0$
0:
0<
0@
0C
0;
0A
0=
#365000
0)
0*
1!
1"
1#
1$
0P
0>
1:
1<
1@
1C
1;
1A
1=
0Q
1R
1M
1J
1G
1.
1/
10
12
#370000
0%
0&
0'
0(
1)
1*
0!
0"
0#
0$
0E
0H
0K
0N
1P
1>
0:
0<
0@
0C
0;
0A
0=
1Q
0L
0I
0F
#375000
0)
0*
0P
0>
0Q
#380000
1%
1&
1'
1(
1!
1"
1#
1$
1)
1*
1E
1H
1K
1N
1:
1<
1@
1C
1P
1>
1;
1Q
1A
1=
1L
1I
1F
#385000
0%
0&
0'
0(
0!
0"
0#
0$
0E
0H
0K
0N
0:
0<
0@
0C
0;
0A
0=
0L
0I
0F
#390000
0)
0*
1!
1"
1#
1$
0P
0>
1:
1<
1@
1C
1;
1A
1=
0Q
0O
0M
0J
0G
0.
0/
00
01
#395000
1)
1*
1P
1>
1Q
#400000
1%
1&
1'
1(
0!
0"
0#
0$
1E
1H
1K
1N
0:
0<
0@
0C
0;
0A
0=
1L
1I
1F
#405000
0)
0*
0%
0&
0'
0(
1!
1"
1#
1$
0P
0>
0E
0H
0K
0N
1:
1<
1@
1C
1;
1A
1=
0L
0I
0F
0Q
1M
1J
1G
1.
1/
10
#410000
0!
0"
0#
0$
0:
0<
0@
0C
0;
0A
0=
#415000
1)
1*
1P
1>
1Q
#420000
1!
1"
1#
1$
0)
0*
1:
1<
1@
1C
0P
0>
1;
0Q
1A
1=
0M
0J
0G
0.
0/
00
#425000
1%
1&
1'
1(
1)
1*
1E
1H
1K
1N
1P
1>
1Q
1L
1I
1F
#430000
0!
0"
0#
0$
0:
0<
0@
0C
0;
0A
0=
#435000
0%
0&
0'
0(
0)
0*
1!
1"
1#
1$
0E
0H
0K
0N
0P
0>
1:
1<
1@
1C
1;
1A
1=
0Q
0L
0I
0F
1M
1J
1G
1.
1/
10
#445000
1)
1*
0!
0"
0#
0$
1P
1>
0:
0<
0@
0C
0;
0A
0=
1Q
#450000
1%
1&
1'
1(
1E
1H
1K
1N
1L
1I
1F
#455000
1!
1"
1#
1$
1:
1<
1@
1C
1;
1A
1=
#460000
0)
0*
0!
0"
0#
0$
0P
0>
0:
0<
0@
0C
0;
0A
0=
0Q
#465000
1)
1*
1!
1"
1#
1$
1P
1>
1:
1<
1@
1C
1;
1A
1=
1Q
#470000
0)
0*
0!
0"
0#
0$
0P
0>
0:
0<
0@
0C
0;
0A
0=
0Q
#475000
1)
1*
1P
1>
1Q
#480000
1!
1"
1#
1$
0)
0*
1:
1<
1@
1C
0P
0>
1;
0Q
1A
1=
1O
11
#485000
0!
0"
0#
0$
1)
1*
0:
0<
0@
0C
1P
1>
0;
1Q
0A
0=
#490000
1!
1"
1#
1$
0)
0*
1:
1<
1@
1C
0P
0>
1;
0Q
1A
1=
#495000
1)
1*
1P
1>
1Q
#500000
0!
0"
0#
0$
0:
0<
0@
0C
0;
0A
0=
#505000
0%
0&
0'
0(
1!
1"
1#
1$
0E
0H
0K
0N
1:
1<
1@
1C
1;
1A
1=
0L
0I
0F
#510000
0)
0*
1%
1&
1'
1(
0P
0>
1E
1H
1K
1N
1L
1I
1F
0Q
#515000
0!
0"
0#
0$
0%
0&
0'
0(
0:
0<
0@
0C
0E
0H
0K
0N
0;
0L
0I
0F
0A
0=
#520000
1)
1*
1!
1"
1#
1$
1P
1>
1:
1<
1@
1C
1;
1A
1=
1Q
#525000
1%
1&
1'
1(
0)
0*
0!
0"
0#
0$
1E
1H
1K
1N
0P
0>
0:
0<
0@
0C
0;
0A
0=
0Q
1L
1I
1F
#530000
0%
0&
0'
0(
1!
1"
1#
1$
0E
0H
0K
0N
1:
1<
1@
1C
1;
1A
1=
0L
0I
0F
0R
0O
01
02
#535000
1)
1*
1P
1>
1Q
#540000
1%
1&
1'
1(
0)
0*
1E
1H
1K
1N
0P
0>
0Q
1L
1I
1F
#545000
0!
0"
0#
0$
0%
0&
0'
0(
1)
1*
0:
0<
0@
0C
0E
0H
0K
0N
1P
1>
0;
1Q
0L
0I
0F
0A
0=
#550000
1%
1&
1'
1(
0)
0*
1E
1H
1K
1N
0P
0>
0Q
1L
1I
1F
#560000
0%
0&
0'
0(
1)
1*
0E
0H
0K
0N
1P
1>
1Q
0L
0I
0F
#565000
1!
1"
1#
1$
1:
1<
1@
1C
1;
1A
1=
#570000
0!
0"
0#
0$
0:
0<
0@
0C
0;
0A
0=
#575000
1%
1&
1'
1(
1E
1H
1K
1N
1L
1I
1F
#580000
0)
0*
0%
0&
0'
0(
0P
0>
0E
0H
0K
0N
0L
0I
0F
0Q
#590000
1%
1&
1'
1(
1E
1H
1K
1N
1L
1I
1F
#595000
1)
1*
0%
0&
0'
0(
1P
1>
0E
0H
0K
0N
0L
0I
0F
1Q
#600000
1!
1"
1#
1$
0)
0*
1:
1<
1@
1C
0P
0>
1;
0Q
1A
1=
1R
0M
0J
0G
0.
0/
00
12
#605000
1%
1&
1'
1(
0!
0"
0#
0$
1E
1H
1K
1N
0:
0<
0@
0C
0;
0A
0=
1L
1I
1F
#610000
1)
1*
1P
1>
1Q
#615000
0)
0*
0P
0>
0Q
#620000
1!
1"
1#
1$
1:
1<
1@
1C
1;
1A
1=
0R
1O
1M
1J
1G
1.
1/
10
11
02
#630000
0%
0&
0'
0(
1)
1*
0E
0H
0K
0N
1P
1>
1Q
0L
0I
0F
#635000
1%
1&
1'
1(
0)
0*
1E
1H
1K
1N
0P
0>
0Q
1L
1I
1F
#640000
0!
0"
0#
0$
1)
1*
0:
0<
0@
0C
1P
1>
0;
1Q
0A
0=
#645000
0)
0*
0P
0>
0Q
#650000
0%
0&
0'
0(
1!
1"
1#
1$
1)
1*
0E
0H
0K
0N
1:
1<
1@
1C
1P
1>
1;
1Q
1A
1=
0L
0I
0F
#655000
1%
1&
1'
1(
0!
0"
0#
0$
1E
1H
1K
1N
0:
0<
0@
0C
0;
0A
0=
1L
1I
1F
#660000
0%
0&
0'
0(
1!
1"
1#
1$
0E
0H
0K
0N
1:
1<
1@
1C
1;
1A
1=
0L
0I
0F
#665000
0)
0*
0!
0"
0#
0$
0P
0>
0:
0<
0@
0C
0;
0A
0=
0Q
#670000
1%
1&
1'
1(
1E
1H
1K
1N
1L
1I
1F
#675000
1!
1"
1#
1$
1:
1<
1@
1C
1;
1A
1=
#680000
1)
1*
0%
0&
0'
0(
1P
1>
0E
0H
0K
0N
0L
0I
0F
1Q
#685000
0)
0*
0P
0>
0Q
#695000
1)
1*
1P
1>
1Q
#700000
1%
1&
1'
1(
0)
0*
1E
1H
1K
1N
0P
0>
0Q
1L
1I
1F
#705000
1)
1*
1P
1>
1Q
#710000
0!
0"
0#
0$
0)
0*
0:
0<
0@
0C
0P
0>
0;
0Q
0A
0=
#715000
1!
1"
1#
1$
1:
1<
1@
1C
1;
1A
1=
#725000
0%
0&
0'
0(
0E
0H
0K
0N
0L
0I
0F
#730000
1)
1*
0!
0"
0#
0$
1P
1>
0:
0<
0@
0C
0;
0A
0=
1Q
#735000
1%
1&
1'
1(
0)
0*
1!
1"
1#
1$
1E
1H
1K
1N
0P
0>
1:
1<
1@
1C
1;
1A
1=
0Q
1L
1I
1F
1R
0M
0J
0G
0.
0/
00
12
#740000
0%
0&
0'
0(
1)
1*
0E
0H
0K
0N
1P
1>
1Q
0L
0I
0F
#745000
0)
0*
0P
0>
0Q
#750000
0!
0"
0#
0$
1%
1&
1'
1(
0:
0<
0@
0C
1E
1H
1K
1N
0;
1L
1I
1F
0A
0=
#760000
1)
1*
1!
1"
1#
1$
0%
0&
0'
0(
1P
1>
1:
1<
1@
1C
0E
0H
0K
0N
1;
0L
0I
0F
1A
1=
1Q
#765000
0)
0*
1%
1&
1'
1(
0P
0>
1E
1H
1K
1N
1L
1I
1F
0Q
#770000
0!
0"
0#
0$
0:
0<
0@
0C
0;
0A
0=
#775000
1!
1"
1#
1$
1:
1<
1@
1C
1;
1A
1=
0R
1M
1J
1G
1.
1/
10
02
#780000
0!
0"
0#
0$
0:
0<
0@
0C
0;
0A
0=
#785000
0%
0&
0'
0(
1!
1"
1#
1$
0E
0H
0K
0N
1:
1<
1@
1C
1;
1A
1=
0L
0I
0F
0O
01
#790000
1%
1&
1'
1(
0!
0"
0#
0$
1E
1H
1K
1N
0:
0<
0@
0C
0;
0A
0=
1L
1I
1F
#800000
1)
1*
1P
1>
1Q
#805000
0%
0&
0'
0(
0)
0*
0E
0H
0K
0N
0P
0>
0Q
0L
0I
0F
#810000
1%
1&
1'
1(
1)
1*
1E
1H
1K
1N
1P
1>
1Q
1L
1I
1F
#815000
0%
0&
0'
0(
0E
0H
0K
0N
0L
0I
0F
#825000
0)
0*
0P
0>
0Q
#830000
1!
1"
1#
1$
1:
1<
1@
1C
1;
1A
1=
0M
0J
0G
0.
0/
00
#835000
1%
1&
1'
1(
1)
1*
0!
0"
0#
0$
1E
1H
1K
1N
1P
1>
0:
0<
0@
0C
0;
0A
0=
1Q
1L
1I
1F
#840000
0%
0&
0'
0(
0)
0*
0E
0H
0K
0N
0P
0>
0Q
0L
0I
0F
#845000
1%
1&
1'
1(
1)
1*
1E
1H
1K
1N
1P
1>
1Q
1L
1I
1F
#850000
1!
1"
1#
1$
0)
0*
1:
1<
1@
1C
0P
0>
1;
0Q
1A
1=
1R
1O
1M
1J
1G
1.
1/
10
11
12
#855000
0%
0&
0'
0(
0E
0H
0K
0N
0L
0I
0F
#860000
0!
0"
0#
0$
1)
1*
0:
0<
0@
0C
1P
1>
0;
1Q
0A
0=
#865000
1%
1&
1'
1(
1!
1"
1#
1$
1E
1H
1K
1N
1:
1<
1@
1C
1;
1A
1=
1L
1I
1F
#870000
0%
0&
0'
0(
0E
0H
0K
0N
0L
0I
0F
#880000
1%
1&
1'
1(
1E
1H
1K
1N
1L
1I
1F
#885000
0)
0*
0%
0&
0'
0(
0P
0>
0E
0H
0K
0N
0L
0I
0F
0Q
#890000
0!
0"
0#
0$
0:
0<
0@
0C
0;
0A
0=
#895000
1)
1*
1!
1"
1#
1$
1P
1>
1:
1<
1@
1C
1;
1A
1=
1Q
#900000
1%
1&
1'
1(
0!
0"
0#
0$
1E
1H
1K
1N
0:
0<
0@
0C
0;
0A
0=
1L
1I
1F
#905000
0)
0*
0%
0&
0'
0(
1!
1"
1#
1$
0P
0>
0E
0H
0K
0N
1:
1<
1@
1C
1;
1A
1=
0L
0I
0F
0Q
0O
01
#910000
1)
1*
1%
1&
1'
1(
1P
1>
1E
1H
1K
1N
1L
1I
1F
1Q
#920000
0!
0"
0#
0$
0)
0*
0%
0&
0'
0(
0:
0<
0@
0C
0P
0>
0E
0H
0K
0N
0;
0L
0I
0F
0Q
0A
0=
#925000
1!
1"
1#
1$
1)
1*
1:
1<
1@
1C
1P
1>
1;
1Q
1A
1=
#930000
0)
0*
0P
0>
0Q
#935000
1%
1&
1'
1(
1)
1*
1E
1H
1K
1N
1P
1>
1Q
1L
1I
1F
#940000
0!
0"
0#
0$
0:
0<
0@
0C
0;
0A
0=
#950000
0)
0*
0P
0>
0Q
#955000
0%
0&
0'
0(
1!
1"
1#
1$
1)
1*
0E
0H
0K
0N
1:
1<
1@
1C
1P
1>
1;
1Q
1A
1=
0L
0I
0F
#960000
1%
1&
1'
1(
1E
1H
1K
1N
1L
1I
1F
#965000
0)
0*
0%
0&
0'
0(
0P
0>
0E
0H
0K
0N
0L
0I
0F
0Q
#975000
1)
1*
1P
1>
1Q
#980000
0)
0*
0P
0>
0Q
#985000
0!
0"
0#
0$
0:
0<
0@
0C
0;
0A
0=
#990000
1)
1*
1!
1"
1#
1$
1P
1>
1:
1<
1@
1C
1;
1A
1=
1Q
#995000
0!
0"
0#
0$
0:
0<
0@
0C
0;
0A
0=
