ContadorDePrograma/simulation/qsim/ContadorDePrograma.msim.vcd
$comment
	File created using the following command:
		vcd file ContadorDePrograma.msim.vcd -direction
$end
$date
	Thu Jul 27 20:56:53 2023
$end
$version
	ModelSim Version 2020.1
$end
$timescale
	1ps
$end

$scope module ContadorDePrograma_vlg_vec_tst $end
$var reg 1 ! CLK $end
$var reg 1 " CLR $end
$var reg 1 # CP $end
$var reg 1 $ EP $end
$var wire 1 % A0 $end
$var wire 1 & A1 $end
$var wire 1 ' A2 $end
$var wire 1 ( A3 $end

$scope module i1 $end
$var wire 1 ) gnd $end
$var wire 1 * vcc $end
$var wire 1 + unknown $end
$var tri1 1 , devclrn $end
$var tri1 1 - devpor $end
$var tri1 1 . devoe $end
$var wire 1 / ~QUARTUS_CREATED_GND~I_combout $end
$var wire 1 0 ~QUARTUS_CREATED_UNVM~~busy $end
$var wire 1 1 ~QUARTUS_CREATED_ADC1~~eoc $end
$var wire 1 2 A0~output_o $end
$var wire 1 3 A1~output_o $end
$var wire 1 4 A2~output_o $end
$var wire 1 5 A3~output_o $end
$var wire 1 6 CLK~input_o $end
$var wire 1 7 inst|inst~0_combout $end
$var wire 1 8 inst|inst~feeder_combout $end
$var wire 1 9 CLR~input_o $end
$var wire 1 : CLR~inputclkctrl_outclk $end
$var wire 1 ; CP~input_o $end
$var wire 1 < inst|inst~q $end
$var wire 1 = EP~input_o $end
$var wire 1 > inst3|inst~0_combout $end
$var wire 1 ? inst3|inst~feeder_combout $end
$var wire 1 @ inst3|inst~q $end
$var wire 1 A inst4|inst~0_combout $end
$var wire 1 B inst4|inst~feeder_combout $end
$var wire 1 C inst4|inst~q $end
$var wire 1 D inst5|inst~0_combout $end
$var wire 1 E inst5|inst~q $end
$upscope $end
$upscope $end
$enddefinitions $end
#0
$dumpvars
0!
1"
1#
1$
1%
1&
1'
1(
0)
1*
x+
1,
1-
1.
0/
z0
z1
12
13
14
15
06
17
18
19
1:
1;
0<
1=
1>
1?
0@
1A
1B
0C
1D
0E
$end
#10000
1!
16
1<
02
07
0%
08
1@
03
0>
0&
0?
1C
04
0A
0'
0B
1E
05
0(
0D
#20000
0#
0!
0;
06
#30000
1!
16
#40000
0!
06
#50000
1!
16
#60000
0!
06
#70000
1#
1!
1;
16
0<
12
17
1%
18
#80000
0!
06
#90000
1!
16
1<
02
07
0%
08
0@
13
1>
1&
1?
#100000
0!
06
#110000
1!
16
0<
12
17
1%
18
#120000
0!
06
#130000
1!
16
1<
02
07
0%
08
1@
03
0>
0&
0?
0C
14
1A
1'
1B
#140000
0!
06
#150000
1!
16
0<
12
17
1%
18
#160000
0!
06
#170000
1!
16
1<
02
07
0%
08
0@
13
1>
1&
1?
#180000
0!
06
#190000
1!
16
0<
12
17
1%
18
#200000
0!
06
#210000
1!
16
1<
02
07
0%
08
1@
03
0>
0&
0?
1C
04
0A
0'
0B
0E
15
1(
1D
#220000
0!
06
#230000
1!
16
0<
12
17
1%
18
#240000
0!
06
#250000
1!
16
1<
02
07
0%
08
0@
13
1>
1&
1?
#260000
0!
06
#270000
1!
16
0<
12
17
1%
18
#280000
0!
06
#290000
1!
16
1<
02
07
0%
08
1@
03
0>
0&
0?
0C
14
1A
1'
1B
#300000
0!
06
#310000
1!
16
0<
12
17
1%
18
#320000
0!
06
#330000
1!
16
1<
02
07
0%
08
0@
13
1>
1&
1?
#340000
0!
06
#350000
1!
16
0<
12
17
1%
18
#360000
0!
06
#370000
1!
16
1<
02
07
0%
08
1@
03
0>
0&
0?
1C
04
0A
0'
0B
1E
05
0(
0D
#380000
0!
06
#390000
1!
16
0<
12
17
1%
18
#400000
0$
0!
06
0=
z2
z3
z4
z5
z(
z'
z&
z%
#410000
1!
16
1<
07
08
0@
1>
1?
#420000
0!
06
#430000
1!
16
0<
17
18
#440000
1$
0!
06
1=
12
13
04
05
0(
0'
1&
1%
#450000
1!
16
1<
02
07
0%
08
1@
03
0>
0&
0?
0C
14
1A
1'
1B
#460000
0!
06
#470000
1!
16
0<
12
17
1%
18
#480000
0!
06
#490000
1!
16
1<
02
07
0%
08
0@
13
1>
1&
1?
#500000
0!
06
#510000
1!
16
0<
12
17
1%
18
#520000
0!
06
#530000
1!
16
1<
02
07
0%
08
1@
03
0>
0&
0?
1C
04
0A
0'
0B
0E
15
1(
1D
#540000
0!
06
#550000
1!
16
0<
12
17
1%
18
#560000
0!
06
#570000
1!
16
1<
02
07
0%
08
0@
13
1>
1&
1?
#580000
0!
06
#590000
1!
16
0<
12
17
1%
18
#600000
0!
06
#610000
1!
16
1<
02
07
0%
08
1@
03
0>
0&
0?
0C
14
1A
1'
1B
#620000
0!
06
#630000
1!
16
0<
12
17
1%
18
#640000
0!
06
#650000
1!
16
1<
02
07
0%
08
0@
13
1>
1&
1?
#660000
0!
06
#670000
1!
16
0<
12
17
1%
18
#680000
0!
06
#690000
1!
16
1<
02
07
0%
08
1@
03
0>
0&
0?
1C
04
0A
0'
0B
1E
05
0(
0D
#700000
0!
06
#710000
1!
16
0<
12
17
1%
18
#720000
0!
06
#730000
1!
16
1<
02
07
0%
08
0@
13
1>
1&
1?
#740000
0!
06
#750000
1!
16
0<
12
17
1%
18
#760000
0!
06
#770000
1!
16
1<
02
07
0%
08
1@
03
0>
0&
0?
0C
14
1A
1'
1B
#780000
0!
06
#790000
1!
16
0<
12
17
1%
18
#800000
0!
06
#810000
1!
16
1<
02
07
0%
08
0@
13
1>
1&
1?
#820000
0!
06
#830000
1!
16
0<
12
17
1%
18
#840000
0!
06
#850000
1!
16
1<
02
07
0%
08
1@
03
0>
0&
0?
1C
04
0A
0'
0B
0E
15
1(
1D
#860000
0!
06
#870000
1!
16
0<
12
17
1%
18
#880000
0!
06
#890000
1!
16
1<
02
07
0%
08
0@
13
1>
1&
1?
#900000
0!
06
#910000
1!
16
0<
12
17
1%
18
#920000
0!
06
#930000
1!
16
1<
02
07
0%
08
1@
03
0>
0&
0?
0C
14
1A
1'
1B
#940000
0!
06
#950000
1!
16
0<
12
17
1%
18
#960000
0!
06
#970000
1!
16
1<
02
07
0%
08
0@
13
1>
1&
1?
#980000
0!
06
#990000
1!
16
0<
12
17
1%
18
