ALPRAM16x8/simulation/qsim/ALPRAM16x8.msim.vcd
$comment
	File created using the following command:
		vcd file ALPRAM16x8.msim.vcd -direction
$end
$date
	Wed Aug 02 02:45:11 2023
$end
$version
	ModelSim Version 2020.1
$end
$timescale
	1ps
$end

$scope module ALPRAM16x8_vlg_vec_tst $end
$var reg 1 ! A $end
$var reg 1 " A0 $end
$var reg 1 # A1 $end
$var reg 1 $ A2 $end
$var reg 1 % A3 $end
$var reg 1 & A4 $end
$var reg 1 ' A5 $end
$var reg 1 ( A6 $end
$var reg 1 ) A7 $end
$var reg 1 * B $end
$var reg 1 + C $end
$var reg 1 , CLK $end
$var reg 1 - D $end
$var reg 1 . nCE $end
$var reg 1 / WRITE3 $end
$var wire 1 0 S0 $end
$var wire 1 1 S1 $end
$var wire 1 2 S2 $end
$var wire 1 3 S3 $end
$var wire 1 4 S4 $end
$var wire 1 5 S5 $end
$var wire 1 6 S6 $end
$var wire 1 7 S7 $end

$scope module i1 $end
$var wire 1 8 gnd $end
$var wire 1 9 vcc $end
$var wire 1 : unknown $end
$var tri1 1 ; devclrn $end
$var tri1 1 < devpor $end
$var tri1 1 = devoe $end
$var wire 1 > ~QUARTUS_CREATED_GND~I_combout $end
$var wire 1 ? ~QUARTUS_CREATED_UNVM~~busy $end
$var wire 1 @ ~QUARTUS_CREATED_ADC1~~eoc $end
$var wire 1 A ~QUARTUS_CREATED_ADC2~~eoc $end
$var wire 1 B S0~output_o $end
$var wire 1 C S1~output_o $end
$var wire 1 D S2~output_o $end
$var wire 1 E S3~output_o $end
$var wire 1 F S4~output_o $end
$var wire 1 G S5~output_o $end
$var wire 1 H S6~output_o $end
$var wire 1 I S7~output_o $end
$var wire 1 J A~input_o $end
$var wire 1 K C~input_o $end
$var wire 1 L D~input_o $end
$var wire 1 M B~input_o $end
$var wire 1 N inst32~2_combout $end
$var wire 1 O nCE~input_o $end
$var wire 1 P CLK~input_o $end
$var wire 1 Q inst14|inst18~1_combout $end
$var wire 1 R inst48~combout $end
$var wire 1 S inst31~2_combout $end
$var wire 1 T inst43~combout $end
$var wire 1 U WRITE3~input_o $end
$var wire 1 V inst29~2_combout $end
$var wire 1 W inst31~combout $end
$var wire 1 X inst31~clkctrl_outclk $end
$var wire 1 Y A0~input_o $end
$var wire 1 Z inst18|inst~q $end
$var wire 1 [ inst34~2_combout $end
$var wire 1 \ inst36~combout $end
$var wire 1 ] inst36~clkctrl_outclk $end
$var wire 1 ^ inst|inst~q $end
$var wire 1 _ inst14|inst18~10_combout $end
$var wire 1 ` inst28~0_combout $end
$var wire 1 a inst27~combout $end
$var wire 1 b inst28~combout $end
$var wire 1 c inst25~combout $end
$var wire 1 d inst25~clkctrl_outclk $end
$var wire 1 e inst19|inst~q $end
$var wire 1 f inst23~combout $end
$var wire 1 g inst23~clkctrl_outclk $end
$var wire 1 h inst15|inst~q $end
$var wire 1 i inst14|inst18~9_combout $end
$var wire 1 j inst40~combout $end
$var wire 1 k inst24~combout $end
$var wire 1 l inst24~clkctrl_outclk $end
$var wire 1 m inst6|inst~feeder_combout $end
$var wire 1 n inst6|inst~q $end
$var wire 1 o inst34~combout $end
$var wire 1 p inst34~clkctrl_outclk $end
$var wire 1 q inst13|inst~q $end
$var wire 1 r inst39~2_combout $end
$var wire 1 s inst46~combout $end
$var wire 1 t inst14|inst18~3_combout $end
$var wire 1 u inst42~combout $end
$var wire 1 v inst41~combout $end
$var wire 1 w inst29~combout $end
$var wire 1 x inst29~clkctrl_outclk $end
$var wire 1 y inst10|inst~q $end
$var wire 1 z inst30~combout $end
$var wire 1 { inst30~clkctrl_outclk $end
$var wire 1 | inst14|inst~q $end
$var wire 1 } inst14|inst18~2_combout $end
$var wire 1 ~ inst50~combout $end
$var wire 1 !! inst32~combout $end
$var wire 1 "! inst32~clkctrl_outclk $end
$var wire 1 #! inst5|inst~q $end
$var wire 1 $! inst38~combout $end
$var wire 1 %! inst38~clkctrl_outclk $end
$var wire 1 &! inst12|inst~q $end
$var wire 1 '! inst44~combout $end
$var wire 1 (! inst14|inst18~5_combout $end
$var wire 1 )! inst47~combout $end
$var wire 1 *! inst35~combout $end
$var wire 1 +! inst35~clkctrl_outclk $end
$var wire 1 ,! inst17|inst~q $end
$var wire 1 -! inst33~combout $end
$var wire 1 .! inst33~clkctrl_outclk $end
$var wire 1 /! inst9|inst~q $end
$var wire 1 0! inst45~combout $end
$var wire 1 1! inst14|inst18~4_combout $end
$var wire 1 2! inst14|inst18~6_combout $end
$var wire 1 3! inst51~combout $end
$var wire 1 4! inst49~combout $end
$var wire 1 5! inst37~combout $end
$var wire 1 6! inst37~clkctrl_outclk $end
$var wire 1 7! inst8|inst~q $end
$var wire 1 8! inst39~combout $end
$var wire 1 9! inst39~clkctrl_outclk $end
$var wire 1 :! inst16|inst~q $end
$var wire 1 ;! inst14|inst18~7_combout $end
$var wire 1 <! inst22~2_combout $end
$var wire 1 =! inst20~combout $end
$var wire 1 >! inst21~combout $end
$var wire 1 ?! inst21~clkctrl_outclk $end
$var wire 1 @! inst7|inst~q $end
$var wire 1 A! inst22~combout $end
$var wire 1 B! inst22~clkctrl_outclk $end
$var wire 1 C! inst11|inst~q $end
$var wire 1 D! inst11|inst18~0_combout $end
$var wire 1 E! inst14|inst18~8_combout $end
$var wire 1 F! inst14|inst18~11_combout $end
$var wire 1 G! A1~input_o $end
$var wire 1 H! inst19|inst1~q $end
$var wire 1 I! inst15|inst1~q $end
$var wire 1 J! inst14|inst19~10_combout $end
$var wire 1 K! inst26~combout $end
$var wire 1 L! inst11|inst1~q $end
$var wire 1 M! inst7|inst1~q $end
$var wire 1 N! inst14|inst19~9_combout $end
$var wire 1 O! inst13|inst1~feeder_combout $end
$var wire 1 P! inst13|inst1~q $end
$var wire 1 Q! inst17|inst1~q $end
$var wire 1 R! inst14|inst19~3_combout $end
$var wire 1 S! inst5|inst1~q $end
$var wire 1 T! inst9|inst1~q $end
$var wire 1 U! inst14|inst19~4_combout $end
$var wire 1 V! inst6|inst1~q $end
$var wire 1 W! inst10|inst1~q $end
$var wire 1 X! inst14|inst19~2_combout $end
$var wire 1 Y! inst14|inst1~feeder_combout $end
$var wire 1 Z! inst14|inst1~q $end
$var wire 1 [! inst18|inst1~q $end
$var wire 1 \! inst14|inst19~1_combout $end
$var wire 1 ]! inst14|inst19~5_combout $end
$var wire 1 ^! inst16|inst1~q $end
$var wire 1 _! inst12|inst1~q $end
$var wire 1 `! inst14|inst19~6_combout $end
$var wire 1 a! inst|inst1~q $end
$var wire 1 b! inst8|inst1~feeder_combout $end
$var wire 1 c! inst8|inst1~q $end
$var wire 1 d! inst14|inst19~7_combout $end
$var wire 1 e! inst14|inst19~8_combout $end
$var wire 1 f! inst14|inst19~11_combout $end
$var wire 1 g! A2~input_o $end
$var wire 1 h! inst13|inst2~feeder_combout $end
$var wire 1 i! inst13|inst2~q $end
$var wire 1 j! inst17|inst2~q $end
$var wire 1 k! inst14|inst20~3_combout $end
$var wire 1 l! inst6|inst2~q $end
$var wire 1 m! inst10|inst2~q $end
$var wire 1 n! inst14|inst20~2_combout $end
$var wire 1 o! inst5|inst2~q $end
$var wire 1 p! inst9|inst2~q $end
$var wire 1 q! inst14|inst20~4_combout $end
$var wire 1 r! inst14|inst2~feeder_combout $end
$var wire 1 s! inst14|inst2~q $end
$var wire 1 t! inst18|inst2~q $end
$var wire 1 u! inst14|inst20~1_combout $end
$var wire 1 v! inst14|inst20~5_combout $end
$var wire 1 w! inst11|inst2~q $end
$var wire 1 x! inst7|inst2~q $end
$var wire 1 y! inst14|inst20~9_combout $end
$var wire 1 z! inst19|inst2~q $end
$var wire 1 {! inst15|inst2~q $end
$var wire 1 |! inst14|inst20~10_combout $end
$var wire 1 }! inst16|inst2~q $end
$var wire 1 ~! inst12|inst2~q $end
$var wire 1 !" inst14|inst20~6_combout $end
$var wire 1 "" inst|inst2~q $end
$var wire 1 #" inst8|inst2~feeder_combout $end
$var wire 1 $" inst8|inst2~q $end
$var wire 1 %" inst14|inst20~7_combout $end
$var wire 1 &" inst14|inst20~8_combout $end
$var wire 1 '" inst14|inst20~11_combout $end
$var wire 1 (" A3~input_o $end
$var wire 1 )" inst11|inst3~q $end
$var wire 1 *" inst7|inst3~q $end
$var wire 1 +" inst14|inst21~9_combout $end
$var wire 1 ," inst17|inst3~q $end
$var wire 1 -" inst13|inst3~q $end
$var wire 1 ." inst14|inst21~3_combout $end
$var wire 1 /" inst9|inst3~q $end
$var wire 1 0" inst5|inst3~q $end
$var wire 1 1" inst14|inst21~4_combout $end
$var wire 1 2" inst6|inst3~q $end
$var wire 1 3" inst10|inst3~q $end
$var wire 1 4" inst14|inst21~2_combout $end
$var wire 1 5" inst14|inst3~q $end
$var wire 1 6" inst18|inst3~q $end
$var wire 1 7" inst14|inst21~1_combout $end
$var wire 1 8" inst14|inst21~5_combout $end
$var wire 1 9" inst16|inst3~q $end
$var wire 1 :" inst12|inst3~feeder_combout $end
$var wire 1 ;" inst12|inst3~q $end
$var wire 1 <" inst14|inst21~6_combout $end
$var wire 1 =" inst8|inst3~q $end
$var wire 1 >" inst|inst3~q $end
$var wire 1 ?" inst14|inst21~7_combout $end
$var wire 1 @" inst14|inst21~8_combout $end
$var wire 1 A" inst15|inst3~q $end
$var wire 1 B" inst19|inst3~q $end
$var wire 1 C" inst14|inst21~10_combout $end
$var wire 1 D" inst14|inst21~11_combout $end
$var wire 1 E" A4~input_o $end
$var wire 1 F" inst16|inst4~q $end
$var wire 1 G" inst12|inst4~q $end
$var wire 1 H" inst14|inst22~6_combout $end
$var wire 1 I" inst8|inst4~q $end
$var wire 1 J" inst|inst4~q $end
$var wire 1 K" inst14|inst22~7_combout $end
$var wire 1 L" inst14|inst22~8_combout $end
$var wire 1 M" inst19|inst4~q $end
$var wire 1 N" inst15|inst4~q $end
$var wire 1 O" inst14|inst22~10_combout $end
$var wire 1 P" inst11|inst4~q $end
$var wire 1 Q" inst7|inst4~q $end
$var wire 1 R" inst14|inst22~9_combout $end
$var wire 1 S" inst5|inst4~q $end
$var wire 1 T" inst9|inst4~q $end
$var wire 1 U" inst14|inst22~4_combout $end
$var wire 1 V" inst6|inst4~q $end
$var wire 1 W" inst10|inst4~feeder_combout $end
$var wire 1 X" inst10|inst4~q $end
$var wire 1 Y" inst14|inst22~2_combout $end
$var wire 1 Z" inst13|inst4~feeder_combout $end
$var wire 1 [" inst13|inst4~q $end
$var wire 1 \" inst17|inst4~q $end
$var wire 1 ]" inst14|inst22~3_combout $end
$var wire 1 ^" inst14|inst4~q $end
$var wire 1 _" inst18|inst4~q $end
$var wire 1 `" inst14|inst22~1_combout $end
$var wire 1 a" inst14|inst22~5_combout $end
$var wire 1 b" inst14|inst22~11_combout $end
$var wire 1 c" A5~input_o $end
$var wire 1 d" inst|inst5~q $end
$var wire 1 e" inst8|inst5~feeder_combout $end
$var wire 1 f" inst8|inst5~q $end
$var wire 1 g" inst14|inst23~7_combout $end
$var wire 1 h" inst16|inst5~q $end
$var wire 1 i" inst12|inst5~q $end
$var wire 1 j" inst14|inst23~6_combout $end
$var wire 1 k" inst14|inst23~8_combout $end
$var wire 1 l" inst15|inst5~q $end
$var wire 1 m" inst19|inst5~q $end
$var wire 1 n" inst14|inst23~10_combout $end
$var wire 1 o" inst11|inst5~q $end
$var wire 1 p" inst7|inst5~feeder_combout $end
$var wire 1 q" inst7|inst5~q $end
$var wire 1 r" inst14|inst23~9_combout $end
$var wire 1 s" inst6|inst5~q $end
$var wire 1 t" inst10|inst5~q $end
$var wire 1 u" inst14|inst23~2_combout $end
$var wire 1 v" inst17|inst5~q $end
$var wire 1 w" inst13|inst5~q $end
$var wire 1 x" inst14|inst23~3_combout $end
$var wire 1 y" inst5|inst5~q $end
$var wire 1 z" inst9|inst5~q $end
$var wire 1 {" inst14|inst23~4_combout $end
$var wire 1 |" inst14|inst5~q $end
$var wire 1 }" inst18|inst5~q $end
$var wire 1 ~" inst14|inst23~1_combout $end
$var wire 1 !# inst14|inst23~5_combout $end
$var wire 1 "# inst14|inst23~11_combout $end
$var wire 1 ## A6~input_o $end
$var wire 1 $# inst15|inst6~q $end
$var wire 1 %# inst15|inst24~0_combout $end
$var wire 1 &# inst19|inst6~q $end
$var wire 1 '# inst18|inst6~q $end
$var wire 1 (# inst14|inst24~8_combout $end
$var wire 1 )# inst11|inst6~q $end
$var wire 1 *# inst14|inst24~9_combout $end
$var wire 1 +# inst7|inst6~q $end
$var wire 1 ,# inst|inst6~q $end
$var wire 1 -# inst14|inst24~7_combout $end
$var wire 1 .# inst8|inst6~q $end
$var wire 1 /# inst16|inst6~q $end
$var wire 1 0# inst14|inst24~6_combout $end
$var wire 1 1# inst6|inst6~q $end
$var wire 1 2# inst13|inst6~q $end
$var wire 1 3# inst14|inst24~2_combout $end
$var wire 1 4# inst10|inst6~q $end
$var wire 1 5# inst14|inst6~q $end
$var wire 1 6# inst14|inst24~1_combout $end
$var wire 1 7# inst5|inst6~feeder_combout $end
$var wire 1 8# inst5|inst6~q $end
$var wire 1 9# inst12|inst6~q $end
$var wire 1 :# inst14|inst24~4_combout $end
$var wire 1 ;# inst9|inst6~q $end
$var wire 1 <# inst17|inst6~q $end
$var wire 1 =# inst14|inst24~3_combout $end
$var wire 1 ># inst14|inst24~5_combout $end
$var wire 1 ?# inst14|inst24~10_combout $end
$var wire 1 @# A7~input_o $end
$var wire 1 A# inst19|inst7~q $end
$var wire 1 B# inst15|inst7~q $end
$var wire 1 C# inst14|inst25~10_combout $end
$var wire 1 D# inst|inst7~q $end
$var wire 1 E# inst8|inst7~feeder_combout $end
$var wire 1 F# inst8|inst7~q $end
$var wire 1 G# inst14|inst25~7_combout $end
$var wire 1 H# inst16|inst7~q $end
$var wire 1 I# inst12|inst7~q $end
$var wire 1 J# inst14|inst25~6_combout $end
$var wire 1 K# inst14|inst25~8_combout $end
$var wire 1 L# inst13|inst7~q $end
$var wire 1 M# inst17|inst7~q $end
$var wire 1 N# inst14|inst25~3_combout $end
$var wire 1 O# inst6|inst7~q $end
$var wire 1 P# inst10|inst7~q $end
$var wire 1 Q# inst14|inst25~2_combout $end
$var wire 1 R# inst9|inst7~q $end
$var wire 1 S# inst5|inst7~q $end
$var wire 1 T# inst14|inst25~4_combout $end
$var wire 1 U# inst14|inst7~q $end
$var wire 1 V# inst18|inst7~q $end
$var wire 1 W# inst14|inst25~1_combout $end
$var wire 1 X# inst14|inst25~5_combout $end
$var wire 1 Y# inst11|inst7~q $end
$var wire 1 Z# inst7|inst7~feeder_combout $end
$var wire 1 [# inst7|inst7~q $end
$var wire 1 \# inst14|inst25~9_combout $end
$var wire 1 ]# inst14|inst25~11_combout $end
$upscope $end
$upscope $end
$enddefinitions $end
#0
$dumpvars
0!
0"
0#
0$
0%
0&
0'
0(
0)
0*
0+
0,
0-
0.
1/
00
01
02
03
04
05
06
07
08
19
x:
1;
1<
1=
0>
z?
z@
zA
0B
0C
0D
0E
0F
0G
0H
0I
0J
0K
0L
0M
1N
0O
0P
1Q
0R
0S
1T
1U
0V
0W
0X
0Y
0Z
0[
0\
0]
0^
0_
0`
1a
1b
0c
0d
0e
0f
0g
0h
1i
1j
0k
0l
0m
0n
0o
0p
0q
0r
1s
1t
1u
1v
0w
0x
0y
0z
0{
0|
1}
1~
0!!
0"!
0#!
0$!
0%!
0&!
1'!
1(!
1)!
0*!
0+!
0,!
0-!
0.!
0/!
10!
11!
12!
13!
14!
05!
06!
07!
08!
09!
0:!
1;!
0<!
1=!
0>!
0?!
0@!
0A!
0B!
0C!
1D!
1E!
0F!
0G!
0H!
0I!
1J!
1K!
0L!
0M!
1N!
0O!
0P!
0Q!
1R!
0S!
0T!
1U!
0V!
0W!
1X!
0Y!
0Z!
0[!
1\!
1]!
0^!
0_!
1`!
0a!
0b!
0c!
0d!
0e!
0f!
0g!
0h!
0i!
0j!
1k!
0l!
0m!
1n!
0o!
0p!
1q!
0r!
0s!
0t!
1u!
1v!
0w!
0x!
1y!
0z!
0{!
1|!
0}!
0~!
1!"
0""
0#"
0$"
0%"
0&"
0'"
0("
0)"
0*"
1+"
0,"
0-"
1."
0/"
00"
11"
02"
03"
14"
05"
06"
17"
18"
09"
0:"
0;"
1<"
0="
0>"
0?"
0@"
0A"
0B"
1C"
0D"
0E"
0F"
0G"
1H"
0I"
0J"
0K"
0L"
0M"
0N"
1O"
0P"
0Q"
1R"
0S"
0T"
1U"
0V"
0W"
0X"
1Y"
0Z"
0["
0\"
1]"
0^"
0_"
1`"
1a"
0b"
0c"
0d"
0e"
0f"
0g"
0h"
0i"
1j"
0k"
0l"
0m"
1n"
0o"
0p"
0q"
1r"
0s"
0t"
1u"
0v"
0w"
1x"
0y"
0z"
1{"
0|"
0}"
1~"
1!#
0"#
0##
0$#
1%#
0&#
0'#
1(#
0)#
1*#
0+#
0,#
0-#
0.#
0/#
10#
01#
02#
13#
04#
05#
16#
07#
08#
09#
1:#
0;#
0<#
1=#
1>#
0?#
0@#
0A#
0B#
1C#
0D#
0E#
0F#
0G#
0H#
0I#
1J#
0K#
0L#
0M#
1N#
0O#
0P#
1Q#
0R#
0S#
1T#
0U#
0V#
1W#
1X#
0Y#
0Z#
0[#
1\#
0]#
$end
#2500
1,
1P
0Q
zB
zC
zD
zE
zF
zG
zH
zI
1R
z7
z6
z5
z4
z3
z2
z1
z0
1G#
1-#
1g"
1K"
1?"
1%"
1d!
1_
1K#
1k"
1L"
1@"
1&"
1e!
1?#
1F!
1]#
1"#
1b"
1D"
1'"
1f!
#5000
0,
0P
1Q
1B
1C
1D
1E
1F
1G
1H
1I
0R
17
16
15
14
13
12
11
10
0G#
0-#
0g"
0K"
0?"
0%"
0d!
0_
0K#
0k"
0L"
0@"
0&"
0e!
0?#
0F!
0B
0H
06
00
0]#
0"#
0b"
0D"
0'"
0f!
0C
0D
0E
0F
0G
0I
07
05
04
03
02
01
#7500
1,
1P
0Q
zB
zC
zD
zE
zF
zG
zH
zI
1R
z7
z6
z5
z4
z3
z2
z1
z0
1G#
1-#
1g"
1K"
1?"
1%"
1d!
1_
1K#
1k"
1L"
1@"
1&"
1e!
1?#
1F!
1]#
1"#
1b"
1D"
1'"
1f!
#10000
0/
0,
0P
0U
1[
1Q
1B
1C
1D
1E
1F
1G
1H
1I
1\
0R
17
16
15
14
13
12
11
10
1]
0G#
0-#
0g"
0K"
0?"
0%"
0d!
0_
0K#
0k"
0L"
0@"
0&"
0e!
0?#
0F!
0B
0H
06
00
0]#
0"#
0b"
0D"
0'"
0f!
0C
0D
0E
0F
0G
0I
07
05
04
03
02
01
#12500
1,
1P
0[
0Q
zB
zC
zD
zE
zF
zG
zH
zI
0\
1R
z7
z6
z5
z4
z3
z2
z1
z0
0]
1G#
1-#
1g"
1K"
1?"
1%"
1d!
1_
1K#
1k"
1L"
1@"
1&"
1e!
1?#
1F!
1]#
1"#
1b"
1D"
1'"
1f!
#15000
1*
0,
0P
1M
1[
1<!
1S
0N
1Q
1B
1C
1D
1E
1F
1G
1H
1I
1k
0j
17
16
15
14
13
12
11
10
1l
0Q#
03#
0u"
0Y"
04"
0n!
0X!
0t
0X#
0>#
0!#
0a"
08"
0v!
0]!
02!
0]#
0?#
0"#
0b"
0D"
0'"
0f!
0F!
0B
0C
0D
0E
0F
0G
0H
0I
07
06
05
04
03
02
01
00
#17500
1,
1P
0[
0Q
zB
zC
zD
zE
zF
zG
zH
zI
0k
1j
z7
z6
z5
z4
z3
z2
z1
z0
0l
1Q#
13#
1u"
1Y"
14"
1n!
1X!
1t
1X#
1>#
1!#
1a"
18"
1v!
1]!
12!
1]#
1?#
1"#
1b"
1D"
1'"
1f!
1F!
#20000
1)
1/
0,
0P
1U
1@#
1Q
1Z#
1E#
1B
1C
1D
1E
1F
1G
1H
1I
0j
17
16
15
14
13
12
11
10
0Q#
03#
0u"
0Y"
04"
0n!
0X!
0t
0X#
0>#
0!#
0a"
08"
0v!
0]!
02!
0]#
0?#
0"#
0b"
0D"
0'"
0f!
0F!
0B
0C
0D
0E
0F
0G
0H
0I
07
06
05
04
03
02
01
00
#22500
1,
1P
0Q
zB
zC
zD
zE
zF
zG
zH
zI
1j
z7
z6
z5
z4
z3
z2
z1
z0
1Q#
13#
1u"
1Y"
14"
1n!
1X!
1t
1X#
1>#
1!#
1a"
18"
1v!
1]!
12!
1]#
1?#
1"#
1b"
1D"
1'"
1f!
1F!
#25000
0,
0P
1Q
1B
1C
1D
1E
1F
1G
1H
1I
0j
17
16
15
14
13
12
11
10
0Q#
03#
0u"
0Y"
04"
0n!
0X!
0t
0X#
0>#
0!#
0a"
08"
0v!
0]!
02!
0]#
0?#
0"#
0b"
0D"
0'"
0f!
0F!
0B
0C
0D
0E
0F
0G
0H
0I
07
06
05
04
03
02
01
00
#27500
1,
1P
0Q
zB
zC
zD
zE
zF
zG
zH
zI
1j
z7
z6
z5
z4
z3
z2
z1
z0
1Q#
13#
1u"
1Y"
14"
1n!
1X!
1t
1X#
1>#
1!#
1a"
18"
1v!
1]!
12!
1]#
1?#
1"#
1b"
1D"
1'"
1f!
1F!
#30000
1!
0*
0/
0,
0P
0U
0M
1J
1`
1[
0<!
0S
1N
1Q
1B
1C
1D
1E
1F
1G
1H
1I
1!!
0'!
17
16
15
14
13
12
11
10
1"!
0T#
0:#
0{"
0U"
01"
0q!
0U!
0(!
0X#
0>#
0!#
0a"
08"
0v!
0]!
02!
0]#
0?#
0"#
0b"
0D"
0'"
0f!
0F!
0B
0C
0D
0E
0F
0G
0H
0I
07
06
05
04
03
02
01
00
1S#
1T#
1X#
1]#
1I
17
#32500
1,
1P
0`
0[
0Q
zB
zC
zD
zE
zF
zG
zH
zI
0!!
1'!
z7
z6
z5
z4
z3
z2
z1
z0
0"!
1:#
1{"
1U"
11"
1q!
1U!
1(!
1>#
1!#
1a"
18"
1v!
1]!
12!
1?#
1"#
1b"
1D"
1'"
1f!
1F!
#35000
0,
0P
1`
1[
1Q
1B
1C
1D
1E
1F
1G
1H
1I
1!!
0'!
17
16
15
14
13
12
11
10
1"!
0:#
0{"
0U"
01"
0q!
0U!
0(!
0>#
0!#
0a"
08"
0v!
0]!
02!
0?#
0"#
0b"
0D"
0'"
0f!
0F!
0B
0C
0D
0E
0F
0G
0H
06
05
04
03
02
01
00
#37500
1,
1P
0`
0[
0Q
zB
zC
zD
zE
zF
zG
zH
zI
0!!
1'!
z7
z6
z5
z4
z3
z2
z1
z0
0"!
1:#
1{"
1U"
11"
1q!
1U!
1(!
1>#
1!#
1a"
18"
1v!
1]!
12!
1?#
1"#
1b"
1D"
1'"
1f!
1F!
#40000
1(
0)
1/
0,
0P
1U
0@#
1##
1`
1Q
0Z#
0E#
17#
1B
1C
1D
1E
1F
1G
1H
1I
0'!
17
16
15
14
13
12
11
10
0:#
0{"
0U"
01"
0q!
0U!
0(!
0>#
0!#
0a"
08"
0v!
0]!
02!
0?#
0"#
0b"
0D"
0'"
0f!
0F!
0B
0C
0D
0E
0F
0G
0H
06
05
04
03
02
01
00
#42500
1,
1P
0`
0Q
zB
zC
zD
zE
zF
zG
zH
zI
1'!
z7
z6
z5
z4
z3
z2
z1
z0
1:#
1{"
1U"
11"
1q!
1U!
1(!
1>#
1!#
1a"
18"
1v!
1]!
12!
1?#
1"#
1b"
1D"
1'"
1f!
1F!
#45000
1*
0,
0P
1M
1`
1<!
0N
1Q
1B
1C
1D
1E
1F
1G
1H
1I
0=!
17
16
15
14
13
12
11
10
0\#
0-#
0r"
0R"
0+"
0y!
0N!
0E!
0]#
0?#
0"#
0b"
0D"
0'"
0f!
0F!
0B
0C
0D
0E
0F
0G
0H
0I
07
06
05
04
03
02
01
00
#47500
1,
1P
0`
0Q
zB
zC
zD
zE
zF
zG
zH
zI
1=!
z7
z6
z5
z4
z3
z2
z1
z0
1\#
1-#
1r"
1R"
1+"
1y!
1N!
1E!
1]#
1?#
1"#
1b"
1D"
1'"
1f!
1F!
#50000
0/
0,
0P
0U
1`
1[
1Q
1B
1C
1D
1E
1F
1G
1H
1I
1>!
0=!
17
16
15
14
13
12
11
10
1?!
0\#
0-#
0r"
0R"
0+"
0y!
0N!
0E!
0]#
0?#
0"#
0b"
0D"
0'"
0f!
0F!
0B
0C
0D
0E
0F
0G
0H
0I
07
06
05
04
03
02
01
00
1+#
1-#
1?#
1H
16
#52500
1,
1P
0`
0[
0Q
zB
zC
zD
zE
zF
zG
zH
zI
0>!
1=!
z7
z6
z5
z4
z3
z2
z1
z0
0?!
1\#
1r"
1R"
1+"
1y!
1N!
1E!
1]#
1"#
1b"
1D"
1'"
1f!
1F!
#55000
0,
0P
1`
1[
1Q
1B
1C
1D
1E
1F
1G
1H
1I
1>!
0=!
17
16
15
14
13
12
11
10
1?!
0\#
0r"
0R"
0+"
0y!
0N!
0E!
0]#
0"#
0b"
0D"
0'"
0f!
0F!
0B
0C
0D
0E
0F
0G
0I
07
05
04
03
02
01
00
#57500
1,
1P
0`
0[
0Q
zB
zC
zD
zE
zF
zG
zH
zI
0>!
1=!
z7
z6
z5
z4
z3
z2
z1
z0
0?!
1\#
1r"
1R"
1+"
1y!
1N!
1E!
1]#
1"#
1b"
1D"
1'"
1f!
1F!
#60000
0!
1)
0*
1/
0,
0P
1U
0M
1@#
0J
0<!
1N
1Q
1Z#
1E#
1B
1C
1D
1E
1F
1G
1H
1I
0R
17
16
15
14
13
12
11
10
0G#
0-#
0g"
0K"
0?"
0%"
0d!
0_
0K#
0k"
0L"
0@"
0&"
0e!
0?#
0F!
0B
0H
06
00
0]#
0"#
0b"
0D"
0'"
0f!
0C
0D
0E
0F
0G
0I
07
05
04
03
02
01
#62500
1,
1P
0Q
zB
zC
zD
zE
zF
zG
zH
zI
1R
z7
z6
z5
z4
z3
z2
z1
z0
1G#
1-#
1g"
1K"
1?"
1%"
1d!
1_
1K#
1k"
1L"
1@"
1&"
1e!
1?#
1F!
1]#
1"#
1b"
1D"
1'"
1f!
#65000
0,
0P
1Q
1B
1C
1D
1E
1F
1G
1H
1I
0R
17
16
15
14
13
12
11
10
0G#
0-#
0g"
0K"
0?"
0%"
0d!
0_
0K#
0k"
0L"
0@"
0&"
0e!
0?#
0F!
0B
0H
06
00
0]#
0"#
0b"
0D"
0'"
0f!
0C
0D
0E
0F
0G
0I
07
05
04
03
02
01
#67500
1,
1P
0Q
zB
zC
zD
zE
zF
zG
zH
zI
1R
z7
z6
z5
z4
z3
z2
z1
z0
1G#
1-#
1g"
1K"
1?"
1%"
1d!
1_
1K#
1k"
1L"
1@"
1&"
1e!
1?#
1F!
1]#
1"#
1b"
1D"
1'"
1f!
#70000
0/
0,
0P
0U
1[
1Q
1B
1C
1D
1E
1F
1G
1H
1I
1\
0R
17
16
15
14
13
12
11
10
1]
0G#
0-#
0g"
0K"
0?"
0%"
0d!
0_
0K#
0k"
0L"
0@"
0&"
0e!
0?#
0F!
0B
0H
06
00
0]#
0"#
0b"
0D"
0'"
0f!
0C
0D
0E
0F
0G
0I
07
05
04
03
02
01
1D#
1,#
1G#
1-#
1K#
1?#
1H
16
1]#
1I
17
#72500
1,
1P
0[
0Q
zB
zC
zD
zE
zF
zG
zH
zI
0\
1R
z7
z6
z5
z4
z3
z2
z1
z0
0]
1g"
1K"
1?"
1%"
1d!
1_
1k"
1L"
1@"
1&"
1e!
1F!
1"#
1b"
1D"
1'"
1f!
#75000
1*
0,
0P
1M
1[
1<!
1S
0N
1Q
1B
1C
1D
1E
1F
1G
1H
1I
1k
0j
17
16
15
14
13
12
11
10
1l
0Q#
03#
0u"
0Y"
04"
0n!
0X!
0t
0X#
0>#
0!#
0a"
08"
0v!
0]!
02!
0]#
0?#
0"#
0b"
0D"
0'"
0f!
0F!
0B
0C
0D
0E
0F
0G
0H
0I
07
06
05
04
03
02
01
00
1O#
11#
1Q#
13#
1X#
1>#
1]#
1?#
1H
1I
17
16
#77500
1,
1P
0[
0Q
zB
zC
zD
zE
zF
zG
zH
zI
0k
1j
z7
z6
z5
z4
z3
z2
z1
z0
0l
1u"
1Y"
14"
1n!
1X!
1t
1!#
1a"
18"
1v!
1]!
12!
1"#
1b"
1D"
1'"
1f!
1F!
#80000
1'
0(
0)
1/
0,
0P
1U
0@#
0##
1c"
1Q
0Z#
0E#
07#
1p"
1e"
1B
1C
1D
1E
1F
1G
1H
1I
0j
17
16
15
14
13
12
11
10
0u"
0Y"
04"
0n!
0X!
0t
0!#
0a"
08"
0v!
0]!
02!
0"#
0b"
0D"
0'"
0f!
0F!
0B
0C
0D
0E
0F
0G
05
04
03
02
01
00
#82500
1,
1P
0Q
zB
zC
zD
zE
zF
zG
zH
zI
1j
z7
z6
z5
z4
z3
z2
z1
z0
1u"
1Y"
14"
1n!
1X!
1t
1!#
1a"
18"
1v!
1]!
12!
1"#
1b"
1D"
1'"
1f!
1F!
#85000
0,
0P
1Q
1B
1C
1D
1E
1F
1G
1H
1I
0j
17
16
15
14
13
12
11
10
0u"
0Y"
04"
0n!
0X!
0t
0!#
0a"
08"
0v!
0]!
02!
0"#
0b"
0D"
0'"
0f!
0F!
0B
0C
0D
0E
0F
0G
05
04
03
02
01
00
#87500
1,
1P
0Q
zB
zC
zD
zE
zF
zG
zH
zI
1j
z7
z6
z5
z4
z3
z2
z1
z0
1u"
1Y"
14"
1n!
1X!
1t
1!#
1a"
18"
1v!
1]!
12!
1"#
1b"
1D"
1'"
1f!
1F!
