acumulador/simulation/qsim/acumulador.msim.vcd
$comment
	File created using the following command:
		vcd file acumulador.msim.vcd -direction
$end
$date
	Sun Jul 30 20:40:15 2023
$end
$version
	ModelSim Version 2020.1
$end
$timescale
	1ps
$end

$scope module acumulador_vlg_vec_tst $end
$var reg 1 ! CLK $end
$var reg 1 " D0 $end
$var reg 1 # D1 $end
$var reg 1 $ D2 $end
$var reg 1 % D3 $end
$var reg 1 & D4 $end
$var reg 1 ' D5 $end
$var reg 1 ( D6 $end
$var reg 1 ) D7 $end
$var reg 1 * Ea $end
$var reg 1 + La $end
$var wire 1 , Q0 $end
$var wire 1 - Q1 $end
$var wire 1 . Q2 $end
$var wire 1 / Q3 $end
$var wire 1 0 Q4 $end
$var wire 1 1 Q5 $end
$var wire 1 2 Q6 $end
$var wire 1 3 Q7 $end
$var wire 1 4 S0 $end
$var wire 1 5 S1 $end
$var wire 1 6 S2 $end
$var wire 1 7 S3 $end
$var wire 1 8 S4 $end
$var wire 1 9 S5 $end
$var wire 1 : S6 $end
$var wire 1 ; S7 $end

$scope module i1 $end
$var wire 1 < gnd $end
$var wire 1 = vcc $end
$var wire 1 > unknown $end
$var tri1 1 ? devclrn $end
$var tri1 1 @ devpor $end
$var tri1 1 A devoe $end
$var wire 1 B ~QUARTUS_CREATED_GND~I_combout $end
$var wire 1 C CLK~input_o $end
$var wire 1 D CLK~inputCLKENA0_outclk $end
$var wire 1 E D7~input_o $end
$var wire 1 F inst2|inst23~feeder_combout $end
$var wire 1 G La~input_o $end
$var wire 1 H inst2|inst23~q $end
$var wire 1 I Ea~input_o $end
$var wire 1 J D6~input_o $end
$var wire 1 K inst2|inst22~q $end
$var wire 1 L D5~input_o $end
$var wire 1 M inst2|inst21~feeder_combout $end
$var wire 1 N inst2|inst21~q $end
$var wire 1 O D4~input_o $end
$var wire 1 P inst2|inst20~feeder_combout $end
$var wire 1 Q inst2|inst20~q $end
$var wire 1 R D3~input_o $end
$var wire 1 S inst1|inst23~feeder_combout $end
$var wire 1 T inst1|inst23~q $end
$var wire 1 U D2~input_o $end
$var wire 1 V inst1|inst22~feeder_combout $end
$var wire 1 W inst1|inst22~q $end
$var wire 1 X D1~input_o $end
$var wire 1 Y inst1|inst21~feeder_combout $end
$var wire 1 Z inst1|inst21~q $end
$var wire 1 [ D0~input_o $end
$var wire 1 \ inst1|inst20~feeder_combout $end
$var wire 1 ] inst1|inst20~q $end
$upscope $end
$upscope $end
$enddefinitions $end
#0
$dumpvars
1!
1"
1#
1$
1%
1&
1'
1(
0)
0*
0+
0,
0-
0.
0/
00
01
02
03
z4
z5
z6
z7
z8
z9
z:
z;
0<
1=
x>
1?
1@
1A
0B
1C
1D
0E
0F
0G
0H
0I
1J
0K
1L
1M
0N
1O
1P
0Q
1R
1S
0T
1U
1V
0W
1X
1Y
0Z
1[
1\
0]
$end
#10000
0$
0%
0&
0'
0(
0U
0R
0O
0L
0J
0M
0P
0S
0V
#20000
0!
0"
0#
1)
1*
1+
1$
1%
1&
1'
1(
0C
0[
0X
1E
1G
1U
1R
1O
1L
1J
0D
1I
0;
0:
09
08
07
06
05
04
1M
1P
1S
1V
1F
0Y
0\
#30000
1!
1"
1#
0$
0%
0&
0'
0(
1C
1[
1X
0U
0R
0O
0L
0J
1D
0M
0P
0S
0V
1Y
1\
#40000
0!
0"
0#
1$
1%
1&
1'
1(
0C
0[
0X
1U
1R
1O
1L
1J
0D
1M
1P
1S
1V
0Y
0\
#50000
0)
0*
0+
1!
1"
1#
0E
0G
1C
1[
1X
1D
0I
z;
z:
z9
z8
z7
z6
z5
z4
1Y
1\
0F
1W
1T
1Q
1N
1K
1H
13
12
11
10
1/
1.
#60000
0$
0%
0&
0'
0(
1)
1*
1+
0U
0R
0O
0L
0J
1E
1G
1I
1;
1:
19
18
17
16
05
04
1F
0M
0P
0S
0V
#70000
1$
1%
1&
1'
1(
0)
0*
0+
1U
1R
1O
1L
1J
0E
0G
0I
z;
z:
z9
z8
z7
z6
z5
z4
0F
1M
1P
1S
1V
#80000
1)
1*
1+
1E
1G
1I
1;
1:
19
18
17
16
05
04
1F
#90000
0$
0%
0&
0'
0(
0U
0R
0O
0L
0J
0M
0P
0S
0V
#100000
0)
0*
0+
1$
1%
1&
1'
1(
0E
0G
1U
1R
1O
1L
1J
0I
z;
z:
z9
z8
z7
z6
z5
z4
1M
1P
1S
1V
0F
#110000
1)
1*
1+
0$
0%
0&
0'
0(
1E
1G
0U
0R
0O
0L
0J
1I
1;
1:
19
18
17
16
05
04
0M
0P
0S
0V
1F
#120000
0)
0*
0+
1$
1%
1&
1'
1(
0E
0G
1U
1R
1O
1L
1J
0I
z;
z:
z9
z8
z7
z6
z5
z4
1M
1P
1S
1V
0F
#130000
0!
0"
0#
0C
0[
0X
0D
0Y
0\
#140000
1)
1*
1+
0$
0%
0&
0'
0(
1E
1G
0U
0R
0O
0L
0J
1I
1;
1:
19
18
17
16
05
04
0M
0P
0S
0V
1F
#150000
1!
1"
1#
0)
0*
0+
1C
1[
1X
0E
0G
1D
0I
z;
z:
z9
z8
z7
z6
z5
z4
0F
1Y
1\
0W
0T
0Q
0N
0K
02
01
00
0/
0.
#160000
1$
1%
1&
1'
1(
1)
1*
1+
1U
1R
1O
1L
1J
1E
1G
1I
1;
0:
09
08
07
06
05
04
1F
1M
1P
1S
1V
#170000
0!
0"
0#
0$
0%
0&
0'
0(
0)
0*
0+
0C
0[
0X
0U
0R
0O
0L
0J
0E
0G
0D
0I
z;
z:
z9
z8
z7
z6
z5
z4
0F
0M
0P
0S
0V
0Y
0\
#180000
1$
1%
1&
1'
1(
1U
1R
1O
1L
1J
1M
1P
1S
1V
#190000
1)
1*
1+
0$
0%
0&
0'
0(
1E
1G
0U
0R
0O
0L
0J
1I
1;
0:
09
08
07
06
05
04
0M
0P
0S
0V
1F
#200000
1!
1"
1#
1$
1%
1&
1'
1(
1C
1[
1X
1U
1R
1O
1L
1J
1D
1M
1P
1S
1V
1Y
1\
#210000
0)
0*
0+
0$
0%
0&
0'
0(
0E
0G
0U
0R
0O
0L
0J
0I
z;
z:
z9
z8
z7
z6
z5
z4
0M
0P
0S
0V
0F
#220000
0!
0"
0#
0C
0[
0X
0D
0Y
0\
#230000
1$
1%
1&
1'
1(
1!
1"
1#
1U
1R
1O
1L
1J
1C
1[
1X
1D
1Y
1\
1M
1P
1S
1V
1K
0H
03
12
#240000
0!
0"
0#
0C
0[
0X
0D
0Y
0\
#250000
0$
0%
0&
0'
0(
0U
0R
0O
0L
0J
0M
0P
0S
0V
#260000
1)
1*
1+
1E
1G
1I
0;
1:
09
08
07
06
05
04
1F
#270000
1$
1%
1&
1'
1(
0)
0*
0+
1U
1R
1O
1L
1J
0E
0G
0I
z;
z:
z9
z8
z7
z6
z5
z4
0F
1M
1P
1S
1V
#280000
1!
1"
1#
0$
0%
0&
0'
0(
1)
1*
1+
1C
1[
1X
0U
0R
0O
0L
0J
1E
1G
1D
1I
0;
1:
09
08
07
06
05
04
1F
0M
0P
0S
0V
1Y
1\
#290000
0!
0"
0#
1$
1%
1&
1'
1(
0C
0[
0X
1U
1R
1O
1L
1J
0D
1M
1P
1S
1V
0Y
0\
#300000
0)
0*
0+
0E
0G
0I
z;
z:
z9
z8
z7
z6
z5
z4
0F
#310000
0$
0%
0&
0'
0(
0U
0R
0O
0L
0J
0M
0P
0S
0V
#320000
1$
1%
1&
1'
1(
1U
1R
1O
1L
1J
1M
1P
1S
1V
#330000
1!
1"
1#
1)
1*
1+
0$
0%
0&
0'
0(
1C
1[
1X
1E
1G
0U
0R
0O
0L
0J
1D
1I
0;
1:
09
08
07
06
05
04
0M
0P
0S
0V
1F
1Y
1\
#340000
0!
0"
0#
0)
0*
0+
1$
1%
1&
1'
1(
0C
0[
0X
0E
0G
1U
1R
1O
1L
1J
0D
0I
z;
z:
z9
z8
z7
z6
z5
z4
1M
1P
1S
1V
0F
0Y
0\
#350000
1)
1*
1+
0$
0%
0&
0'
0(
1E
1G
0U
0R
0O
0L
0J
1I
0;
1:
09
08
07
06
05
04
0M
0P
0S
0V
1F
#360000
0)
0*
0+
0E
0G
0I
z;
z:
z9
z8
z7
z6
z5
z4
0F
#370000
1!
1"
1#
1$
1%
1&
1'
1(
1)
1*
1+
1C
1[
1X
1U
1R
1O
1L
1J
1E
1G
1D
1I
0;
1:
09
08
07
06
05
04
1F
1M
1P
1S
1V
1Y
1\
#380000
0)
0*
0+
0E
0G
0I
z;
z:
z9
z8
z7
z6
z5
z4
0F
#390000
0$
0%
0&
0'
0(
1)
1*
1+
0U
0R
0O
0L
0J
1E
1G
1I
0;
1:
09
08
07
06
05
04
1F
0M
0P
0S
0V
#400000
1$
1%
1&
1'
1(
1U
1R
1O
1L
1J
1M
1P
1S
1V
#410000
0!
0"
0#
0C
0[
0X
0D
0Y
0\
#420000
0)
0*
0+
0E
0G
0I
z;
z:
z9
z8
z7
z6
z5
z4
0F
#430000
0$
0%
0&
0'
0(
0U
0R
0O
0L
0J
0M
0P
0S
0V
#440000
1)
1*
1+
1$
1%
1&
1'
1(
1E
1G
1U
1R
1O
1L
1J
1I
0;
1:
09
08
07
06
05
04
1M
1P
1S
1V
1F
#450000
1!
1"
1#
1C
1[
1X
1D
1Y
1\
#460000
0)
0*
0+
0!
0"
0#
0E
0G
0C
0[
0X
0D
0I
z;
z:
z9
z8
z7
z6
z5
z4
0Y
0\
0F
#470000
0$
0%
0&
0'
0(
1)
1*
1+
0U
0R
0O
0L
0J
1E
1G
1I
0;
1:
09
08
07
06
05
04
1F
0M
0P
0S
0V
#480000
1!
1"
1#
1$
1%
1&
1'
1(
1C
1[
1X
1U
1R
1O
1L
1J
1D
1M
1P
1S
1V
1Y
1\
#490000
0)
0*
0+
0E
0G
0I
z;
z:
z9
z8
z7
z6
z5
z4
0F
#500000
0!
0"
0#
0$
0%
0&
0'
0(
0C
0[
0X
0U
0R
0O
0L
0J
0D
0M
0P
0S
0V
0Y
0\
#510000
1)
1*
1+
1!
1"
1#
1E
1G
1C
1[
1X
1D
1I
0;
1:
09
08
07
06
05
04
1Y
1\
1F
#520000
0)
0*
0+
0E
0G
0I
z;
z:
z9
z8
z7
z6
z5
z4
0F
#530000
1$
1%
1&
1'
1(
0!
0"
0#
1U
1R
1O
1L
1J
0C
0[
0X
0D
0Y
0\
1M
1P
1S
1V
#540000
1)
1*
1+
1!
1"
1#
1E
1G
1C
1[
1X
1D
1I
0;
1:
09
08
07
06
05
04
1Y
1\
1F
#550000
0$
0%
0&
0'
0(
0)
0*
0+
0!
0"
0#
0U
0R
0O
0L
0J
0E
0G
0C
0[
0X
0D
0I
z;
z:
z9
z8
z7
z6
z5
z4
0Y
0\
0F
0M
0P
0S
0V
#560000
1)
1*
1+
1E
1G
1I
0;
1:
09
08
07
06
05
04
1F
#570000
1$
1%
1&
1'
1(
0)
0*
0+
1U
1R
1O
1L
1J
0E
0G
0I
z;
z:
z9
z8
z7
z6
z5
z4
0F
1M
1P
1S
1V
#580000
1!
1"
1#
1C
1[
1X
1D
1Y
1\
1W
1T
1Q
1N
11
10
1/
1.
#590000
0$
0%
0&
0'
0(
1)
1*
1+
0!
0"
0#
0U
0R
0O
0L
0J
1E
1G
0C
0[
0X
0D
1I
0;
1:
19
18
17
16
05
04
0Y
0\
1F
0M
0P
0S
0V
#600000
1!
1"
1#
1C
1[
1X
1D
1Y
1\
#610000
1$
1%
1&
1'
1(
0)
0*
0+
1U
1R
1O
1L
1J
0E
0G
0I
z;
z:
z9
z8
z7
z6
z5
z4
0F
1M
1P
1S
1V
#620000
0!
0"
0#
0C
0[
0X
0D
0Y
0\
#630000
1)
1*
1+
1E
1G
1I
0;
1:
19
18
17
16
05
04
1F
#640000
0$
0%
0&
0'
0(
0U
0R
0O
0L
0J
0M
0P
0S
0V
#660000
1!
1"
1#
0)
0*
0+
1$
1%
1&
1'
1(
1C
1[
1X
0E
0G
1U
1R
1O
1L
1J
1D
0I
z;
z:
z9
z8
z7
z6
z5
z4
1M
1P
1S
1V
0F
1Y
1\
0W
0T
0Q
0N
1H
13
01
00
0/
0.
#670000
1)
1*
1+
1E
1G
1I
1;
1:
09
08
07
06
05
04
1F
#680000
0!
0"
0#
0)
0*
0+
0C
0[
0X
0E
0G
0D
0I
z;
z:
z9
z8
z7
z6
z5
z4
0F
0Y
0\
#710000
1)
1*
1+
1E
1G
1I
1;
1:
09
08
07
06
05
04
1F
#720000
0$
0%
0&
0'
0(
1!
1"
1#
0U
0R
0O
0L
0J
1C
1[
1X
1D
1Y
1\
0M
0P
0S
0V
#730000
0)
0*
0+
1$
1%
1&
1'
1(
0!
0"
0#
0E
0G
1U
1R
1O
1L
1J
0C
0[
0X
0D
0I
z;
z:
z9
z8
z7
z6
z5
z4
0Y
0\
1M
1P
1S
1V
0F
#740000
1)
1*
1+
1E
1G
1I
1;
1:
09
08
07
06
05
04
1F
#750000
1!
1"
1#
0)
0*
0+
1C
1[
1X
0E
0G
1D
0I
z;
z:
z9
z8
z7
z6
z5
z4
0F
1Y
1\
1W
1T
1Q
1N
11
10
1/
1.
#760000
1)
1*
1+
1E
1G
1I
1;
1:
19
18
17
16
05
04
1F
#770000
0)
0*
0+
0E
0G
0I
z;
z:
z9
z8
z7
z6
z5
z4
0F
#780000
0$
0%
0&
0'
0(
0U
0R
0O
0L
0J
0M
0P
0S
0V
#790000
1)
1*
1+
1E
1G
1I
1;
1:
19
18
17
16
05
04
1F
#800000
0!
0"
0#
0C
0[
0X
0D
0Y
0\
#820000
0)
0*
0+
1!
1"
1#
0E
0G
1C
1[
1X
1D
0I
z;
z:
z9
z8
z7
z6
z5
z4
1Y
1\
0F
0W
0T
0Q
0N
0K
02
01
00
0/
0.
#830000
0!
0"
0#
0C
0[
0X
0D
0Y
0\
#840000
1)
1*
1+
1E
1G
1I
1;
0:
09
08
07
06
05
04
1F
#850000
1!
1"
1#
0)
0*
0+
1C
1[
1X
0E
0G
1D
0I
z;
z:
z9
z8
z7
z6
z5
z4
0F
1Y
1\
#860000
1)
1*
1+
1E
1G
1I
1;
0:
09
08
07
06
05
04
1F
#870000
0!
0"
0#
0C
0[
0X
0D
0Y
0\
#880000
1$
1%
1&
1'
1(
0)
0*
0+
1!
1"
1#
1U
1R
1O
1L
1J
0E
0G
1C
1[
1X
1D
0I
z;
z:
z9
z8
z7
z6
z5
z4
1Y
1\
0F
1M
1P
1S
1V
1K
12
#890000
0$
0%
0&
0'
0(
0!
0"
0#
0U
0R
0O
0L
0J
0C
0[
0X
0D
0Y
0\
0M
0P
0S
0V
#900000
1!
1"
1#
1C
1[
1X
1D
1Y
1\
0K
0H
03
02
#910000
1)
1*
1+
1$
1%
1&
1'
1(
0!
0"
0#
1E
1G
1U
1R
1O
1L
1J
0C
0[
0X
0D
1I
0;
0:
09
08
07
06
05
04
0Y
0\
1M
1P
1S
1V
1F
#920000
0)
0*
0+
0E
0G
0I
z;
z:
z9
z8
z7
z6
z5
z4
0F
#930000
0$
0%
0&
0'
0(
1!
1"
1#
1)
1*
1+
0U
0R
0O
0L
0J
1C
1[
1X
1E
1G
1D
1I
0;
0:
09
08
07
06
05
04
1F
1Y
1\
0M
0P
0S
0V
#950000
1$
1%
1&
1'
1(
0)
0*
0+
1U
1R
1O
1L
1J
0E
0G
0I
z;
z:
z9
z8
z7
z6
z5
z4
0F
1M
1P
1S
1V
#960000
0!
0"
0#
0C
0[
0X
0D
0Y
0\
#970000
0$
0%
0&
0'
0(
0U
0R
0O
0L
0J
0M
0P
0S
0V
#980000
1!
1"
1#
1$
1%
1&
1'
1(
1C
1[
1X
1U
1R
1O
1L
1J
1D
1M
1P
1S
1V
1Y
1\
1K
12
