acumulador/simulation/qsim/acumulador.msim.vcd
$comment
	File created using the following command:
		vcd file acumulador.msim.vcd -direction
$end
$date
	Wed Aug 02 00:02:27 2023
$end
$version
	ModelSim Version 2020.1
$end
$timescale
	1ps
$end

$scope module acumulador_vlg_vec_tst $end
$var reg 1 ! CLK $end
$var reg 1 " D0 $end
$var reg 1 # D1 $end
$var reg 1 $ D2 $end
$var reg 1 % D3 $end
$var reg 1 & D4 $end
$var reg 1 ' D5 $end
$var reg 1 ( D6 $end
$var reg 1 ) D7 $end
$var reg 1 * Ea $end
$var reg 1 + La $end
$var wire 1 , Q0 $end
$var wire 1 - Q1 $end
$var wire 1 . Q2 $end
$var wire 1 / Q3 $end
$var wire 1 0 Q4 $end
$var wire 1 1 Q5 $end
$var wire 1 2 Q6 $end
$var wire 1 3 Q7 $end
$var wire 1 4 S0 $end
$var wire 1 5 S1 $end
$var wire 1 6 S2 $end
$var wire 1 7 S3 $end
$var wire 1 8 S4 $end
$var wire 1 9 S5 $end
$var wire 1 : S6 $end
$var wire 1 ; S7 $end

$scope module i1 $end
$var wire 1 < gnd $end
$var wire 1 = vcc $end
$var wire 1 > unknown $end
$var tri1 1 ? devclrn $end
$var tri1 1 @ devpor $end
$var tri1 1 A devoe $end
$var wire 1 B ~QUARTUS_CREATED_GND~I_combout $end
$var wire 1 C CLK~input_o $end
$var wire 1 D CLK~inputCLKENA0_outclk $end
$var wire 1 E D7~input_o $end
$var wire 1 F inst2|inst23~feeder_combout $end
$var wire 1 G La~input_o $end
$var wire 1 H inst2|inst23~q $end
$var wire 1 I Ea~input_o $end
$var wire 1 J D6~input_o $end
$var wire 1 K inst2|inst22~q $end
$var wire 1 L D5~input_o $end
$var wire 1 M inst2|inst21~feeder_combout $end
$var wire 1 N inst2|inst21~q $end
$var wire 1 O D4~input_o $end
$var wire 1 P inst2|inst20~feeder_combout $end
$var wire 1 Q inst2|inst20~q $end
$var wire 1 R D3~input_o $end
$var wire 1 S inst1|inst23~feeder_combout $end
$var wire 1 T inst1|inst23~q $end
$var wire 1 U D2~input_o $end
$var wire 1 V inst1|inst22~feeder_combout $end
$var wire 1 W inst1|inst22~q $end
$var wire 1 X D1~input_o $end
$var wire 1 Y inst1|inst21~feeder_combout $end
$var wire 1 Z inst1|inst21~q $end
$var wire 1 [ D0~input_o $end
$var wire 1 \ inst1|inst20~feeder_combout $end
$var wire 1 ] inst1|inst20~q $end
$upscope $end
$upscope $end
$enddefinitions $end
#0
$dumpvars
1!
0"
1#
0$
1%
1&
0'
1(
0)
1*
1+
0,
0-
0.
0/
00
01
02
03
04
05
06
07
08
09
0:
0;
0<
1=
x>
1?
1@
1A
0B
1C
1D
0E
0F
1G
0H
1I
1J
0K
0L
0M
0N
1O
1P
0Q
1R
1S
0T
0U
0V
0W
1X
1Y
0Z
0[
0\
0]
$end
#2000
0+
0G
#8500
1+
1G
#15000
0!
0*
0+
0C
0G
0D
0I
z;
z:
z9
z8
z7
z6
z5
z4
#20000
1"
0&
1'
0(
1[
0O
1L
0J
1M
0P
1\
#21500
1+
1G
#28000
0+
0G
#30000
1!
1C
1D
1]
1Z
1T
1N
11
1/
1-
1,
#34500
1+
1G
#40000
1)
1&
0'
1(
1E
1O
0L
1J
0M
1P
1F
#41000
0+
0G
#45000
1*
0!
0C
0D
1I
0;
0:
19
08
17
06
15
14
#47500
1+
1G
#54000
0+
0G
#60000
0%
0"
1'
1!
0R
0[
1L
1C
1D
1M
0\
0S
1Q
0N
1K
1H
1;
13
1:
12
09
01
18
10
#60500
1+
1G
#67000
0+
0G
#73500
1+
1G
#75000
0*
0!
0C
0D
0I
z;
z:
z9
z8
z7
z6
z5
z4
#80000
0&
0(
0'
0+
0O
0J
0L
0G
0M
0P
#86500
1+
1G
#90000
1!
1C
1D
#93000
0+
0G
#99500
1+
1G
#100000
0#
1$
0)
1%
1(
1'
0X
1U
0E
1R
1J
1L
1M
1S
0F
1V
0Y
#105000
1*
0!
0C
0D
1I
1;
1:
09
18
17
06
15
14
#106000
0+
0G
#112500
1+
1G
#119000
0+
0G
#120000
1"
0$
0(
1!
1[
0U
0J
1C
1D
0V
1\
0]
0Z
1W
0Q
1N
0K
0H
0;
03
0:
02
19
11
08
00
16
1.
05
0-
04
0,
#125500
1+
1G
#132000
0+
0G
#135000
0*
0!
0C
0D
0I
z;
z:
z9
z8
z7
z6
z5
z4
#138500
1+
1G
#140000
1#
1)
1$
1(
1X
1E
1U
1J
1V
1F
1Y
#145000
0+
0G
#150000
1!
1C
1D
1]
1Z
1K
1H
13
12
1-
1,
#151500
1+
1G
#158000
0+
0G
#160000
1&
0%
0)
0$
0(
1O
0R
0E
0U
0J
0V
0F
0S
1P
#164500
1+
1G
#165000
1*
0!
0C
0D
1I
1;
1:
19
08
17
16
15
14
#171000
0+
0G
#177500
1+
1G
#180000
0#
0&
1$
1(
1!
0X
0O
1U
1J
1C
1D
1V
0P
0Y
#184000
0+
0G
#190500
1+
1G
#195000
0*
0!
0C
0D
0I
z;
z:
z9
z8
z7
z6
z5
z4
#197000
0+
0G
#200000
1%
1&
0$
1R
1O
0U
0V
1P
1S
#203500
1+
1G
#210000
1!
0+
1C
0G
1D
0Z
0W
1Q
0H
03
10
0.
0-
#216500
1+
1G
#220000
0"
1#
0(
0%
0&
0[
1X
0J
0R
0O
0P
0S
1Y
0\
#223000
0+
0G
#225000
1*
0!
0C
0D
1I
0;
1:
19
18
17
06
05
14
#229500
1+
1G
#236000
0+
0G
#240000
0'
1"
1!
0L
1[
1C
1D
1\
0M
0]
1Z
0T
0Q
0K
0:
02
08
00
07
0/
15
1-
04
0,
#242500
1+
1G
#249000
0+
0G
#255000
0*
0!
0C
0D
0I
z;
z:
z9
z8
z7
z6
z5
z4
#255500
1+
1G
#260000
1)
0#
1(
1%
1E
0X
1J
1R
1S
0Y
1F
#262000
0+
0G
#268500
1+
1G
#270000
1!
1C
1D
#275000
0+
0G
#280000
0"
0)
0[
0E
0F
0\
#281500
1+
1G
#285000
1*
0!
0C
0D
1I
0;
0:
19
08
07
06
15
04
#288000
0+
0G
#294500
1+
1G
#300000
1$
1#
0(
0%
1)
1!
1U
1X
0J
0R
1E
1C
1D
1F
0S
1Y
1V
#301000
0+
0G
#307500
1+
1G
#314000
0+
0G
#315000
0*
0!
0C
0D
0I
z;
z:
z9
z8
z7
z6
z5
z4
#320000
1&
1'
0$
1%
1O
1L
0U
1R
1S
0V
1M
1P
#320500
1+
1G
#327000
0+
0G
#330000
1!
1C
1D
1T
1Q
1H
13
10
1/
#333500
1+
1G
#340000
0)
1$
0%
0+
0E
1U
0R
0G
0S
1V
0F
#345000
1*
0!
0C
0D
1I
1;
0:
19
18
17
06
15
04
#346500
1+
1G
#353000
0+
0G
#359500
1+
1G
#360000
0'
0$
1!
0L
0U
1C
1D
0V
0M
#366000
0+
0G
#372500
1+
1G
#375000
0*
0!
0C
0D
0I
z;
z:
z9
z8
z7
z6
z5
z4
#379000
0+
0G
#380000
1"
0#
1(
1)
1'
1[
0X
1J
1E
1L
1M
1F
0Y
1\
#385500
1+
1G
#390000
1!
1C
1D
#392000
0+
0G
#398500
1+
1G
#400000
1%
1$
1#
0)
1R
1U
1X
0E
0F
1Y
1V
1S
#405000
1*
0!
0+
0C
0G
0D
1I
1;
0:
19
18
17
06
15
04
#411500
1+
1G
#418000
0+
0G
#420000
0(
0%
0$
1!
0J
0R
0U
1C
1D
0V
0S
1]
1W
0H
0;
03
16
1.
14
1,
#424500
1+
1G
#431000
0+
0G
#435000
0*
0!
0C
0D
0I
z;
z:
z9
z8
z7
z6
z5
z4
#437500
1+
1G
#440000
0&
0'
1)
1%
1$
0O
0L
1E
1R
1U
1V
1S
1F
0M
0P
#444000
0+
0G
#450000
1!
1C
1D
0Q
0N
1H
13
01
00
#450500
1+
1G
#457000
0+
0G
#460000
0"
0#
1(
1'
0)
0%
0$
0[
0X
1J
1L
0E
0R
0U
0V
0S
0F
1M
0Y
0\
#463500
1+
1G
#465000
1*
0!
0C
0D
1I
1;
0:
09
08
17
16
15
14
#470000
0+
0G
#476500
1+
1G
#480000
1&
1$
1!
1O
1U
1C
1D
1V
1P
#483000
0+
0G
#489500
1+
1G
#495000
0*
0!
0C
0D
0I
z;
z:
z9
z8
z7
z6
z5
z4
#496000
0+
0G
#500000
1#
0(
0&
0$
1X
0J
0O
0U
0V
0P
1Y
#502500
1+
1G
#509000
0+
0G
#510000
1!
1C
1D
0]
0W
0T
1N
0H
03
11
0/
0.
0,
#515500
1+
1G
#520000
1"
1%
1&
1$
1[
1R
1O
1U
1V
1P
1S
1\
#522000
0+
0G
#525000
1*
0!
0C
0D
1I
0;
0:
19
08
07
06
15
04
#528500
1+
1G
#535000
0+
0G
#540000
0'
1)
0"
0&
0$
1!
0L
1E
0[
0O
0U
1C
1D
0V
0P
0\
1F
0M
1]
1W
1T
1Q
18
10
17
1/
16
1.
14
1,
#541500
1+
1G
#548000
0+
0G
#554500
1+
1G
#555000
0*
0!
0C
0D
0I
z;
z:
z9
z8
z7
z6
z5
z4
#560000
0#
0%
0)
1$
0X
0R
0E
1U
1V
0F
0S
0Y
#561000
0+
0G
#567500
1+
1G
#570000
1!
1C
1D
#574000
0+
0G
#580000
1(
1"
1&
1%
1)
1J
1[
1O
1R
1E
1F
1S
1P
1\
#580500
1+
1G
#585000
1*
0!
0C
0D
1I
0;
0:
19
18
17
16
15
14
#587000
0+
0G
#593500
1+
1G
#600000
1'
0$
0&
0%
0)
1!
0+
1L
0U
0O
0R
0E
1C
0G
1D
0F
0S
0P
0V
1M
0Z
0N
1K
1H
1;
13
1:
12
09
01
05
0-
#606500
1+
1G
#613000
0+
0G
#615000
0*
0!
0C
0D
0I
z;
z:
z9
z8
z7
z6
z5
z4
#619500
1+
1G
#620000
1#
0"
0'
1X
0[
0L
0M
0\
1Y
#626000
0+
0G
#630000
1!
1C
1D
0]
1Z
0W
0T
0Q
0H
03
00
0/
0.
1-
0,
#632500
1+
1G
#639000
0+
0G
#640000
1&
1%
1)
0#
1"
1O
1R
1E
0X
1[
1\
0Y
1F
1S
1P
#645000
1*
0!
0C
0D
1I
0;
1:
09
08
07
06
15
04
#645500
1+
1G
#652000
0+
0G
#658500
1+
1G
#660000
0)
1#
0"
1!
0E
1X
0[
1C
1D
0\
1Y
0F
#665000
0+
0G
#671500
1+
1G
#675000
0*
0!
0C
0D
0I
z;
z:
z9
z8
z7
z6
z5
z4
#678000
0+
0G
#680000
0(
1$
1)
0#
1"
0J
1U
1E
0X
1[
1\
0Y
1F
1V
#684500
1+
1G
#690000
1!
1C
1D
#691000
0+
0G
#697500
1+
1G
#700000
1(
0$
1J
0U
0V
#704000
0+
0G
#705000
1*
0!
0C
0D
1I
0;
1:
09
08
07
06
15
04
#710500
1+
1G
#717000
0+
0G
#720000
1'
0%
0)
1#
0"
1$
1!
1L
0R
0E
1X
0[
1U
1C
1D
1V
0\
1Y
0F
0S
1M
1]
0Z
1T
1Q
1H
1;
13
18
10
17
1/
05
0-
14
1,
#723500
1+
1G
#730000
0+
0G
#735000
0*
0!
0C
0D
0I
z;
z:
z9
z8
z7
z6
z5
z4
#736500
1+
1G
#740000
0&
0(
1)
1"
0$
0O
0J
1E
1[
0U
0V
1\
1F
0P
#743000
0+
0G
#749500
1+
1G
#750000
1!
1C
1D
#756000
0+
0G
#760000
0'
1%
0"
0L
1R
0[
0\
1S
0M
#762500
1+
1G
#765000
1*
0!
0C
0D
1I
1;
1:
09
18
17
06
05
14
#769000
0+
0G
#775500
1+
1G
#780000
0#
1'
1"
1!
0X
1L
1[
1C
1D
1\
1M
0Y
#782000
0+
0G
#788500
1+
1G
#795000
0*
0!
0+
0C
0G
0D
0I
z;
z:
z9
z8
z7
z6
z5
z4
#800000
1&
1(
0)
1$
1O
1J
0E
1U
1V
0F
1P
#801500
1+
1G
#808000
0+
0G
#810000
1!
1C
1D
1W
1N
0H
03
11
1.
#814500
1+
1G
#820000
0%
0'
0"
1)
0$
0R
0L
0[
1E
0U
0V
1F
0\
0M
0S
#821000
0+
0G
#825000
1*
0!
0C
0D
1I
0;
1:
19
18
17
16
05
14
#827500
1+
1G
#834000
0+
0G
#840000
1#
0&
0(
1%
1'
1"
1!
1X
0O
0J
1R
1L
1[
1C
1D
1\
1M
1S
0P
1Y
0]
0W
0T
0N
0K
1H
1;
13
0:
02
09
01
07
0/
06
0.
04
0,
#840500
1+
1G
#847000
0+
0G
#853500
1+
1G
#855000
0*
0!
0C
0D
0I
z;
z:
z9
z8
z7
z6
z5
z4
#860000
1(
0"
0+
1J
0[
0G
0\
#866500
1+
1G
#870000
1!
1C
1D
#873000
0+
0G
#879500
1+
1G
#880000
0)
1$
1&
0E
1U
1O
1P
1V
0F
#885000
1*
0!
0C
0D
1I
1;
0:
09
18
07
06
05
04
#886000
0+
0G
#892500
1+
1G
#899000
0+
0G
#900000
0#
0'
1"
1)
1!
0X
0L
1[
1E
1C
1D
1F
1\
0M
0Y
1Z
1W
1T
1N
1K
0H
0;
03
1:
12
19
11
17
1/
16
1.
15
1-
#905500
1+
1G
#912000
0+
0G
#915000
0*
0!
0C
0D
0I
z;
z:
z9
z8
z7
z6
z5
z4
#918500
1+
1G
#920000
0(
0$
0)
0J
0U
0E
0F
0V
#925000
0+
0G
#930000
1!
1C
1D
1]
0Z
0W
0N
0K
02
01
0.
0-
1,
#931500
1+
1G
#938000
0+
0G
#940000
1#
0"
1(
1$
1X
0[
1J
1U
1V
0\
1Y
#944500
1+
1G
#945000
1*
0!
0C
0D
1I
0;
0:
09
18
17
06
05
14
#951000
0+
0G
#957500
1+
1G
#960000
0&
1)
0#
1"
0(
0$
1!
0O
1E
0X
1[
0J
0U
1C
1D
0V
1\
0Y
1F
0P
#964000
0+
0G
#970500
1+
1G
#975000
0*
0!
0C
0D
0I
z;
z:
z9
z8
z7
z6
z5
z4
#977000
0+
0G
#980000
0%
1'
1&
0)
0"
0R
1L
1O
0E
0[
0\
0F
1P
1M
0S
#983500
1+
1G
#990000
1!
0+
1C
0G
1D
0]
0T
1N
11
0/
0,
#996500
1+
1G
