ALP174xx374/simulation/qsim/ALP174xx374.msim.vcd
$comment
	File created using the following command:
		vcd file ALP174xx374.msim.vcd -direction
$end
$date
	Tue Aug 01 21:36:13 2023
$end
$version
	ModelSim Version 2020.1
$end
$timescale
	1ps
$end

$scope module ALP174xx374_vlg_vec_tst $end
$var reg 1 ! CLK $end
$var reg 1 " D0 $end
$var reg 1 # D1 $end
$var reg 1 $ D2 $end
$var reg 1 % D3 $end
$var reg 1 & D4 $end
$var reg 1 ' D5 $end
$var reg 1 ( D6 $end
$var reg 1 ) D7 $end
$var reg 1 * OEN $end
$var wire 1 + Q0 $end
$var wire 1 , Q1 $end
$var wire 1 - Q2 $end
$var wire 1 . Q3 $end
$var wire 1 / Q4 $end
$var wire 1 0 Q5 $end
$var wire 1 1 Q6 $end
$var wire 1 2 Q7 $end

$scope module i1 $end
$var wire 1 3 gnd $end
$var wire 1 4 vcc $end
$var wire 1 5 unknown $end
$var tri1 1 6 devclrn $end
$var tri1 1 7 devpor $end
$var tri1 1 8 devoe $end
$var wire 1 9 ~QUARTUS_CREATED_GND~I_combout $end
$var wire 1 : ~QUARTUS_CREATED_UNVM~~busy $end
$var wire 1 ; ~QUARTUS_CREATED_ADC1~~eoc $end
$var wire 1 < ~QUARTUS_CREATED_ADC2~~eoc $end
$var wire 1 = Q0~output_o $end
$var wire 1 > Q1~output_o $end
$var wire 1 ? Q2~output_o $end
$var wire 1 @ Q3~output_o $end
$var wire 1 A Q4~output_o $end
$var wire 1 B Q5~output_o $end
$var wire 1 C Q6~output_o $end
$var wire 1 D Q7~output_o $end
$var wire 1 E CLK~input_o $end
$var wire 1 F CLK~inputclkctrl_outclk $end
$var wire 1 G D0~input_o $end
$var wire 1 H inst~q $end
$var wire 1 I OEN~input_o $end
$var wire 1 J D1~input_o $end
$var wire 1 K inst1~q $end
$var wire 1 L D2~input_o $end
$var wire 1 M inst2~feeder_combout $end
$var wire 1 N inst2~q $end
$var wire 1 O D3~input_o $end
$var wire 1 P inst3~q $end
$var wire 1 Q D4~input_o $end
$var wire 1 R inst4~q $end
$var wire 1 S D5~input_o $end
$var wire 1 T inst5~feeder_combout $end
$var wire 1 U inst5~q $end
$var wire 1 V D6~input_o $end
$var wire 1 W inst6~feeder_combout $end
$var wire 1 X inst6~q $end
$var wire 1 Y D7~input_o $end
$var wire 1 Z inst7~q $end
$upscope $end
$upscope $end
$enddefinitions $end
#0
$dumpvars
0!
1"
0#
0$
0%
1&
0'
0(
1)
0*
0+
0,
0-
0.
0/
00
01
02
03
14
x5
16
17
18
09
z:
z;
z<
0=
0>
0?
0@
0A
0B
0C
0D
0E
0F
1G
0H
0I
0J
0K
0L
0M
0N
0O
0P
1Q
0R
0S
0T
0U
0V
0W
0X
1Y
0Z
$end
#10000
1!
1E
1F
1Z
1R
1H
1=
1A
1D
12
1/
1+
#20000
1#
1%
1'
0)
1*
0!
0E
1I
0Y
1S
1O
1J
0F
zD
zC
zB
zA
z@
z?
z>
z=
z+
z,
z-
z.
z/
z0
z1
z2
1T
#30000
1!
1E
1F
0Z
1U
1P
1K
#40000
0"
1$
1(
0#
0%
0*
0!
0E
0I
0O
0J
1V
1L
0G
0F
0D
0C
1B
1A
1@
0?
1>
1=
1+
1,
0-
1.
1/
10
01
02
1W
1M
#50000
1!
1E
1F
1X
0P
1N
0K
0H
0=
0>
1?
0@
1C
11
0.
1-
0,
0+
#60000
0'
0(
1#
1%
0!
0E
1O
1J
0V
0S
0F
0W
0T
#70000
1!
1E
1F
0X
0U
1P
1K
1>
1@
0B
0C
01
00
1.
1,
#80000
0&
1'
1(
0%
0!
0E
0O
1V
1S
0Q
0F
1W
1T
#90000
1!
1E
1F
1X
1U
0R
0P
0@
0A
1B
1C
11
10
0/
0.
#100000
1"
0$
0#
0'
0(
0!
0E
0V
0S
0J
0L
1G
0F
0W
0T
0M
#110000
1!
1E
1F
0X
0U
0N
0K
1H
1=
0>
0?
0B
0C
01
00
0-
0,
1+
#120000
1)
0"
1(
0!
0E
1V
0G
1Y
0F
1W
#130000
1!
1E
1F
1Z
1X
0H
0=
1C
1D
12
11
0+
#140000
1&
1$
1'
1"
0(
0!
0E
0V
1G
1S
1L
1Q
0F
0W
1T
1M
#150000
1!
1E
1F
0X
1U
1R
1N
1H
1=
1?
1A
1B
0C
01
10
1/
1-
1+
#160000
1%
0)
0$
0"
0!
0E
0G
0L
0Y
1O
0F
0M
#170000
1!
1E
1F
0Z
1P
0N
0H
0=
0?
1@
0D
02
1.
0-
0+
#180000
1#
0&
1)
1$
0!
0E
1L
1Y
0Q
1J
0F
1M
#190000
1!
1E
1F
1Z
0R
1N
1K
1>
1?
0A
1D
12
0/
1-
1,
#200000
0'
1(
0%
1"
0#
1&
0$
0!
0E
0L
1Q
0J
1G
0O
1V
0S
0F
0M
1W
0T
#210000
1!
1E
1F
1X
0U
1R
0P
0N
0K
1H
1=
0>
0?
0@
1A
0B
1C
11
00
1/
0.
0-
0,
1+
#220000
1'
0"
1#
0&
1$
0!
0E
1L
0Q
1J
0G
1S
0F
1M
1T
#230000
1!
1E
1F
1U
0R
1N
1K
0H
0=
1>
1?
0A
1B
10
0/
1-
1,
0+
#240000
0(
1%
1"
1&
0!
0E
1Q
1G
1O
0V
0F
0W
#250000
1!
1E
1F
0X
1R
1P
1H
1=
1@
1A
0C
01
1/
1.
1+
#260000
0'
0#
0$
1(
0"
0!
0E
0G
1V
0L
0J
0S
0F
1W
0M
0T
#270000
1!
1E
1F
1X
0U
0N
0K
0H
0=
0>
0?
0B
1C
11
00
0-
0,
0+
#280000
0&
1#
1"
0!
0E
1G
1J
0Q
0F
#290000
1!
1E
1F
0R
1K
1H
1=
1>
0A
0/
1,
1+
#300000
0)
1$
0(
0"
0!
0E
0G
0V
1L
0Y
0F
0W
1M
#310000
1!
1E
1F
0Z
0X
1N
0H
0=
1?
0C
0D
02
01
1-
0+
#320000
0%
1'
0#
1(
0!
0E
1V
0J
1S
0O
0F
1W
1T
#330000
1!
1E
1F
1X
1U
0P
0K
0>
0@
1B
1C
11
10
0.
0,
#340000
1&
0$
1"
1%
0'
1#
0(
0!
0E
0V
1J
0S
1O
1G
0L
1Q
0F
0W
0T
0M
#350000
1!
1E
1F
0X
0U
1R
1P
0N
1K
1H
1=
1>
0?
1@
1A
0B
0C
01
00
1/
1.
0-
1,
1+
#360000
1)
1$
0"
0%
1'
0!
0E
1S
0O
0G
1L
1Y
0F
1T
1M
#370000
1!
1E
1F
1Z
1U
0P
1N
0H
0=
1?
0@
1B
1D
12
10
0.
1-
0+
#380000
1(
0$
1"
1%
0'
0!
0E
0S
1O
1G
0L
1V
0F
0T
0M
1W
#390000
1!
1E
1F
1X
0U
1P
0N
1H
1=
0?
1@
0B
1C
11
00
1.
0-
1+
#400000
0(
1$
0%
0!
0E
0O
1L
0V
0F
1M
0W
#410000
1!
1E
1F
0X
0P
1N
1?
0@
0C
01
0.
1-
#420000
0&
0)
0"
0!
0E
0G
0Y
0Q
0F
#430000
1!
1E
1F
0Z
0R
0H
0=
0A
0D
02
0/
0+
#440000
0#
0$
1%
1&
1"
0!
0E
1G
1Q
1O
0L
0J
0F
0M
#450000
1!
1E
1F
1R
1P
0N
0K
1H
1=
0>
0?
1@
1A
1/
1.
0-
0,
1+
#460000
1(
1)
0&
0"
0!
0E
0G
0Q
1Y
1V
0F
1W
#470000
1!
1E
1F
1Z
1X
0R
0H
0=
0A
1C
1D
12
11
0/
0+
#480000
1'
1$
0%
0(
0)
0!
0E
0Y
0V
0O
1L
1S
0F
0W
1M
1T
#490000
1!
1E
1F
0Z
0X
1U
0P
1N
1?
0@
1B
0C
0D
02
01
10
0.
1-
#500000
1"
0$
1)
0!
0E
1Y
0L
1G
0F
0M
#510000
1!
1E
1F
1Z
0N
1H
1=
0?
1D
12
0-
1+
#520000
1(
0"
1$
0!
0E
1L
0G
1V
0F
1M
1W
#530000
1!
1E
1F
1X
1N
0H
0=
1?
1C
11
1-
0+
#540000
1&
1%
1"
0$
0!
0E
0L
1G
1O
1Q
0F
0M
#550000
1!
1E
1F
1R
1P
0N
1H
1=
0?
1@
1A
1/
1.
0-
1+
#560000
1$
0!
0E
1L
0F
1M
#570000
1!
1E
1F
1N
1?
1-
#580000
1#
0'
0$
0!
0E
0L
0S
1J
0F
0M
0T
#590000
1!
1E
1F
0U
0N
1K
1>
0?
0B
00
0-
1,
#600000
0)
0&
0%
0"
0#
0!
0E
0J
0G
0O
0Q
0Y
0F
#610000
1!
1E
1F
0Z
0R
0P
0K
0H
0=
0>
0@
0A
0D
02
0/
0.
0,
0+
#620000
0(
1%
1"
1#
0!
0E
1J
1G
1O
0V
0F
0W
#630000
1!
1E
1F
0X
1P
1K
1H
1=
1>
1@
0C
01
1.
1,
1+
#640000
1'
1)
1&
0%
0!
0E
0O
1Q
1Y
1S
0F
1T
#650000
1!
1E
1F
1Z
1U
1R
0P
0@
1A
1B
1D
12
10
1/
0.
#660000
1$
0'
0)
0&
0!
0E
0Q
0Y
0S
1L
0F
0T
1M
#670000
1!
1E
1F
0Z
0U
0R
1N
1?
0A
0B
0D
02
00
0/
1-
#680000
1(
0#
0$
1'
1)
1&
0!
0E
1Q
1Y
1S
0L
0J
1V
0F
1T
0M
1W
#690000
1!
1E
1F
1Z
1X
1U
1R
0N
0K
0>
0?
1A
1B
1C
1D
12
11
10
1/
0-
0,
#700000
0"
1%
0(
1$
0)
0!
0E
0Y
1L
0V
1O
0G
0F
1M
0W
#710000
1!
1E
1F
0Z
0X
1P
1N
0H
0=
1?
1@
0C
0D
02
01
1.
1-
0+
#720000
1#
0&
1"
0%
1(
0$
1)
0!
0E
1Y
0L
1V
0O
1G
0Q
1J
0F
0M
1W
#730000
1!
1E
1F
1Z
1X
0R
0P
0N
1K
1H
1=
1>
0?
0@
0A
1C
1D
12
11
0/
0.
0-
1,
1+
#740000
1&
0"
1%
0(
0)
0!
0E
0Y
0V
1O
0G
1Q
0F
0W
#750000
1!
1E
1F
0Z
0X
1R
1P
0H
0=
1@
1A
0C
0D
02
01
1/
1.
0+
#760000
0'
1$
1"
0%
1(
0!
0E
1V
0O
1G
1L
0S
0F
1W
1M
0T
#770000
1!
1E
1F
1X
0U
0P
1N
1H
1=
1?
0@
0B
1C
11
00
0.
1-
1+
#780000
0&
1'
0"
0!
0E
0G
1S
0Q
0F
1T
#790000
1!
1E
1F
1U
0R
0H
0=
0A
1B
10
0/
0+
#800000
1)
0'
1"
0!
0E
1G
0S
1Y
0F
0T
#810000
1!
1E
1F
1Z
0U
1H
1=
0B
1D
12
00
1+
#820000
0#
0$
1%
1'
0"
0!
0E
0G
1S
1O
0L
0J
0F
1T
0M
#830000
1!
1E
1F
1U
1P
0N
0K
0H
0=
0>
0?
1@
1B
10
1.
0-
0,
0+
#840000
0)
1$
0%
1"
0!
0E
1G
0O
1L
0Y
0F
1M
#850000
1!
1E
1F
0Z
0P
1N
1H
1=
1?
0@
0D
02
0.
1-
1+
#860000
0(
1&
0$
0"
0!
0E
0G
0L
1Q
0V
0F
0M
0W
#870000
1!
1E
1F
0X
1R
0N
0H
0=
0?
1A
0C
01
1/
0-
0+
#880000
1)
1%
0&
1$
0!
0E
1L
0Q
1O
1Y
0F
1M
#890000
1!
1E
1F
1Z
0R
1P
1N
1?
1@
0A
1D
12
0/
1.
1-
#900000
1(
0)
1&
0!
0E
1Q
0Y
1V
0F
1W
#910000
1!
1E
1F
0Z
1X
1R
1A
1C
0D
02
11
1/
#920000
1#
0'
0%
0(
0!
0E
0V
0O
0S
1J
0F
0W
0T
#930000
1!
1E
1F
0X
0U
0P
1K
1>
0@
0B
0C
01
00
0.
1,
#940000
0&
0#
1%
0!
0E
1O
0J
0Q
0F
#950000
1!
1E
1F
0R
1P
0K
0>
1@
0A
0/
1.
0,
#960000
1"
1)
0%
0!
0E
0O
1Y
1G
0F
#970000
1!
1E
1F
1Z
0P
1H
1=
0@
1D
12
0.
1+
#980000
1(
0"
1%
0!
0E
1O
0G
1V
0F
1W
#990000
1!
1E
1F
1X
1P
0H
0=
1@
1C
11
1.
0+
