SomadorSubtrator/simulation/qsim/SomadorSubtrator.msim.vcd
$comment
	File created using the following command:
		vcd file SomadorSubtrator.msim.vcd -direction
$end
$date
	Sun Jul 30 22:05:35 2023
$end
$version
	ModelSim Version 2020.1
$end
$timescale
	1ps
$end

$scope module SomadorSubtrator_vlg_vec_tst $end
$var reg 1 ! A0 $end
$var reg 1 " A1 $end
$var reg 1 # A2 $end
$var reg 1 $ A3 $end
$var reg 1 % A4 $end
$var reg 1 & A5 $end
$var reg 1 ' A6 $end
$var reg 1 ( A7 $end
$var reg 1 ) Eu $end
$var reg 1 * INPUT0 $end
$var reg 1 + INPUT1 $end
$var reg 1 , INPUT2 $end
$var reg 1 - INPUT3 $end
$var reg 1 . INPUT4 $end
$var reg 1 / INPUT5 $end
$var reg 1 0 INPUT6 $end
$var reg 1 1 INPUT7 $end
$var reg 1 2 Su $end
$var wire 1 3 C0 $end
$var wire 1 4 S0 $end
$var wire 1 5 S1 $end
$var wire 1 6 S2 $end
$var wire 1 7 S3 $end
$var wire 1 8 S4 $end
$var wire 1 9 S5 $end
$var wire 1 : S6 $end
$var wire 1 ; S7 $end

$scope module i1 $end
$var wire 1 < gnd $end
$var wire 1 = vcc $end
$var wire 1 > unknown $end
$var tri1 1 ? devclrn $end
$var tri1 1 @ devpor $end
$var tri1 1 A devoe $end
$var wire 1 B ~QUARTUS_CREATED_GND~I_combout $end
$var wire 1 C A0~input_o $end
$var wire 1 D INPUT0~input_o $end
$var wire 1 E inst2|42~0_combout $end
$var wire 1 F Eu~input_o $end
$var wire 1 G A1~input_o $end
$var wire 1 H Su~input_o $end
$var wire 1 I INPUT1~input_o $end
$var wire 1 J inst2|43~combout $end
$var wire 1 K A2~input_o $end
$var wire 1 L INPUT2~input_o $end
$var wire 1 M inst4~combout $end
$var wire 1 N inst2|2~0_combout $end
$var wire 1 O inst2|44~combout $end
$var wire 1 P INPUT3~input_o $end
$var wire 1 Q inst5~combout $end
$var wire 1 R A3~input_o $end
$var wire 1 S inst2|45~combout $end
$var wire 1 T A4~input_o $end
$var wire 1 U INPUT4~input_o $end
$var wire 1 V inst18|42~0_combout $end
$var wire 1 W inst18|42~combout $end
$var wire 1 X inst18|2~0_combout $end
$var wire 1 Y inst18|2~1_combout $end
$var wire 1 Z A5~input_o $end
$var wire 1 [ inst18|19~0_combout $end
$var wire 1 \ INPUT5~input_o $end
$var wire 1 ] inst7~combout $end
$var wire 1 ^ inst18|43~combout $end
$var wire 1 _ A6~input_o $end
$var wire 1 ` INPUT6~input_o $end
$var wire 1 a inst8~combout $end
$var wire 1 b inst18|44~combout $end
$var wire 1 c inst18|2~2_combout $end
$var wire 1 d INPUT7~input_o $end
$var wire 1 e A7~input_o $end
$var wire 1 f inst18|45~combout $end
$var wire 1 g inst18|2~3_combout $end
$upscope $end
$upscope $end
$enddefinitions $end
#0
$dumpvars
1!
0"
0#
1$
0%
0&
0'
0(
0)
0*
0+
0,
0-
0.
1/
10
11
02
03
z4
z5
z6
z7
z8
z9
z:
z;
0<
1=
x>
1?
1@
1A
0B
1C
0D
1E
0F
0G
0H
0I
0J
0K
0L
0M
1N
0O
0P
0Q
1R
1S
0T
0U
0V
0W
0X
1Y
0Z
1[
1\
1]
1^
0_
1`
1a
1b
0c
1d
0e
1f
1g
$end
#322
0/
00
01
0\
0`
0d
0a
0]
0f
0b
0^
#1950
1%
1&
1'
1(
1T
1Z
1_
1e
0[
1V
1f
1b
1^
1W
#2558
1)
1*
1+
1,
1-
1.
1D
1I
1L
1P
1U
1F
14
05
06
17
18
19
1:
1;
1X
0V
1Q
1M
0N
0E
04
0Y
1c
0b
0^
09
0:
0g
0f
0;
13
#4957
0)
0*
0+
0,
0-
0.
0D
0I
0L
0P
0U
0F
z4
z5
z6
z7
z8
z9
z:
z;
0X
1V
0Q
0M
1N
1E
1Y
0c
1b
1^
1g
1f
03
#9224
1)
1*
1+
1,
1-
1.
1D
1I
1L
1P
1U
1F
14
05
06
17
18
19
1:
1;
1X
0V
1Q
1M
0N
0E
04
0Y
1c
0b
0^
09
0:
0g
0f
0;
13
#10350
0%
0&
0'
0(
0T
0Z
0_
0e
1g
0c
0X
1V
1f
1^
19
1;
03
0W
0f
0;
08
#10623
12
1H
1a
1]
1[
0V
0Q
1N
0M
1f
1J
15
1;
1Y
1b
1:
#11623
0)
0*
0+
0,
0-
0.
0D
0I
0L
0P
0U
0F
z4
z5
z6
z7
z8
z9
z:
z;
0[
1V
1Q
1M
0N
0J
1E
0Y
1c
0b
0^
0g
0f
13
#12522
1/
10
11
1\
1`
1d
1g
0a
0]
1f
03
0c
1^
0f
#15890
1)
1*
1+
1,
1-
1.
1D
1I
1L
1P
1U
1F
14
05
06
17
08
19
0:
0;
1[
0V
0Q
0M
1N
1J
0E
04
15
1Y
0^
09
#18289
0)
0*
0+
0,
0-
0.
0D
0I
0L
0P
0U
0F
z4
z5
z6
z7
z8
z9
z:
z;
0[
1V
1Q
1M
0N
0J
1E
0Y
1^
#19623
02
0H
1a
1]
1[
0V
0Q
1N
0M
1f
1Y
1b
#20000
0/
00
01
1)
1*
1+
1,
1-
1.
12
0\
0`
0d
1D
1I
1L
1P
1U
1H
1F
14
05
06
17
08
19
1:
1;
1J
0E
04
15
#21057
1/
10
11
1\
1`
1d
0a
0]
0f
0;
0b
0^
09
0:
#22428
0)
0*
0+
0,
0-
0.
0D
0I
0L
0P
0U
0F
z4
z5
z6
z7
z8
z9
z:
z;
0[
1V
1Q
1M
0N
0J
1E
0Y
1^
#22490
0/
00
01
0\
0`
0d
1a
1]
1f
1c
0^
0g
0f
13
#23069
02
0H
1g
0a
0]
1[
0V
0Q
1N
0M
1f
03
1Y
0c
0f
#23910
1%
1&
1'
1(
1T
1Z
1_
1e
0[
1V
1f
1b
1^
1W
#24390
1/
10
11
1\
1`
1d
0g
1a
1]
0f
13
1c
0^
1f
#25823
0/
00
01
0\
0`
0d
0a
0]
0f
0c
1^
1g
1f
03
#26336
12
1H
0g
1a
1]
1X
0V
1Q
0N
1M
0f
13
0Y
1c
0^
1f
1^
#27210
0%
0&
0'
0(
0T
0Z
0_
0e
0X
1V
0f
0b
0^
0W
#27723
1/
10
11
1\
1`
1d
1g
0a
0]
1f
03
0c
1^
0f
#29156
0/
00
01
0\
0`
0d
1a
1]
1f
1c
0^
0g
0f
13
#29735
02
0H
1g
0a
0]
1[
0V
0Q
1N
0M
1f
03
1Y
0c
0f
#30000
1%
1&
1'
1(
1T
1Z
1_
1e
0[
1V
1f
1b
1^
1W
#30227
0%
0&
0'
0(
0T
0Z
0_
0e
1[
0V
0f
0b
0^
0W
#33002
12
1H
1a
1]
0[
1V
1Q
0N
1M
1f
0Y
1b
1^
1c
0b
0^
0g
0f
13
#35491
1/
10
11
1\
1`
1d
1g
0a
0]
1f
03
0c
1^
0f
#36028
1)
1*
1+
1,
1-
1.
1D
1I
1L
1P
1U
1F
14
05
06
17
08
19
0:
0;
1[
0V
0Q
0M
1N
1J
0E
04
15
1Y
0^
09
#36401
02
0H
1a
1]
0[
1V
1Q
0N
1M
1f
0J
05
1;
0Y
1b
1^
19
1:
1c
0b
0^
09
0:
0g
0f
0;
13
#36727
1%
1&
1'
1(
1T
1Z
1_
1e
1X
0V
1f
1b
1^
19
1:
1;
1W
18
#39668
12
1H
0a
0]
0X
1V
0Q
1N
0M
0f
1J
15
0;
1Y
0b
0^
09
0:
0c
1b
1^
19
1:
1g
1f
1;
03
#39991
0/
00
01
0\
0`
0d
0g
1a
1]
0f
0;
13
1c
0^
09
1f
1;
#40000
02
0H
0a
0]
1X
0V
1Q
0N
1M
0f
0J
05
0;
0Y
0c
1^
19
1g
1c
1f
0b
0^
09
0:
1;
03
0g
0f
0;
13
#40057
0)
0*
0+
0,
0-
0.
0D
0I
0L
0P
0U
0F
z4
z5
z6
z7
z8
z9
z:
z;
0X
1V
0Q
0M
1N
1E
1Y
0c
1b
1^
1g
1f
03
#40227
0%
0&
0'
0(
0T
0Z
0_
0e
1[
0V
0f
0b
0^
0W
#42673
12
1H
1a
1]
0[
1V
1Q
0N
1M
1f
0Y
1b
1^
1c
0b
0^
0g
0f
13
#45491
1/
10
11
1\
1`
1d
1g
0a
0]
1f
03
0c
1^
0f
#45857
1)
1*
1+
1,
1-
1.
1D
1I
1L
1P
1U
1F
14
05
06
17
08
19
0:
0;
1[
0V
0Q
0M
1N
1J
0E
04
15
1Y
0^
09
#46727
1%
1&
1'
1(
1T
1Z
1_
1e
0[
1V
1f
1b
1^
19
1:
1;
1W
18
#49991
0/
00
01
0\
0`
0d
0g
1a
1]
0f
0;
13
1c
0^
09
1f
1;
#50000
0%
0&
0'
0(
0T
0Z
0_
0e
0c
1[
0V
0f
1^
19
0;
1g
0W
1f
1;
08
03
#50547
1/
10
11
1\
1`
1d
0a
0]
0f
0;
0b
0^
09
0:
#52273
02
0H
1a
1]
0[
1V
1Q
0N
1M
1f
0J
05
1;
0Y
1b
1^
19
1:
1c
0b
0^
09
0:
0g
0f
0;
13
#53150
0)
0*
0+
0,
0-
0.
0D
0I
0L
0P
0U
0F
z4
z5
z6
z7
z8
z9
z:
z;
1[
0V
0Q
0M
1N
1E
1Y
0c
1b
1^
1g
1f
03
#55553
1%
1&
1'
1(
1T
1Z
1_
1e
0g
1c
0[
1V
0f
0^
13
1W
1f
#55747
0/
00
01
0\
0`
0d
0a
0]
0f
0c
1^
1g
1f
03
#61826
1/
10
11
1\
1`
1d
0g
1a
1]
0f
13
1c
0^
1f
#63292
0/
00
01
0\
0`
0d
0a
0]
0f
0c
1^
1g
1f
03
#63891
12
1H
0g
1a
1]
1X
0V
1Q
0N
1M
0f
13
0Y
1c
0^
1f
1^
#64150
1)
1*
1+
1,
1-
1.
1D
1I
1L
1P
1U
1F
14
05
06
17
18
19
1:
1;
0X
1V
0Q
0M
1N
1J
0E
04
15
1Y
0^
09
#65159
1/
10
11
1\
1`
1d
0a
0]
0f
0;
0c
1^
19
1g
1f
1;
03
#66224
02
0H
0g
1a
1]
1X
0V
1Q
0N
1M
0f
0J
05
0;
13
0Y
1c
0^
09
1f
1^
19
1;
#66625
0/
00
01
0\
0`
0d
0a
0]
0f
0;
0b
0^
09
0:
#66753
0%
0&
0'
0(
0T
0Z
0_
0e
1g
0c
0X
1V
1f
1^
19
1;
03
0W
0f
0;
08
#68492
1/
10
11
1\
1`
1d
1a
1]
1f
1;
1c
0^
09
0g
0f
0;
13
#69958
0/
00
01
0\
0`
0d
1g
0a
0]
1f
1;
03
0c
1^
19
0f
0;
#70066
0)
0*
0+
0,
0-
0.
0D
0I
0L
0P
0U
0F
z4
z5
z6
z7
z8
z9
z:
z;
1[
0V
0Q
0M
1N
1E
1Y
0^
#70142
1/
10
11
1\
1`
1d
1a
1]
1f
1b
1^
#70557
12
1H
0a
0]
0[
1V
1Q
0N
1M
0f
0Y
0b
0^
1^
#72542
0/
00
01
0\
0`
0d
1a
1]
1f
1c
0^
0g
0f
13
#72890
02
0H
1g
0a
0]
1[
0V
0Q
1N
0M
1f
03
1Y
0c
0f
#75142
1/
10
11
1\
1`
1d
1a
1]
1f
1b
1^
#77223
12
1H
0a
0]
0[
1V
1Q
0N
1M
0f
0Y
0b
0^
1^
#77542
0/
00
01
0\
0`
0d
1a
1]
1f
1c
0^
0g
0f
13
#77606
1%
1&
1'
1(
1T
1Z
1_
1e
1X
0V
1f
1b
1^
1W
#79556
02
0H
0a
0]
0X
1V
0Q
1N
0M
0f
1Y
0b
0^
0c
1b
1^
1g
1f
03
#80000
12
1H
0g
1a
1]
1X
0V
1Q
0N
1M
0f
13
0Y
1c
0^
1f
1^
#80066
1)
1*
1+
1,
1-
1.
1D
1I
1L
1P
1U
1F
14
05
06
17
18
19
1:
1;
0X
1V
0Q
0M
1N
1J
0E
04
15
1Y
0^
09
#81351
02
0H
0a
0]
1X
0V
1Q
0N
1M
0f
0J
05
0;
0Y
0c
1^
19
1g
1c
1f
0b
0^
09
0:
1;
03
0g
0f
0;
13
#83151
12
1H
1a
1]
0X
1V
0Q
1N
0M
1f
1J
15
1;
1Y
1b
1^
19
1:
0^
09
#83184
1/
10
11
1\
1`
1d
0a
0]
0f
0;
0c
1^
19
1g
1f
1;
03
#84684
02
0H
0g
1a
1]
1X
0V
1Q
0N
1M
0f
0J
05
0;
13
0Y
1c
0^
09
1f
1^
19
1;
#84734
0/
00
01
0\
0`
0d
0a
0]
0f
0;
0b
0^
09
0:
#85406
0%
0&
0'
0(
0T
0Z
0_
0e
1g
0c
0X
1V
1f
1^
19
1;
03
0W
0f
0;
08
#86484
12
1H
1a
1]
1[
0V
0Q
1N
0M
1f
1J
15
1;
1Y
1b
1:
#88017
02
0H
0a
0]
0[
1V
1Q
0N
1M
0f
0J
05
0;
0Y
0b
0^
09
0:
1^
19
#88184
1/
10
11
1\
1`
1d
1a
1]
1f
1;
1c
0^
09
0g
0f
0;
13
#89734
0/
00
01
0\
0`
0d
1g
0a
0]
1f
1;
03
0c
1^
19
0f
0;
#89817
12
1H
1a
1]
1[
0V
0Q
1N
0M
1f
1J
15
1;
1Y
1b
1:
#90000
1%
1&
1'
1(
1/
10
11
02
1T
1Z
1_
1e
1\
1`
1d
0H
0g
0[
1X
1Q
0N
1M
1c
0f
0J
0^
09
05
0;
13
0Y
1f
1W
18
1;
1^
19
#90103
0%
0&
0'
0(
0T
0Z
0_
0e
0X
1V
0f
0b
0^
09
0:
0;
0W
08
#90821
0/
00
01
0\
0`
0d
1g
0a
0]
1f
1;
03
0c
1^
19
0f
0;
#91551
12
1H
1a
1]
1[
0V
0Q
1N
0M
1f
1J
15
1;
1Y
1b
1:
#91993
0)
0*
0+
0,
0-
0.
0D
0I
0L
0P
0U
0F
z4
z5
z6
z7
z8
z9
z:
z;
0[
1V
1Q
1M
0N
0J
1E
0Y
1c
0b
0^
0g
0f
13
#92203
1%
1&
1'
1(
1T
1Z
1_
1e
1X
0V
1f
1b
1^
1W
#92917
02
0H
0a
0]
0X
1V
0Q
1N
0M
0f
1Y
0b
0^
0c
1b
1^
1g
1f
03
#93371
1/
10
11
1\
1`
1d
0g
1a
1]
0f
13
1c
0^
1f
#93436
0%
0&
0'
0(
0T
0Z
0_
0e
0c
1[
0V
0f
1^
1g
0W
1f
03
#94884
12
1H
0a
0]
0[
1V
1Q
0N
1M
0f
0Y
0b
0^
1^
#95536
1%
1&
1'
1(
1T
1Z
1_
1e
1c
1X
0V
1f
0^
0g
1W
0f
13
#95821
0/
00
01
0\
0`
0d
1a
1]
1f
1b
1^
#96250
02
0H
0a
0]
0X
1V
0Q
1N
0M
0f
1Y
0b
0^
0c
1b
1^
1g
1f
03
#96260
1)
1*
1+
1,
1-
1.
1D
1I
1L
1P
1U
1F
14
05
06
17
18
19
1:
1;
1X
0V
1Q
1M
0N
0E
04
0Y
1c
0b
0^
09
0:
0g
0f
0;
13
#96769
0%
0&
0'
0(
0T
0Z
0_
0e
1g
0c
0X
1V
1f
1^
19
1;
03
0W
0f
0;
08
#98217
12
1H
1a
1]
1[
0V
0Q
1N
0M
1f
1J
15
1;
1Y
1b
1:
#98371
1/
10
11
1\
1`
1d
0a
0]
0f
0;
0b
0^
09
0:
#98659
0)
0*
0+
0,
0-
0.
0D
0I
0L
0P
0U
0F
z4
z5
z6
z7
z8
z9
z:
z;
0[
1V
1Q
1M
0N
0J
1E
0Y
1^
#98869
1%
1&
1'
1(
1T
1Z
1_
1e
1c
1X
0V
1f
0^
0g
1W
0f
13
#99583
02
0H
1a
1]
0X
1V
0Q
1N
0M
1f
1Y
1b
1^
0^
#100000
0/
00
01
0%
0&
0'
0(
0\
0`
0d
0T
0Z
0_
0e
1g
0c
1[
0V
0a
0]
1^
03
0b
0^
0W
0f
#101661
1%
1&
1'
1(
1T
1Z
1_
1e
0[
1V
1f
1b
1^
1W
#102105
1/
10
11
1\
1`
1d
0g
1a
1]
0f
13
1c
0^
1f
#102926
1)
1*
1+
1,
1-
1.
1D
1I
1L
1P
1U
1F
14
05
06
17
18
09
1:
1;
1X
0V
1Q
1M
0N
0E
04
0Y
1^
19
#104434
12
1H
0a
0]
0X
1V
0Q
1N
0M
0f
1J
15
0;
1Y
0b
0^
09
0:
0c
1b
1^
19
1:
1g
1f
1;
03
#105325
0)
0*
0+
0,
0-
0.
0D
0I
0L
0P
0U
0F
z4
z5
z6
z7
z8
z9
z:
z;
1X
0V
1Q
1M
0N
0J
1E
0Y
1c
0b
0^
0g
0f
13
#107361
0%
0&
0'
0(
0T
0Z
0_
0e
1g
0c
0X
1V
1f
1^
03
0W
0f
#107534
02
0H
1a
1]
1[
0V
0Q
1N
0M
1f
1Y
1b
#108105
0/
00
01
0\
0`
0d
0a
0]
0f
0b
0^
#109592
1)
1*
1+
1,
1-
1.
1D
1I
1L
1P
1U
1F
14
05
06
17
08
09
0:
0;
0[
1V
1Q
1M
0N
0E
04
0Y
1^
19
#110000
12
1H
1a
1]
1[
0V
0Q
1N
0M
1f
1J
15
1;
1Y
1b
1:
#110396
1%
1&
1'
1(
1T
1Z
1_
1e
0g
1c
0[
1V
0f
0^
09
0;
13
1W
1f
1;
18
#110784
02
0H
0a
0]
1X
0V
1Q
0N
1M
0f
0J
05
0;
0Y
0c
1^
19
1g
1c
1f
0b
0^
09
0:
1;
03
0g
0f
0;
13
#111071
0)
0*
0+
0,
0-
0.
0D
0I
0L
0P
0U
0F
z4
z5
z6
z7
z8
z9
z:
z;
0X
1V
0Q
0M
1N
1E
1Y
0c
1b
1^
1g
1f
03
#112105
1/
10
11
1\
1`
1d
0g
1a
1]
0f
13
1c
0^
1f
#112229
0%
0&
0'
0(
0T
0Z
0_
0e
0c
1[
0V
0f
1^
1g
0W
1f
03
#112818
12
1H
0a
0]
0[
1V
1Q
0N
1M
0f
0Y
0b
0^
1^
#112971
1)
1*
1+
1,
1-
1.
1D
1I
1L
1P
1U
1F
14
05
06
17
08
19
0:
0;
1[
0V
0Q
0M
1N
1J
0E
04
15
1Y
0^
09
#113729
1%
1&
1'
1(
1T
1Z
1_
1e
0[
1V
1f
1b
1^
19
1:
1;
1W
18
#114117
02
0H
0g
1a
1]
1X
0V
1Q
0N
1M
0f
0J
05
0;
13
0Y
1c
0^
09
1f
1^
19
1;
#114404
0)
0*
0+
0,
0-
0.
0D
0I
0L
0P
0U
0F
z4
z5
z6
z7
z8
z9
z:
z;
0X
1V
0Q
0M
1N
1E
1Y
0^
#115562
0%
0&
0'
0(
0T
0Z
0_
0e
0c
1[
0V
0f
1^
1g
0W
1f
03
#116151
12
1H
0a
0]
0[
1V
1Q
0N
1M
0f
0Y
0b
0^
1^
#116304
1)
1*
1+
1,
1-
1.
1D
1I
1L
1P
1U
1F
14
05
06
17
08
19
0:
0;
1[
0V
0Q
0M
1N
1J
0E
04
15
1Y
0^
09
#117062
1%
1&
1'
1(
1T
1Z
1_
1e
0[
1V
1f
1b
1^
19
1:
1;
1W
18
#117450
02
0H
0g
1a
1]
1X
0V
1Q
0N
1M
0f
0J
05
0;
13
0Y
1c
0^
09
1f
1^
19
1;
#117737
0)
0*
0+
0,
0-
0.
0D
0I
0L
0P
0U
0F
z4
z5
z6
z7
z8
z9
z:
z;
0X
1V
0Q
0M
1N
1E
1Y
0^
#118105
0/
00
01
0\
0`
0d
0a
0]
0f
0c
1^
1g
1f
03
#118895
0%
0&
0'
0(
0T
0Z
0_
0e
1[
0V
0f
0b
0^
0W
#119484
12
1H
1a
1]
0[
1V
1Q
0N
1M
1f
0Y
1b
1^
1c
0b
0^
0g
0f
13
#119637
1)
1*
1+
1,
1-
1.
1D
1I
1L
1P
1U
1F
14
05
06
17
08
09
0:
0;
1[
0V
0Q
0M
1N
1J
0E
04
15
1Y
0c
1b
1^
19
1:
1g
1f
1;
03
#120000
1/
10
11
02
1\
1`
1d
0H
0[
1V
1Q
0N
1M
0J
05
0Y
1c
0b
0^
09
0:
0g
0f
0;
13
#120361
0/
00
01
0\
0`
0d
1g
0a
0]
1f
1;
03
0c
1^
19
0f
0;
#120595
12
1H
1a
1]
1[
0V
0Q
1N
0M
1f
1J
15
1;
1Y
1b
1:
#122595
02
0H
0a
0]
0[
1V
1Q
0N
1M
0f
0J
05
0;
0Y
0b
0^
09
0:
1^
19
#123199
1%
1&
1'
1(
1T
1Z
1_
1e
1c
1X
0V
1f
0^
09
1;
0g
1W
0f
0;
18
13
#125595
12
1H
1a
1]
0X
1V
0Q
1N
0M
1f
1J
15
1;
1Y
1b
1^
19
1:
0^
09
#126198
0%
0&
0'
0(
0T
0Z
0_
0e
0c
1[
0V
0f
1^
19
0;
1g
0W
1f
1;
08
03
#127340
0)
0*
0+
0,
0-
0.
0D
0I
0L
0P
0U
0F
z4
z5
z6
z7
z8
z9
z:
z;
0[
1V
1Q
1M
0N
0J
1E
0Y
1c
0b
0^
0g
0f
13
#127595
02
0H
1g
0a
0]
1[
0V
0Q
1N
0M
1f
03
1Y
0c
0f
#129865
1%
1&
1'
1(
1T
1Z
1_
1e
0[
1V
1f
1b
1^
1W
#132161
1/
10
11
1\
1`
1d
0g
1a
1]
0f
13
1c
0^
1f
#132686
12
1H
0a
0]
1X
0V
1Q
0N
1M
0f
0Y
0c
1^
1g
1c
1f
0b
0^
03
0g
0f
13
#132864
0%
0&
0'
0(
0T
0Z
0_
0e
1g
0c
0X
1V
1f
1^
03
0W
0f
#134685
02
0H
1a
1]
1[
0V
0Q
1N
0M
1f
1Y
1b
#136531
1%
1&
1'
1(
1T
1Z
1_
1e
0g
1c
0[
1V
0f
0^
13
1W
1f
#136940
1)
1*
1+
1,
1-
1.
1D
1I
1L
1P
1U
1F
14
05
06
17
18
09
1:
1;
1X
0V
1Q
1M
0N
0E
04
0Y
1^
19
#139352
12
1H
0a
0]
0X
1V
0Q
1N
0M
0f
1J
15
0;
1Y
0b
0^
09
0:
0c
1b
1^
19
1:
1g
1f
1;
03
#139530
0%
0&
0'
0(
0T
0Z
0_
0e
1[
0V
0f
0b
0^
09
0:
0;
0W
08
#140000
0/
00
01
0\
0`
0d
1a
1]
1f
1;
1b
1^
19
1:
#140466
1/
10
11
1\
1`
1d
0a
0]
0f
0;
0b
0^
09
0:
#141351
02
0H
1a
1]
0[
1V
1Q
0N
1M
1f
0J
05
1;
0Y
1b
1^
19
1:
1c
0b
0^
09
0:
0g
0f
0;
13
#141446
1%
1&
1'
1(
1T
1Z
1_
1e
1X
0V
1f
1b
1^
19
1:
1;
1W
18
#142584
0)
0*
0+
0,
0-
0.
0D
0I
0L
0P
0U
0F
z4
z5
z6
z7
z8
z9
z:
z;
0X
1V
0Q
0M
1N
1E
1Y
0^
#142645
0%
0&
0'
0(
0T
0Z
0_
0e
0c
1[
0V
0f
1^
1g
0W
1f
03
#144779
1%
1&
1'
1(
1T
1Z
1_
1e
0g
1c
0[
1V
0f
0^
13
1W
1f
#145978
0%
0&
0'
0(
0T
0Z
0_
0e
0c
1[
0V
0f
1^
1g
0W
1f
03
#146018
12
1H
0a
0]
0[
1V
1Q
0N
1M
0f
0Y
0b
0^
1^
#146866
0/
00
01
0\
0`
0d
1a
1]
1f
1c
0^
0g
0f
13
#148017
02
0H
1g
0a
0]
1[
0V
0Q
1N
0M
1f
03
1Y
0c
0f
#148112
1%
1&
1'
1(
1T
1Z
1_
1e
0[
1V
1f
1b
1^
1W
#148484
1)
1*
1+
1,
1-
1.
1D
1I
1L
1P
1U
1F
14
05
06
17
18
19
1:
1;
1X
0V
1Q
1M
0N
0E
04
0Y
1c
0b
0^
09
0:
0g
0f
0;
13
#149311
0%
0&
0'
0(
0T
0Z
0_
0e
1g
0c
0X
1V
1f
1^
19
1;
03
0W
0f
0;
08
#150611
1%
1&
1'
1(
1T
1Z
1_
1e
1c
1X
0V
1f
0^
09
1;
0g
1W
0f
0;
18
13
#150839
0)
0*
0+
0,
0-
0.
0D
0I
0L
0P
0U
0F
z4
z5
z6
z7
z8
z9
z:
z;
0X
1V
0Q
0M
1N
1E
1Y
0c
1b
1^
1g
1f
03
#152611
0%
0&
0'
0(
0T
0Z
0_
0e
1[
0V
0f
0b
0^
0W
#153106
1)
1*
1+
1,
1-
1.
1D
1I
1L
1P
1U
1F
14
05
06
17
08
09
0:
0;
0[
1V
1Q
1M
0N
0E
04
0Y
1^
19
#153429
12
1H
1a
1]
1[
0V
0Q
1N
0M
1f
1J
15
1;
1Y
1b
1:
#154172
0)
0*
0+
0,
0-
0.
0D
0I
0L
0P
0U
0F
z4
z5
z6
z7
z8
z9
z:
z;
0[
1V
1Q
1M
0N
0J
1E
0Y
1c
0b
0^
0g
0f
13
#155611
1%
1&
1'
1(
1T
1Z
1_
1e
1X
0V
1f
1b
1^
1W
#156439
1)
1*
1+
1,
1-
1.
1D
1I
1L
1P
1U
1F
14
05
06
17
18
19
1:
1;
0X
1V
0Q
0M
1N
1J
0E
04
15
1Y
0^
09
#157505
0)
0*
0+
0,
0-
0.
0D
0I
0L
0P
0U
0F
z4
z5
z6
z7
z8
z9
z:
z;
1X
0V
1Q
1M
0N
0J
1E
0Y
1^
#157611
0%
0&
0'
0(
0T
0Z
0_
0e
0X
1V
0f
0b
0^
0W
#159772
1)
1*
1+
1,
1-
1.
1D
1I
1L
1P
1U
1F
14
05
06
17
08
09
0:
0;
1[
0V
0Q
0M
1N
1J
0E
04
15
1Y
0c
1b
1^
19
1:
1g
1f
1;
03
#160000
0)
0*
0+
0,
0-
0.
0D
0I
0L
0P
0U
0F
z4
z5
z6
z7
z8
z9
z:
z;
0[
1V
1Q
1M
0N
0J
1E
0Y
1c
0b
0^
0g
0f
13
#160081
1%
1&
1'
1(
1T
1Z
1_
1e
1X
0V
1f
1b
1^
1W
#160229
02
0H
0a
0]
0X
1V
0Q
1N
0M
0f
1Y
0b
0^
0c
1b
1^
1g
1f
03
#161037
1)
1*
1+
1,
1-
1.
1D
1I
1L
1P
1U
1F
14
05
06
17
18
19
1:
1;
1X
0V
1Q
1M
0N
0E
04
0Y
1c
0b
0^
09
0:
0g
0f
0;
13
#162431
0%
0&
0'
0(
0T
0Z
0_
0e
1g
0c
0X
1V
1f
1^
19
1;
03
0W
0f
0;
08
#163087
0)
0*
0+
0,
0-
0.
0D
0I
0L
0P
0U
0F
z4
z5
z6
z7
z8
z9
z:
z;
1[
0V
0Q
0M
1N
1E
1Y
0^
#163652
1/
10
11
1\
1`
1d
1a
1]
1f
1b
1^
#165081
1%
1&
1'
1(
1T
1Z
1_
1e
0g
1c
0[
1V
0f
0^
13
1W
1f
#166037
1)
1*
1+
1,
1-
1.
1D
1I
1L
1P
1U
1F
14
05
06
17
18
09
1:
1;
1X
0V
1Q
1M
0N
0E
04
0Y
1^
19
#166752
0/
00
01
0\
0`
0d
0a
0]
0f
0;
0b
0^
09
0:
#167431
0%
0&
0'
0(
0T
0Z
0_
0e
1g
0c
0X
1V
1f
1^
19
1;
03
0W
0f
0;
08
#168087
0)
0*
0+
0,
0-
0.
0D
0I
0L
0P
0U
0F
z4
z5
z6
z7
z8
z9
z:
z;
1[
0V
0Q
0M
1N
1E
1Y
0^
#170000
1%
1&
1'
1(
1T
1Z
1_
1e
0[
1V
1f
1b
1^
1W
#170068
0%
0&
0'
0(
0T
0Z
0_
0e
1[
0V
0f
0b
0^
0W
#170260
12
1H
1a
1]
0[
1V
1Q
0N
1M
1f
0Y
1b
1^
1c
0b
0^
0g
0f
13
#170313
1/
10
11
1\
1`
1d
1g
0a
0]
1f
03
0c
1^
0f
#170530
1)
1*
1+
1,
1-
1.
1D
1I
1L
1P
1U
1F
14
05
06
17
08
19
0:
0;
1[
0V
0Q
0M
1N
1J
0E
04
15
1Y
0^
09
#172279
0/
00
01
0\
0`
0d
1a
1]
1f
1;
1b
1^
19
1:
#173646
1/
10
11
1\
1`
1d
0a
0]
0f
0;
0b
0^
09
0:
#173801
1%
1&
1'
1(
1T
1Z
1_
1e
0[
1V
1f
1b
1^
19
1:
1;
1W
18
#175060
02
0H
0g
1a
1]
1X
0V
1Q
0N
1M
0f
0J
05
0;
13
0Y
1c
0^
09
1f
1^
19
1;
#175612
0/
00
01
0\
0`
0d
0a
0]
0f
0;
0b
0^
09
0:
#176734
0%
0&
0'
0(
0T
0Z
0_
0e
1g
0c
0X
1V
1f
1^
19
1;
03
0W
0f
0;
08
#176979
1/
10
11
1\
1`
1d
1a
1]
1f
1;
1c
0^
09
0g
0f
0;
13
#178945
0/
00
01
0\
0`
0d
1g
0a
0]
1f
1;
03
0c
1^
19
0f
0;
#179330
0)
0*
0+
0,
0-
0.
0D
0I
0L
0P
0U
0F
z4
z5
z6
z7
z8
z9
z:
z;
1[
0V
0Q
0M
1N
1E
1Y
0^
#180000
12
1/
10
11
1H
1\
1`
1d
0[
1V
1Q
0N
1M
0Y
1^
#180467
1%
1&
1'
1(
1T
1Z
1_
1e
1c
1X
0V
1f
0^
0g
1W
0f
13
#182454
02
0H
1a
1]
0X
1V
0Q
1N
0M
1f
1Y
1b
1^
0^
#182554
0/
00
01
0\
0`
0d
0a
0]
0f
0c
1^
1g
1f
03
#183400
0%
0&
0'
0(
0T
0Z
0_
0e
1[
0V
0f
0b
0^
0W
#186854
12
1H
1a
1]
0[
1V
1Q
0N
1M
1f
0Y
1b
1^
1c
0b
0^
0g
0f
13
#187133
1%
1&
1'
1(
1T
1Z
1_
1e
1X
0V
1f
1b
1^
1W
#188754
1/
10
11
1\
1`
1d
0a
0]
0f
0b
0^
#190000
1)
1*
1+
1,
1-
1.
1D
1I
1L
1P
1U
1F
14
05
06
17
18
09
0:
0;
0X
1V
0Q
0M
1N
1J
0E
04
15
1Y
0c
1b
1^
19
1:
1g
1f
1;
03
#190426
0%
0&
0'
0(
0T
0Z
0_
0e
1[
0V
0f
0b
0^
09
0:
0;
0W
08
