SomadorSubtrator/simulation/qsim/SomadorSubtrator.msim.vcd
$comment
	File created using the following command:
		vcd file SomadorSubtrator.msim.vcd -direction
$end
$date
	Wed Aug 02 23:33:00 2023
$end
$version
	ModelSim Version 2020.1
$end
$timescale
	1ps
$end

$scope module SomadorSubtrator_vlg_vec_tst $end
$var reg 1 ! A0 $end
$var reg 1 " A1 $end
$var reg 1 # A2 $end
$var reg 1 $ A3 $end
$var reg 1 % A4 $end
$var reg 1 & A5 $end
$var reg 1 ' A6 $end
$var reg 1 ( A7 $end
$var reg 1 ) Eu $end
$var reg 1 * INPUT0 $end
$var reg 1 + INPUT1 $end
$var reg 1 , INPUT2 $end
$var reg 1 - INPUT3 $end
$var reg 1 . INPUT4 $end
$var reg 1 / INPUT5 $end
$var reg 1 0 INPUT6 $end
$var reg 1 1 INPUT7 $end
$var reg 1 2 Su $end
$var wire 1 3 C0 $end
$var wire 1 4 S0 $end
$var wire 1 5 S1 $end
$var wire 1 6 S2 $end
$var wire 1 7 S3 $end
$var wire 1 8 S4 $end
$var wire 1 9 S5 $end
$var wire 1 : S6 $end
$var wire 1 ; S7 $end

$scope module i1 $end
$var wire 1 < gnd $end
$var wire 1 = vcc $end
$var wire 1 > unknown $end
$var tri1 1 ? devclrn $end
$var tri1 1 @ devpor $end
$var tri1 1 A devoe $end
$var wire 1 B ~QUARTUS_CREATED_GND~I_combout $end
$var wire 1 C A0~input_o $end
$var wire 1 D INPUT0~input_o $end
$var wire 1 E inst2|42~0_combout $end
$var wire 1 F Eu~input_o $end
$var wire 1 G A1~input_o $end
$var wire 1 H Su~input_o $end
$var wire 1 I INPUT1~input_o $end
$var wire 1 J inst2|43~combout $end
$var wire 1 K A2~input_o $end
$var wire 1 L INPUT2~input_o $end
$var wire 1 M inst4~combout $end
$var wire 1 N inst2|2~0_combout $end
$var wire 1 O inst2|44~combout $end
$var wire 1 P INPUT3~input_o $end
$var wire 1 Q inst5~combout $end
$var wire 1 R A3~input_o $end
$var wire 1 S inst2|45~combout $end
$var wire 1 T A4~input_o $end
$var wire 1 U INPUT4~input_o $end
$var wire 1 V inst18|42~0_combout $end
$var wire 1 W inst18|42~combout $end
$var wire 1 X inst18|2~0_combout $end
$var wire 1 Y inst18|2~1_combout $end
$var wire 1 Z A5~input_o $end
$var wire 1 [ inst18|19~0_combout $end
$var wire 1 \ INPUT5~input_o $end
$var wire 1 ] inst7~combout $end
$var wire 1 ^ inst18|43~combout $end
$var wire 1 _ A6~input_o $end
$var wire 1 ` INPUT6~input_o $end
$var wire 1 a inst8~combout $end
$var wire 1 b inst18|44~combout $end
$var wire 1 c inst18|2~2_combout $end
$var wire 1 d INPUT7~input_o $end
$var wire 1 e A7~input_o $end
$var wire 1 f inst18|45~combout $end
$var wire 1 g inst18|2~3_combout $end
$upscope $end
$upscope $end
$enddefinitions $end
#0
$dumpvars
1!
1"
1#
0$
0%
1&
1'
0(
1)
0*
1+
1,
1-
0.
1/
00
11
02
13
14
05
16
07
18
09
0:
0;
0<
1=
x>
1?
1@
1A
0B
1C
0D
1E
1F
1G
0H
1I
0J
1K
1L
1M
0N
1O
1P
1Q
0R
0S
0T
0U
0V
1W
0X
0Y
1Z
1[
1\
1]
0^
1_
0`
0a
0b
1c
1d
0e
0f
0g
$end
#30000
0"
0&
1*
0-
01
12
0G
0Z
1D
0P
0d
1H
1a
0]
0[
1V
1N
0M
0c
1J
0E
1b
1^
19
1:
04
15
1g
1Y
1c
1f
1S
0b
0:
17
1;
03
0g
0f
0^
09
0;
13
#60000
0!
0#
1%
1(
1.
10
1&
1-
02
0C
0K
1T
1e
1U
1`
1Z
1P
0H
1]
1X
0V
1M
1^
0O
1E
14
06
19
0Y
0W
1O
1b
0^
09
1:
16
08
1^
19
#90000
1$
0'
0+
0,
0*
0.
0&
0-
12
1R
0_
0I
0L
0D
0U
0Z
0P
1H
0a
0]
0N
1f
0J
0b
0^
0E
1W
0S
07
18
04
09
0:
05
1;
0c
1S
0O
1^
19
06
17
0f
0;
#120000
0/
1"
11
0%
00
0$
02
0\
1G
1d
0T
0`
0R
0H
1[
0X
0Q
1N
0M
1J
0S
07
15
1Y
0W
0^
09
08
#150000
1#
1+
1*
1.
0"
01
1%
1$
12
1K
1I
1D
1U
0G
0d
1T
1R
1H
1a
1]
0[
1V
1Q
1M
0J
1S
1E
1O
16
14
17
05
0Y
0O
1b
1^
19
1:
06
1c
0b
0^
09
0:
1f
1;
#180000
1!
0(
1&
0#
0*
0.
0$
02
1C
0e
1Z
0K
0D
0U
0R
0H
1g
0a
0]
0Q
0M
1Y
1J
1W
1O
1^
19
16
18
15
03
0c
0S
0O
06
07
0f
0;
#210000
1'
1,
1"
11
0%
1(
1*
1.
12
1_
1L
1G
1d
0T
1e
1D
1U
1H
1a
1]
1[
0V
1Q
0N
1f
0J
0E
1b
1:
04
05
1;
1c
0W
1S
1O
0^
09
16
17
08
0g
0f
0;
13
#240000
10
0+
0&
1$
0"
0(
0*
0.
02
1`
0I
0Z
1R
0G
0e
0D
0U
0H
0]
0Q
1N
1M
0Y
1E
1W
0S
0b
1^
19
0:
07
18
14
1Y
0^
0W
1S
17
08
09
#270000
1-
0,
01
1%
1&
1*
12
1P
0L
0d
1T
1Z
1D
1H
0a
1]
0[
1X
0N
0E
1^
19
04
0Y
1W
0S
0O
0^
09
06
07
18
1^
19
#300000
0!
0'
00
1+
0$
1"
1(
1,
0%
0&
0*
02
0C
0_
0`
1I
0R
1G
1e
1L
0T
0Z
0D
0H
0]
1[
0X
1Q
0c
1b
0^
0W
1S
17
08
09
1:
1g
1f
1W
0S
0b
0:
07
18
1;
03
#330000
1#
1.
0-
0,
12
1K
1U
0P
0L
1H
0g
1a
1]
0f
1O
16
0;
13
1b
1^
19
1:
#360000
1/
1!
0+
1$
0"
1%
1&
0#
0.
1-
1,
02
1\
1C
0I
1R
0G
1T
1Z
0K
0U
1P
1L
0H
1g
0a
0[
1V
1N
1c
1f
1S
0O
0b
0^
1E
14
09
0:
06
17
1;
03
0g
0c
0f
0W
0S
1O
1b
1^
19
1:
16
07
08
0;
13
1g
1f
1;
03
#390000
11
1'
0/
0%
0&
1#
1.
0,
12
1d
1_
0\
0T
0Z
1K
1U
0L
1H
1a
1[
0V
0Q
0N
1c
1S
0O
0b
0^
09
0:
06
17
0g
0f
1W
0S
1O
1^
19
16
07
18
0;
13
#420000
1+
0$
1"
01
0'
1/
0#
02
1I
0R
1G
0d
0_
1\
0K
0H
0a
0[
1V
1Q
0M
1Y
0c
0W
1S
0O
1b
1:
06
17
08
1g
1f
0b
1W
1O
16
18
0:
1;
03
#450000
1*
0-
1%
0.
1,
0+
1$
0"
11
1'
1#
12
1D
0P
1T
0U
1L
0I
1R
0G
1d
1_
1K
1H
1a
0]
1X
0V
0Y
0W
0O
1b
0E
04
1:
06
08
1c
0b
1W
18
0:
0g
0f
0;
13
#480000
1&
0/
0*
0,
1+
0$
0'
0#
02
1Z
0\
0D
0L
1I
0R
0_
0K
0H
0a
0X
1V
0Q
1N
1f
1J
0W
1O
1E
0^
09
14
16
08
15
1;
1Y
0c
1W
0S
0O
1b
1:
06
07
18
0f
0b
1^
19
0:
0;
#510000
10
1-
0%
0&
1,
0+
1#
12
1`
1P
0T
0Z
1L
0I
1K
1H
1g
1]
0N
1f
0J
1O
0^
09
16
05
1;
03
1S
0O
1^
19
06
17
#540000
0!
1/
1'
00
0-
1%
1&
0,
1+
02
0C
1\
1_
0`
0P
1T
1Z
0L
1I
0H
0g
1N
1c
0f
1J
0^
0E
04
09
15
0;
13
1f
0S
1O
16
07
1;
#570000
0(
01
1*
1!
0'
1-
0%
1,
12
0e
0d
1D
1C
0_
1P
0T
1L
1H
1a
0]
0c
0f
1b
1:
0;
1g
1f
1^
19
1;
03
#600000
1"
1(
11
0*
0,
02
1G
1e
1d
0D
0L
0H
0g
0a
1]
1[
0V
1Q
0N
0f
0J
1E
14
05
0;
13
0Y
0O
0^
09
06
#630000
1.
0&
1'
0(
01
1*
1,
12
1U
0Z
1_
0e
0d
1D
1L
1H
1g
1a
0]
0Q
1f
0E
1^
19
04
1;
03
1Y
1c
0W
1S
0b
0^
09
0:
17
08
0g
0f
0;
13
#660000
0#
10
0+
0!
0-
1(
0*
02
0K
1`
0I
0C
0P
1e
0D
0H
1]
0[
1V
1N
1M
1J
0S
1O
16
07
15
1W
1^
19
18
#690000
1$
0/
0.
1&
0'
11
0,
1-
12
1R
0\
0U
1Z
0_
1d
0L
1P
1H
0a
0N
0^
1S
17
09
0Y
0c
0W
0S
0O
1b
1:
06
07
08
1g
1f
1^
19
1;
03
#720000
1%
0"
1#
1!
0(
1/
1.
1'
01
1,
0-
02
1T
0G
1K
1C
0e
1\
1U
1_
0d
1L
0P
0H
1a
1X
0V
1N
1c
0f
0J
0b
1E
1O
16
14
0:
05
0;
1f
1W
0O
1b
1:
06
18
1;
#750000
1"
0#
0.
11
1-
12
1G
0K
0U
1d
1P
1H
0a
0]
0N
0M
1J
0W
1S
1O
16
17
08
15
0b
0^
09
0:
#780000
00
1+
1*
0&
0!
0/
0'
0,
0"
01
02
0`
1I
1D
0Z
0C
0\
0_
0L
0G
0d
0H
0X
1V
1Q
1N
0c
1^
19
0f
0S
0O
06
07
0;
#810000
1(
0-
0*
1&
1!
1/
1"
11
12
1e
0P
0D
1Z
1C
1\
1G
1d
1H
1a
1X
0V
0N
1M
1f
0J
1b
0^
09
1:
05
1;
1c
1W
1S
0b
0:
17
18
0g
0f
0;
13
#840000
1#
1.
1,
0(
1*
0!
02
1K
1U
1L
0e
1D
0C
0H
0a
1]
0Q
1O
16
0c
0S
1b
1^
19
1:
07
1g
1f
1;
03
#870000
10
0+
1'
1-
0&
0/
0"
01
0,
1!
12
1`
0I
1_
1P
0Z
0\
0G
0d
0L
1C
1H
0X
1V
1c
0E
0b
0^
09
0:
04
0g
0f
0W
08
0;
13
#900000
0$
0*
1"
11
1,
02
0R
0D
1G
1d
1L
0H
1a
0]
1X
0V
1Q
1N
1Y
1J
1E
1W
1S
17
18
14
15
0Y
0S
0O
06
07
1^
19
#930000
0%
1(
00
0'
0-
1/
1$
1*
01
12
0T
1e
0`
0_
0P
1\
1R
1D
0d
1H
1[
0X
0N
0M
0c
1f
0E
1S
1b
1:
17
04
1;
0f
0^
09
0;
#960000
0"
0,
10
1'
0/
0$
0*
02
0G
0L
1`
1_
0\
0R
0D
0H
1g
0[
1V
0Q
1N
1c
1f
0J
1E
0S
0b
0:
07
14
05
1;
03
0g
1Y
0f
1O
1^
19
16
0;
13
0^
09
#990000
00
0'
1$
1*
12
0`
0_
1R
1D
1H
1]
1[
0V
1Q
0N
1M
0c
1f
0E
1S
1b
1:
17
04
1;
0Y
0f
1^
19
0;
