ControladorSequencializador/simulation/qsim/ControladorSequencializador.msim.vcd
$comment
	File created using the following command:
		vcd file ControladorSequencializador.msim.vcd -direction
$end
$date
	Wed Aug 02 22:30:49 2023
$end
$version
	ModelSim Version 2020.1
$end
$timescale
	1ps
$end

$scope module ControladorSequencializador_vlg_vec_tst $end
$var reg 1 ! CLK $end
$var reg 1 " CLR $end
$var reg 1 # I4 $end
$var reg 1 $ I5 $end
$var reg 1 % I6 $end
$var reg 1 & I7 $end
$var wire 1 ' CP $end
$var wire 1 ( EA $end
$var wire 1 ) EP $end
$var wire 1 * EU $end
$var wire 1 + NCE $end
$var wire 1 , NE1 $end
$var wire 1 - NHLT $end
$var wire 1 . NLA $end
$var wire 1 / NLB $end
$var wire 1 0 NLI $end
$var wire 1 1 NLM $end
$var wire 1 2 NLO $end
$var wire 1 3 SU $end

$scope module i1 $end
$var wire 1 4 gnd $end
$var wire 1 5 vcc $end
$var wire 1 6 unknown $end
$var tri1 1 7 devclrn $end
$var tri1 1 8 devpor $end
$var tri1 1 9 devoe $end
$var wire 1 : ~QUARTUS_CREATED_GND~I_combout $end
$var wire 1 ; ~QUARTUS_CREATED_UNVM~~busy $end
$var wire 1 < ~QUARTUS_CREATED_ADC1~~eoc $end
$var wire 1 = NHLT~output_o $end
$var wire 1 > CP~output_o $end
$var wire 1 ? EP~output_o $end
$var wire 1 @ NLM~output_o $end
$var wire 1 A NCE~output_o $end
$var wire 1 B NLI~output_o $end
$var wire 1 C NE1~output_o $end
$var wire 1 D NLA~output_o $end
$var wire 1 E EA~output_o $end
$var wire 1 F SU~output_o $end
$var wire 1 G EU~output_o $end
$var wire 1 H NLB~output_o $end
$var wire 1 I NLO~output_o $end
$var wire 1 J I7~input_o $end
$var wire 1 K I6~input_o $end
$var wire 1 L I4~input_o $end
$var wire 1 M I5~input_o $end
$var wire 1 N inst15~combout $end
$var wire 1 O CLK~input_o $end
$var wire 1 P CLK~inputclkctrl_outclk $end
$var wire 1 Q inst5|inst~feeder_combout $end
$var wire 1 R CLR~input_o $end
$var wire 1 S CLR~inputclkctrl_outclk $end
$var wire 1 T inst5|inst~q $end
$var wire 1 U inst4|inst~q $end
$var wire 1 V inst3|inst~q $end
$var wire 1 W inst|inst~q $end
$var wire 1 X inst7|inst~0_combout $end
$var wire 1 Y inst7|inst~q $end
$var wire 1 Z inst6|inst~0_combout $end
$var wire 1 [ inst6|inst~q $end
$var wire 1 \ inst9~combout $end
$var wire 1 ] inst26~0_combout $end
$var wire 1 ^ inst8~0_combout $end
$var wire 1 _ inst62~0_combout $end
$var wire 1 ` inst62~1_combout $end
$var wire 1 a inst67~0_combout $end
$var wire 1 b inst63~2_combout $end
$var wire 1 c inst65~3_combout $end
$var wire 1 d inst65~6_combout $end
$var wire 1 e inst49~0_combout $end
$var wire 1 f inst49~combout $end
$var wire 1 g inst46~combout $end
$var wire 1 h inst66~0_combout $end
$upscope $end
$upscope $end
$enddefinitions $end
#0
$dumpvars
1!
0"
0#
0$
0%
0&
0'
0(
1)
0*
1+
1,
1-
1.
1/
10
01
12
03
04
15
x6
17
18
19
0:
z;
z<
1=
0>
1?
0@
1A
1B
1C
1D
0E
0F
0G
1H
1I
0J
0K
0L
0M
0N
1O
1P
0Q
0R
0S
0T
0U
0V
0W
1X
0Y
1Z
0[
0\
1]
0^
1_
0`
0a
1b
1c
1d
0e
0f
0g
0h
$end
#10000
0!
0O
0P
#20000
1"
1!
1O
1R
1S
1P
1Y
1[
1>
0?
0)
1'
1`
0Z
1Q
1@
11
#30000
0!
0O
0P
#40000
1!
1O
1P
1T
0[
0>
0B
00
0'
0b
0Q
0A
0+
#50000
0!
0O
0P
#60000
1!
1O
1P
1U
0T
1B
10
0_
1b
1A
0C
0,
1+
0`
0@
01
#70000
0!
0O
0P
#80000
1!
1O
1P
1V
0U
0c
0b
1_
1C
0A
0+
1,
0d
1`
1@
0D
0.
11
#90000
0!
0O
0P
#100000
1!
1O
1P
1W
0V
1c
0X
1b
1A
1+
1d
1D
1.
#110000
0!
0O
0P
#120000
1!
1O
1P
0Y
0W
1?
1)
0`
1Z
1X
0@
01
#130000
0!
0O
0P
#140000
1!
1O
1P
1Y
1[
1>
0?
0)
1'
1`
0Z
1Q
1@
11
#150000
0!
0O
0P
#160000
1#
0"
1!
1O
0R
1L
0S
1P
1^
0]
0Y
0[
0>
1?
1)
0'
0`
1Z
0Q
0@
01
#170000
0!
0O
0P
#180000
1"
1!
1O
1R
1S
1P
1Y
1[
1>
0?
0)
1'
1`
0Z
1Q
1@
11
#190000
0!
0O
0P
#200000
1!
1O
1P
1T
0[
0>
0B
00
0'
0b
0Q
0A
0+
#210000
0!
0O
0P
#220000
1!
1O
1P
1U
0T
1B
10
0_
1b
1A
0C
0,
1+
0`
0@
01
#230000
0!
0O
0P
#240000
1!
1O
1P
1V
0U
1a
1_
1C
0H
0/
1,
0b
1`
1@
0A
0+
11
#250000
0!
0O
0P
#260000
1!
1O
1P
1W
0V
0c
0a
1h
0X
1G
1H
1/
1*
0d
1b
1A
0D
0.
1+
#270000
0!
0O
0P
#280000
1!
1O
1P
0Y
0W
1?
1c
1)
0`
1Z
0h
1X
0G
0@
01
0*
1d
1D
1.
#290000
0!
0O
0P
#300000
1!
1O
1P
1Y
1[
1>
0?
0)
1'
1`
0Z
1Q
1@
11
#310000
0!
0O
0P
#320000
1!
1O
1P
1T
0[
0>
0B
00
0'
0b
0Q
0A
0+
#330000
0!
0O
0P
#340000
1!
1O
1P
1U
0T
1B
10
0_
1b
1A
0C
0,
1+
0`
0@
01
#350000
0!
0O
0P
#360000
1$
0#
0"
1!
1O
0R
0L
1M
0S
1P
0^
1\
0U
0Y
1?
1)
1_
1Z
1C
1,
#370000
0!
0O
0P
#380000
1!
1O
1P
#390000
1"
0!
0O
1R
1S
0P
#400000
1!
1O
1P
1Y
1[
1>
0?
0)
1'
1`
0Z
1Q
1@
11
#410000
0!
0O
0P
#420000
1!
1O
1P
1T
0[
0>
0B
00
0'
0b
0Q
0A
0+
#430000
0!
0O
0P
#440000
1!
1O
1P
1U
0T
1B
10
0_
1b
1A
0C
0,
1+
0`
0@
01
#450000
0!
0O
0P
#460000
1!
1O
1P
1V
0U
1a
1_
1C
0H
0/
1,
0b
1`
1@
0A
0+
11
#470000
0!
0O
0P
#480000
1!
1O
1P
1W
0V
0c
0a
1h
1g
0X
1F
1G
1H
1/
1*
13
0d
1b
1A
0D
0.
1+
#490000
0!
0O
0P
#500000
1!
1O
1P
0Y
0W
1?
1c
1)
0`
1Z
0h
0g
1X
0F
0G
0@
01
0*
03
1d
1D
1.
#510000
0!
0O
0P
#520000
1!
1O
1P
1Y
1[
1>
0?
0)
1'
1`
0Z
1Q
1@
11
#530000
0!
0O
0P
#540000
1!
1O
1P
1T
0[
0>
0B
00
0'
0b
0Q
0A
0+
#550000
0!
0O
0P
#560000
1%
1&
0"
1!
1O
0R
1J
1K
0S
1P
1e
0\
0T
0Y
1?
1B
10
1)
1b
0`
1Z
0@
1A
1+
01
#570000
0!
0O
0P
#580000
1"
1!
1O
1R
1S
1P
1Y
1[
1>
0?
0)
1'
1`
0Z
1Q
1@
11
#590000
0!
0O
0P
#600000
1!
1O
1P
1T
0[
0>
0B
00
0'
0b
0Q
0A
0+
#610000
0!
0O
0P
#620000
1!
1O
1P
1U
0T
1B
10
1f
1b
0I
1A
1E
1(
1+
02
#630000
0!
0O
0P
#640000
1!
1O
1P
1V
0U
0f
1I
0E
0(
12
#650000
0!
0O
0P
#660000
1!
1O
1P
1W
0V
0c
0X
#670000
0!
0O
0P
#680000
1!
1O
1P
0Y
0W
1?
1c
1)
0`
1Z
1X
0@
01
#690000
0!
0O
0P
#700000
1!
1O
1P
1Y
1[
1>
0?
0)
1'
1`
0Z
1Q
1@
11
#710000
0!
0O
0P
#720000
1!
1O
1P
1T
0[
0>
0B
00
0'
0b
0Q
0A
0+
#730000
0!
0O
0P
#740000
1!
1O
1P
1U
0T
1B
10
1f
1b
0I
1A
1E
1(
1+
02
#750000
0!
0O
0P
#760000
0$
0%
0&
0"
1!
1O
0R
0J
0K
0M
0S
1P
0e
1]
0f
0_
1I
0C
0E
0(
0,
12
0`
0@
01
0U
0Y
1?
1)
1_
1Z
1C
1,
#770000
0!
0O
0P
#780000
1"
1!
1O
1R
1S
1P
1Y
1[
1>
0?
0)
1'
1`
0Z
1Q
1@
11
#790000
0!
0O
0P
#800000
1!
1O
1P
1T
0[
0>
0B
00
0'
0b
0Q
0A
0+
#810000
0!
0O
0P
#820000
1!
1O
1P
1U
0T
1B
10
0_
1b
1A
0C
0,
1+
0`
0@
01
#830000
1#
1$
1%
1&
0!
0O
1J
1K
1M
1L
0P
0]
1N
0=
0-
1_
1C
1,
1`
1@
11
#840000
1!
1O
1P
1V
0U
#850000
0!
0O
0P
#860000
1!
1O
1P
1W
0V
0X
#870000
0!
0O
0P
#880000
0#
0$
0%
0&
1!
1O
0J
0K
0M
0L
1P
1]
0N
1=
1-
0Y
0W
1?
1)
0`
1Z
1X
0@
01
#890000
0!
0O
0P
#900000
1!
1O
1P
1Y
1[
1>
0?
0)
1'
1`
0Z
1Q
1@
11
#910000
0!
0O
0P
#920000
0"
1!
1O
0R
0S
1P
0Y
0[
0>
1?
1)
0'
0`
1Z
0Q
0@
01
#930000
0!
0O
0P
#940000
1!
1O
1P
#950000
0!
0O
0P
#960000
1!
1O
1P
#970000
0!
0O
0P
#980000
1!
1O
1P
#990000
0!
0O
0P
