RegistradorSaida/simulation/qsim/RegistradorSaida.msim.vcd
$comment
	File created using the following command:
		vcd file RegistradorSaida.msim.vcd -direction
$end
$date
	Tue Aug 01 22:01:43 2023
$end
$version
	ModelSim Version 2020.1
$end
$timescale
	1ps
$end

$scope module RegistradorSaida_vlg_vec_tst $end
$var reg 1 ! CLK $end
$var reg 1 " D0 $end
$var reg 1 # D1 $end
$var reg 1 $ D2 $end
$var reg 1 % D3 $end
$var reg 1 & D4 $end
$var reg 1 ' D5 $end
$var reg 1 ( D6 $end
$var reg 1 ) D7 $end
$var reg 1 * negL0 $end
$var wire 1 + Q0 $end
$var wire 1 , Q1 $end
$var wire 1 - Q2 $end
$var wire 1 . Q3 $end
$var wire 1 / Q4 $end
$var wire 1 0 Q5 $end
$var wire 1 1 Q6 $end
$var wire 1 2 Q7 $end

$scope module i1 $end
$var wire 1 3 gnd $end
$var wire 1 4 vcc $end
$var wire 1 5 unknown $end
$var tri1 1 6 devclrn $end
$var tri1 1 7 devpor $end
$var tri1 1 8 devoe $end
$var wire 1 9 ~QUARTUS_CREATED_GND~I_combout $end
$var wire 1 : CLK~input_o $end
$var wire 1 ; CLK~inputCLKENA0_outclk $end
$var wire 1 < D0~input_o $end
$var wire 1 = inst|inst20~feeder_combout $end
$var wire 1 > negL0~input_o $end
$var wire 1 ? inst|inst20~q $end
$var wire 1 @ D1~input_o $end
$var wire 1 A inst|inst21~feeder_combout $end
$var wire 1 B inst|inst21~q $end
$var wire 1 C D2~input_o $end
$var wire 1 D inst|inst22~q $end
$var wire 1 E D3~input_o $end
$var wire 1 F inst|inst23~feeder_combout $end
$var wire 1 G inst|inst23~q $end
$var wire 1 H D4~input_o $end
$var wire 1 I inst2|inst20~feeder_combout $end
$var wire 1 J inst2|inst20~q $end
$var wire 1 K D5~input_o $end
$var wire 1 L inst2|inst21~feeder_combout $end
$var wire 1 M inst2|inst21~q $end
$var wire 1 N D6~input_o $end
$var wire 1 O inst2|inst22~q $end
$var wire 1 P D7~input_o $end
$var wire 1 Q inst2|inst23~feeder_combout $end
$var wire 1 R inst2|inst23~q $end
$upscope $end
$upscope $end
$enddefinitions $end
#0
$dumpvars
0!
0"
0#
0$
0%
0&
0'
1(
1)
1*
0+
0,
0-
0.
0/
00
01
02
03
14
x5
16
17
18
09
0:
0;
0<
0=
1>
0?
0@
0A
0B
0C
0D
0E
0F
0G
0H
0I
0J
0K
0L
0M
1N
0O
1P
1Q
0R
$end
#903
0(
0)
0*
0N
0P
0>
0Q
#2337
1!
1"
1#
1$
1%
1&
1'
1:
1<
1@
1C
1E
1H
1K
1;
1L
1I
1F
1A
1=
1D
1-
#4570
1(
1)
1*
1N
1P
1>
1Q
#5537
0!
0"
0#
0$
0%
0&
0'
0:
0<
0@
0C
0E
0H
0K
0;
0L
0I
0F
0A
0=
#7569
0(
0)
0*
0N
0P
0>
0Q
#11236
1(
1)
1*
1N
1P
1>
1Q
#12337
1!
1"
1#
1$
1%
1&
1'
1:
1<
1@
1C
1E
1H
1K
1;
1L
1I
1F
1A
1=
#14235
0(
0)
0*
0N
0P
0>
0Q
#15537
0!
0"
0#
0$
0%
0&
0'
0:
0<
0@
0C
0E
0H
0K
0;
0L
0I
0F
0A
0=
#17902
1(
1)
1*
1N
1P
1>
1Q
#20000
1!
1"
1#
1$
1%
1&
1'
1:
1<
1@
1C
1E
1H
1K
1;
1L
1I
1F
1A
1=
#20251
0(
0)
0*
0N
0P
0>
0Q
#22385
1(
1)
1*
1N
1P
1>
1Q
#22959
0!
0"
0#
0$
0%
0&
0'
0:
0<
0@
0C
0E
0H
0K
0;
0L
0I
0F
0A
0=
#23584
0(
0)
0*
0N
0P
0>
0Q
#25718
1(
1)
1*
1N
1P
1>
1Q
#26917
0(
0)
0*
0N
0P
0>
0Q
#29051
1(
1)
1*
1N
1P
1>
1Q
#30000
0(
0)
0*
0N
0P
0>
0Q
#32359
1!
1"
1#
1$
1%
1&
1'
1:
1<
1@
1C
1E
1H
1K
1;
1L
1I
1F
1A
1=
#37455
1(
1)
1*
1N
1P
1>
1Q
#40588
0!
0"
0#
0$
0%
0&
0'
0:
0<
0@
0C
0E
0H
0K
0;
0L
0I
0F
0A
0=
#43855
0(
0)
0*
0N
0P
0>
0Q
#44055
1!
1"
1#
1$
1%
1&
1'
1:
1<
1@
1C
1E
1H
1K
1;
1L
1I
1F
1A
1=
#47254
0!
0"
0#
0$
0%
0&
0'
0:
0<
0@
0C
0E
0H
0K
0;
0L
0I
0F
0A
0=
#50721
1!
1"
1#
1$
1%
1&
1'
1:
1<
1@
1C
1E
1H
1K
1;
1L
1I
1F
1A
1=
#52540
1(
1)
1*
1N
1P
1>
1Q
#53920
0!
0"
0#
0$
0%
0&
0'
0:
0<
0@
0C
0E
0H
0K
0;
0L
0I
0F
0A
0=
#54190
0(
0)
0*
0N
0P
0>
0Q
#57387
1!
1"
1#
1$
1%
1&
1'
1:
1<
1@
1C
1E
1H
1K
1;
1L
1I
1F
1A
1=
#57540
1(
1)
1*
1N
1P
1>
1Q
#59190
0(
0)
0*
0N
0P
0>
0Q
#60000
0!
0"
0#
0$
0%
0&
0'
0:
0<
0@
0C
0E
0H
0K
0;
0L
0I
0F
0A
0=
#62527
1!
1"
1#
1$
1%
1&
1'
1:
1<
1@
1C
1E
1H
1K
1;
1L
1I
1F
1A
1=
#63738
1(
1)
1*
1N
1P
1>
1Q
#64926
0!
0"
0#
0$
0%
0&
0'
0:
0<
0@
0C
0E
0H
0K
0;
0L
0I
0F
0A
0=
#67038
0(
0)
0*
0N
0P
0>
0Q
#69193
1!
1"
1#
1$
1%
1&
1'
1:
1<
1@
1C
1E
1H
1K
1;
1L
1I
1F
1A
1=
#71592
0!
0"
0#
0$
0%
0&
0'
0:
0<
0@
0C
0E
0H
0K
0;
0L
0I
0F
0A
0=
#71664
1(
1)
1*
1N
1P
1>
1Q
#73714
0(
0)
0*
0N
0P
0>
0Q
#75859
1!
1"
1#
1$
1%
1&
1'
1:
1<
1@
1C
1E
1H
1K
1;
1L
1I
1F
1A
1=
#76664
1(
1)
1*
1N
1P
1>
1Q
#78258
0!
0"
0#
0$
0%
0&
0'
0:
0<
0@
0C
0E
0H
0K
0;
0L
0I
0F
0A
0=
#78714
0(
0)
0*
0N
0P
0>
0Q
#80146
1!
1"
1#
1$
1%
1&
1'
1:
1<
1@
1C
1E
1H
1K
1;
1L
1I
1F
1A
1=
#82146
0!
0"
0#
0$
0%
0&
0'
0:
0<
0@
0C
0E
0H
0K
0;
0L
0I
0F
0A
0=
#84242
1(
1)
1*
1N
1P
1>
1Q
#85146
1!
1"
1#
1$
1%
1&
1'
1:
1<
1@
1C
1E
1H
1K
1;
1L
1I
1F
1A
1=
#87146
0!
0"
0#
0$
0%
0&
0'
0:
0<
0@
0C
0E
0H
0K
0;
0L
0I
0F
0A
0=
#87842
0(
0)
0*
0N
0P
0>
0Q
#90000
1!
1"
1#
1$
1%
1&
1'
1(
1)
1*
1:
1<
1@
1C
1E
1H
1K
1N
1P
1>
1;
1Q
1L
1I
1F
1A
1=
#90395
0!
0"
0#
0$
0%
0&
0'
0:
0<
0@
0C
0E
0H
0K
0;
0L
0I
0F
0A
0=
#91681
0(
0)
0*
0N
0P
0>
0Q
#93862
1!
1"
1#
1$
1%
1&
1'
1:
1<
1@
1C
1E
1H
1K
1;
1L
1I
1F
1A
1=
#97061
0!
0"
0#
0$
0%
0&
0'
0:
0<
0@
0C
0E
0H
0K
0;
0L
0I
0F
0A
0=
#100528
1!
1"
1#
1$
1%
1&
1'
1:
1<
1@
1C
1E
1H
1K
1;
1L
1I
1F
1A
1=
#103727
0!
0"
0#
0$
0%
0&
0'
0:
0<
0@
0C
0E
0H
0K
0;
0L
0I
0F
0A
0=
#103881
1(
1)
1*
1N
1P
1>
1Q
#107194
1!
1"
1#
1$
1%
1&
1'
1:
1<
1@
1C
1E
1H
1K
1;
1L
1I
1F
1A
1=
#110000
0(
0)
0*
0N
0P
0>
0Q
#111064
1(
1)
1*
1N
1P
1>
1Q
#114742
0!
0"
0#
0$
0%
0&
0'
0:
0<
0@
0C
0E
0H
0K
0;
0L
0I
0F
0A
0=
#120864
0(
0)
0*
0N
0P
0>
0Q
#122742
1!
1"
1#
1$
1%
1&
1'
1:
1<
1@
1C
1E
1H
1K
1;
1L
1I
1F
1A
1=
#130000
1(
1)
1*
1N
1P
1>
1Q
#132538
0(
0)
0*
0N
0P
0>
0Q
#133200
0!
0"
0#
0$
0%
0&
0'
0:
0<
0@
0C
0E
0H
0K
0;
0L
0I
0F
0A
0=
#137300
1!
1"
1#
1$
1%
1&
1'
1:
1<
1@
1C
1E
1H
1K
1;
1L
1I
1F
1A
1=
#140000
0!
0"
0#
0$
0%
0&
0'
0:
0<
0@
0C
0E
0H
0K
0;
0L
0I
0F
0A
0=
#142079
1!
1"
1#
1$
1%
1&
1'
1:
1<
1@
1C
1E
1H
1K
1;
1L
1I
1F
1A
1=
#145345
0!
0"
0#
0$
0%
0&
0'
0:
0<
0@
0C
0E
0H
0K
0;
0L
0I
0F
0A
0=
#145538
1(
1)
1*
1N
1P
1>
1Q
#148745
1!
1"
1#
1$
1%
1&
1'
1:
1<
1@
1C
1E
1H
1K
1;
1L
1I
1F
1A
1=
#150000
0(
0)
0*
0N
0P
0>
0Q
#152011
0!
0"
0#
0$
0%
0&
0'
0:
0<
0@
0C
0E
0H
0K
0;
0L
0I
0F
0A
0=
#154408
1(
1)
1*
1N
1P
1>
1Q
#155411
1!
1"
1#
1$
1%
1&
1'
1:
1<
1@
1C
1E
1H
1K
1;
1L
1I
1F
1A
1=
#158677
0!
0"
0#
0$
0%
0&
0'
0:
0<
0@
0C
0E
0H
0K
0;
0L
0I
0F
0A
0=
#160000
1!
1"
1#
1$
1%
1&
1'
1:
1<
1@
1C
1E
1H
1K
1;
1L
1I
1F
1A
1=
#160247
0!
0"
0#
0$
0%
0&
0'
0:
0<
0@
0C
0E
0H
0K
0;
0L
0I
0F
0A
0=
#163008
0(
0)
0*
0N
0P
0>
0Q
#163114
1!
1"
1#
1$
1%
1&
1'
1:
1<
1@
1C
1E
1H
1K
1;
1L
1I
1F
1A
1=
#166913
0!
0"
0#
0$
0%
0&
0'
0:
0<
0@
0C
0E
0H
0K
0;
0L
0I
0F
0A
0=
#169780
1!
1"
1#
1$
1%
1&
1'
1:
1<
1@
1C
1E
1H
1K
1;
1L
1I
1F
1A
1=
#170000
1(
1)
1*
1N
1P
1>
1Q
#172013
0(
0)
0*
0N
0P
0>
0Q
#173579
0!
0"
0#
0$
0%
0&
0'
0:
0<
0@
0C
0E
0H
0K
0;
0L
0I
0F
0A
0=
#176446
1!
1"
1#
1$
1%
1&
1'
1:
1<
1@
1C
1E
1H
1K
1;
1L
1I
1F
1A
1=
#178413
1(
1)
1*
1N
1P
1>
1Q
#180000
0(
0)
0*
0N
0P
0>
0Q
#184229
0!
0"
0#
0$
0%
0&
0'
0:
0<
0@
0C
0E
0H
0K
0;
0L
0I
0F
0A
0=
#189829
1!
1"
1#
1$
1%
1&
1'
1:
1<
1@
1C
1E
1H
1K
1;
1L
1I
1F
1A
1=
#191820
1(
1)
1*
1N
1P
1>
1Q
#194229
0!
0"
0#
0$
0%
0&
0'
0:
0<
0@
0C
0E
0H
0K
0;
0L
0I
0F
0A
0=
#198220
0(
0)
0*
0N
0P
0>
0Q
#199829
1!
1"
1#
1$
1%
1&
1'
1:
1<
1@
1C
1E
1H
1K
1;
1L
1I
1F
1A
1=
#200000
1(
1)
1*
1N
1P
1>
1Q
#200695
0!
0"
0#
0$
0%
0&
0'
0:
0<
0@
0C
0E
0H
0K
0;
0L
0I
0F
0A
0=
#200767
0(
0)
0*
0N
0P
0>
0Q
#202995
1!
1"
1#
1$
1%
1&
1'
1:
1<
1@
1C
1E
1H
1K
1;
1L
1I
1F
1A
1=
#203101
1(
1)
1*
1N
1P
1>
1Q
#204028
0!
0"
0#
0$
0%
0&
0'
0:
0<
0@
0C
0E
0H
0K
0;
0L
0I
0F
0A
0=
#204100
0(
0)
0*
0N
0P
0>
0Q
#206328
1!
1"
1#
1$
1%
1&
1'
1:
1<
1@
1C
1E
1H
1K
1;
1L
1I
1F
1A
1=
#206434
1(
1)
1*
1N
1P
1>
1Q
#207361
0!
0"
0#
0$
0%
0&
0'
0:
0<
0@
0C
0E
0H
0K
0;
0L
0I
0F
0A
0=
#207433
0(
0)
0*
0N
0P
0>
0Q
#209661
1!
1"
1#
1$
1%
1&
1'
1:
1<
1@
1C
1E
1H
1K
1;
1L
1I
1F
1A
1=
#209767
1(
1)
1*
1N
1P
1>
1Q
#210000
0!
0"
0#
0$
0%
0&
0'
0(
0)
0*
0:
0<
0@
0C
0E
0H
0K
0N
0P
0>
0;
0Q
0L
0I
0F
0A
0=
#211060
1(
1)
1*
1N
1P
1>
1Q
#212993
0(
0)
0*
0N
0P
0>
0Q
#214393
1(
1)
1*
1N
1P
1>
1Q
#216326
0(
0)
0*
0N
0P
0>
0Q
#217726
1(
1)
1*
1N
1P
1>
1Q
#219659
0(
0)
0*
0N
0P
0>
0Q
#220748
1!
1"
1#
1$
1%
1&
1'
1:
1<
1@
1C
1E
1H
1K
1;
1L
1I
1F
1A
1=
#224538
1(
1)
1*
1N
1P
1>
1Q
#227548
0!
0"
0#
0$
0%
0&
0'
0:
0<
0@
0C
0E
0H
0K
0;
0L
0I
0F
0A
0=
#227838
0(
0)
0*
0N
0P
0>
0Q
#230000
1!
1"
1#
1$
1%
1&
1'
1:
1<
1@
1C
1E
1H
1K
1;
1L
1I
1F
1A
1=
#230424
0!
0"
0#
0$
0%
0&
0'
0:
0<
0@
0C
0E
0H
0K
0;
0L
0I
0F
0A
0=
#233091
1!
1"
1#
1$
1%
1&
1'
1:
1<
1@
1C
1E
1H
1K
1;
1L
1I
1F
1A
1=
#233351
1(
1)
1*
1N
1P
1>
1Q
#235950
0(
0)
0*
0N
0P
0>
0Q
#237090
0!
0"
0#
0$
0%
0&
0'
0:
0<
0@
0C
0E
0H
0K
0;
0L
0I
0F
0A
0=
#239757
1!
1"
1#
1$
1%
1&
1'
1:
1<
1@
1C
1E
1H
1K
1;
1L
1I
1F
1A
1=
#240017
1(
1)
1*
1N
1P
1>
1Q
#242616
0(
0)
0*
0N
0P
0>
0Q
#243756
0!
0"
0#
0$
0%
0&
0'
0:
0<
0@
0C
0E
0H
0K
0;
0L
0I
0F
0A
0=
#246423
1!
1"
1#
1$
1%
1&
1'
1:
1<
1@
1C
1E
1H
1K
1;
1L
1I
1F
1A
1=
#246683
1(
1)
1*
1N
1P
1>
1Q
#249282
0(
0)
0*
0N
0P
0>
0Q
#250000
1(
1)
1*
1N
1P
1>
1Q
#250883
0(
0)
0*
0N
0P
0>
0Q
#251377
0!
0"
0#
0$
0%
0&
0'
0:
0<
0@
0C
0E
0H
0K
0;
0L
0I
0F
0A
0=
#252811
1!
1"
1#
1$
1%
1&
1'
1:
1<
1@
1C
1E
1H
1K
1;
1L
1I
1F
1A
1=
#254710
0!
0"
0#
0$
0%
0&
0'
0:
0<
0@
0C
0E
0H
0K
0;
0L
0I
0F
0A
0=
#256144
1!
1"
1#
1$
1%
1&
1'
1:
1<
1@
1C
1E
1H
1K
1;
1L
1I
1F
1A
1=
#258043
0!
0"
0#
0$
0%
0&
0'
0:
0<
0@
0C
0E
0H
0K
0;
0L
0I
0F
0A
0=
#259477
1!
1"
1#
1$
1%
1&
1'
1:
1<
1@
1C
1E
1H
1K
1;
1L
1I
1F
1A
1=
#260000
0!
0"
0#
0$
0%
0&
0'
0:
0<
0@
0C
0E
0H
0K
0;
0L
0I
0F
0A
0=
#262556
1!
1"
1#
1$
1%
1&
1'
1:
1<
1@
1C
1E
1H
1K
1;
1L
1I
1F
1A
1=
#262683
1(
1)
1*
1N
1P
1>
1Q
#264955
0!
0"
0#
0$
0%
0&
0'
0:
0<
0@
0C
0E
0H
0K
0;
0L
0I
0F
0A
0=
#269222
1!
1"
1#
1$
1%
1&
1'
1:
1<
1@
1C
1E
1H
1K
1;
1L
1I
1F
1A
1=
#271551
0(
0)
0*
0N
0P
0>
0Q
#271621
0!
0"
0#
0$
0%
0&
0'
0:
0<
0@
0C
0E
0H
0K
0;
0L
0I
0F
0A
0=
#275888
1!
1"
1#
1$
1%
1&
1'
1:
1<
1@
1C
1E
1H
1K
1;
1L
1I
1F
1A
1=
#276751
1(
1)
1*
1N
1P
1>
1Q
#278287
0!
0"
0#
0$
0%
0&
0'
0:
0<
0@
0C
0E
0H
0K
0;
0L
0I
0F
0A
0=
#280521
0(
0)
0*
0N
0P
0>
0Q
#283471
1(
1)
1*
1N
1P
1>
1Q
#284866
1!
1"
1#
1$
1%
1&
1'
1:
1<
1@
1C
1E
1H
1K
1;
1L
1I
1F
1A
1=
#285521
0(
0)
0*
0N
0P
0>
0Q
#288471
1(
1)
1*
1N
1P
1>
1Q
#289166
0!
0"
0#
0$
0%
0&
0'
0:
0<
0@
0C
0E
0H
0K
0;
0L
0I
0F
0A
0=
#291228
0(
0)
0*
0N
0P
0>
0Q
#293228
1(
1)
1*
1N
1P
1>
1Q
#294866
1!
1"
1#
1$
1%
1&
1'
1:
1<
1@
1C
1E
1H
1K
1;
1L
1I
1F
1A
1=
#296228
0(
0)
0*
0N
0P
0>
0Q
#298228
1(
1)
1*
1N
1P
1>
1Q
#299166
0!
0"
0#
0$
0%
0&
0'
0:
0<
0@
0C
0E
0H
0K
0;
0L
0I
0F
0A
0=
#300000
0(
0)
0*
1!
1"
1#
1$
1%
1&
1'
0N
0P
0>
1:
1<
1@
1C
1E
1H
1K
1;
1L
1I
1F
1A
1=
0Q
1R
12
#302100
0!
0"
0#
0$
0%
0&
0'
0:
0<
0@
0C
0E
0H
0K
0;
0L
0I
0F
0A
0=
#305290
1(
1)
1*
1N
1P
1>
1Q
#308600
1!
1"
1#
1$
1%
1&
1'
1:
1<
1@
1C
1E
1H
1K
1;
1L
1I
1F
1A
1=
#308790
0(
0)
0*
0N
0P
0>
0Q
#310000
1(
1)
1*
1N
1P
1>
1Q
#312100
0!
0"
0#
0$
0%
0&
0'
0:
0<
0@
0C
0E
0H
0K
0;
0L
0I
0F
0A
0=
#312475
0(
0)
0*
0N
0P
0>
0Q
#318600
1!
1"
1#
1$
1%
1&
1'
1:
1<
1@
1C
1E
1H
1K
1;
1L
1I
1F
1A
1=
0R
02
#322300
0!
0"
0#
0$
0%
0&
0'
0:
0<
0@
0C
0E
0H
0K
0;
0L
0I
0F
0A
0=
#322875
1(
1)
1*
1N
1P
1>
1Q
#324900
1!
1"
1#
1$
1%
1&
1'
1:
1<
1@
1C
1E
1H
1K
1;
1L
1I
1F
1A
1=
#327300
0!
0"
0#
0$
0%
0&
0'
0:
0<
0@
0C
0E
0H
0K
0;
0L
0I
0F
0A
0=
#329900
1!
1"
1#
1$
1%
1&
1'
1:
1<
1@
1C
1E
1H
1K
1;
1L
1I
1F
1A
1=
#331155
0(
0)
0*
0N
0P
0>
0Q
#331447
0!
0"
0#
0$
0%
0&
0'
0:
0<
0@
0C
0E
0H
0K
0;
0L
0I
0F
0A
0=
#333947
1!
1"
1#
1$
1%
1&
1'
1:
1<
1@
1C
1E
1H
1K
1;
1L
1I
1F
1A
1=
#334105
1(
1)
1*
1N
1P
1>
1Q
#336155
0(
0)
0*
0N
0P
0>
0Q
#336447
0!
0"
0#
0$
0%
0&
0'
0:
0<
0@
0C
0E
0H
0K
0;
0L
0I
0F
0A
0=
#338947
1!
1"
1#
1$
1%
1&
1'
1:
1<
1@
1C
1E
1H
1K
1;
1L
1I
1F
1A
1=
#339105
1(
1)
1*
1N
1P
1>
1Q
#340000
0!
0"
0#
0$
0%
0&
0'
0(
0)
0*
0:
0<
0@
0C
0E
0H
0K
0N
0P
0>
0;
0Q
0L
0I
0F
0A
0=
#340162
1(
1)
1*
1N
1P
1>
1Q
#343830
1!
1"
1#
1$
1%
1&
1'
1:
1<
1@
1C
1E
1H
1K
1;
1L
1I
1F
1A
1=
#345962
0(
0)
0*
0N
0P
0>
0Q
#348530
0!
0"
0#
0$
0%
0&
0'
0:
0<
0@
0C
0E
0H
0K
0;
0L
0I
0F
0A
0=
#350122
1(
1)
1*
1N
1P
1>
1Q
#352022
0(
0)
0*
0N
0P
0>
0Q
#353830
1!
1"
1#
1$
1%
1&
1'
1:
1<
1@
1C
1E
1H
1K
1;
1L
1I
1F
1A
1=
#355122
1(
1)
1*
1N
1P
1>
1Q
#357022
0(
0)
0*
0N
0P
0>
0Q
#358530
0!
0"
0#
0$
0%
0&
0'
0:
0<
0@
0C
0E
0H
0K
0;
0L
0I
0F
0A
0=
#360000
1(
1)
1*
1!
1"
1#
1$
1%
1&
1'
1N
1P
1>
1:
1<
1@
1C
1E
1H
1K
1;
1L
1I
1F
1A
1=
1Q
#360630
0(
0)
0*
0N
0P
0>
0Q
#367392
0!
0"
0#
0$
0%
0&
0'
0:
0<
0@
0C
0E
0H
0K
0;
0L
0I
0F
0A
0=
#370030
1(
1)
1*
1N
1P
1>
1Q
#376592
1!
1"
1#
1$
1%
1&
1'
1:
1<
1@
1C
1E
1H
1K
1;
1L
1I
1F
1A
1=
#380000
0(
0)
0*
0!
0"
0#
0$
0%
0&
0'
0N
0P
0>
0:
0<
0@
0C
0E
0H
0K
0;
0L
0I
0F
0A
0=
0Q
#381855
1!
1"
1#
1$
1%
1&
1'
1:
1<
1@
1C
1E
1H
1K
1;
1L
1I
1F
1A
1=
#382974
1(
1)
1*
1N
1P
1>
1Q
#384055
0!
0"
0#
0$
0%
0&
0'
0:
0<
0@
0C
0E
0H
0K
0;
0L
0I
0F
0A
0=
#385507
0(
0)
0*
0N
0P
0>
0Q
#386855
1!
1"
1#
1$
1%
1&
1'
1:
1<
1@
1C
1E
1H
1K
1;
1L
1I
1F
1A
1=
#389055
0!
0"
0#
0$
0%
0&
0'
0:
0<
0@
0C
0E
0H
0K
0;
0L
0I
0F
0A
0=
#389640
1(
1)
1*
1N
1P
1>
1Q
#390877
1!
1"
1#
1$
1%
1&
1'
1:
1<
1@
1C
1E
1H
1K
1;
1L
1I
1F
1A
1=
#392173
0(
0)
0*
0N
0P
0>
0Q
#395177
0!
0"
0#
0$
0%
0&
0'
0:
0<
0@
0C
0E
0H
0K
0;
0L
0I
0F
0A
0=
#396306
1(
1)
1*
1N
1P
1>
1Q
#398839
0(
0)
0*
0N
0P
0>
0Q
#400000
1!
1"
1#
1$
1%
1&
1'
1(
1)
1*
1:
1<
1@
1C
1E
1H
1K
1N
1P
1>
1;
1Q
1L
1I
1F
1A
1=
#400150
0!
0"
0#
0$
0%
0&
0'
0:
0<
0@
0C
0E
0H
0K
0;
0L
0I
0F
0A
0=
#400612
0(
0)
0*
0N
0P
0>
0Q
#402746
1(
1)
1*
1N
1P
1>
1Q
#403300
1!
1"
1#
1$
1%
1&
1'
1:
1<
1@
1C
1E
1H
1K
1;
1L
1I
1F
1A
1=
#403945
0(
0)
0*
0N
0P
0>
0Q
#405150
0!
0"
0#
0$
0%
0&
0'
0:
0<
0@
0C
0E
0H
0K
0;
0L
0I
0F
0A
0=
#406079
1(
1)
1*
1N
1P
1>
1Q
#407278
0(
0)
0*
0N
0P
0>
0Q
#408300
1!
1"
1#
1$
1%
1&
1'
1:
1<
1@
1C
1E
1H
1K
1;
1L
1I
1F
1A
1=
#409412
1(
1)
1*
1N
1P
1>
1Q
#410000
0!
0"
0#
0$
0%
0&
0'
0(
0)
0*
0:
0<
0@
0C
0E
0H
0K
0N
0P
0>
0;
0Q
0L
0I
0F
0A
0=
#411593
1(
1)
1*
1N
1P
1>
1Q
#412040
1!
1"
1#
1$
1%
1&
1'
1:
1<
1@
1C
1E
1H
1K
1;
1L
1I
1F
1A
1=
#413206
0!
0"
0#
0$
0%
0&
0'
0:
0<
0@
0C
0E
0H
0K
0;
0L
0I
0F
0A
0=
#413593
0(
0)
0*
0N
0P
0>
0Q
#415373
1!
1"
1#
1$
1%
1&
1'
1:
1<
1@
1C
1E
1H
1K
1;
1L
1I
1F
1A
1=
#416539
0!
0"
0#
0$
0%
0&
0'
0:
0<
0@
0C
0E
0H
0K
0;
0L
0I
0F
0A
0=
#416593
1(
1)
1*
1N
1P
1>
1Q
#418593
0(
0)
0*
0N
0P
0>
0Q
#418706
1!
1"
1#
1$
1%
1&
1'
1:
1<
1@
1C
1E
1H
1K
1;
1L
1I
1F
1A
1=
#419872
0!
0"
0#
0$
0%
0&
0'
0:
0<
0@
0C
0E
0H
0K
0;
0L
0I
0F
0A
0=
#420000
1(
1)
1*
1!
1"
1#
1$
1%
1&
1'
1N
1P
1>
1:
1<
1@
1C
1E
1H
1K
1;
1L
1I
1F
1A
1=
1Q
#420676
0!
0"
0#
0$
0%
0&
0'
0:
0<
0@
0C
0E
0H
0K
0;
0L
0I
0F
0A
0=
#422710
1!
1"
1#
1$
1%
1&
1'
1:
1<
1@
1C
1E
1H
1K
1;
1L
1I
1F
1A
1=
#423005
0(
0)
0*
0N
0P
0>
0Q
#424009
0!
0"
0#
0$
0%
0&
0'
0:
0<
0@
0C
0E
0H
0K
0;
0L
0I
0F
0A
0=
#426043
1!
1"
1#
1$
1%
1&
1'
1:
1<
1@
1C
1E
1H
1K
1;
1L
1I
1F
1A
1=
#427342
0!
0"
0#
0$
0%
0&
0'
0:
0<
0@
0C
0E
0H
0K
0;
0L
0I
0F
0A
0=
#429105
1(
1)
1*
1N
1P
1>
1Q
#429376
1!
1"
1#
1$
1%
1&
1'
1:
1<
1@
1C
1E
1H
1K
1;
1L
1I
1F
1A
1=
#430000
0!
0"
0#
0$
0%
0&
0'
0:
0<
0@
0C
0E
0H
0K
0;
0L
0I
0F
0A
0=
#430422
1!
1"
1#
1$
1%
1&
1'
1:
1<
1@
1C
1E
1H
1K
1;
1L
1I
1F
1A
1=
#431721
0!
0"
0#
0$
0%
0&
0'
0:
0<
0@
0C
0E
0H
0K
0;
0L
0I
0F
0A
0=
#433005
0(
0)
0*
0N
0P
0>
0Q
#433755
1!
1"
1#
1$
1%
1&
1'
1:
1<
1@
1C
1E
1H
1K
1;
1L
1I
1F
1A
1=
#435054
0!
0"
0#
0$
0%
0&
0'
0:
0<
0@
0C
0E
0H
0K
0;
0L
0I
0F
0A
0=
#437088
1!
1"
1#
1$
1%
1&
1'
1:
1<
1@
1C
1E
1H
1K
1;
1L
1I
1F
1A
1=
#438387
0!
0"
0#
0$
0%
0&
0'
0:
0<
0@
0C
0E
0H
0K
0;
0L
0I
0F
0A
0=
#439105
1(
1)
1*
1N
1P
1>
1Q
#440000
0(
0)
0*
0N
0P
0>
0Q
#442586
1!
1"
1#
1$
1%
1&
1'
1:
1<
1@
1C
1E
1H
1K
1;
1L
1I
1F
1A
1=
#442784
1(
1)
1*
1N
1P
1>
1Q
#446184
0(
0)
0*
0N
0P
0>
0Q
#446886
0!
0"
0#
0$
0%
0&
0'
0:
0<
0@
0C
0E
0H
0K
0;
0L
0I
0F
0A
0=
#450432
1(
1)
1*
1N
1P
1>
1Q
#452586
1!
1"
1#
1$
1%
1&
1'
1:
1<
1@
1C
1E
1H
1K
1;
1L
1I
1F
1A
1=
#454098
0(
0)
0*
0N
0P
0>
0Q
#456886
0!
0"
0#
0$
0%
0&
0'
0:
0<
0@
0C
0E
0H
0K
0;
0L
0I
0F
0A
0=
#457098
1(
1)
1*
1N
1P
1>
1Q
#460000
1!
1"
1#
1$
1%
1&
1'
1:
1<
1@
1C
1E
1H
1K
1;
1L
1I
1F
1A
1=
#460764
0(
0)
0*
0N
0P
0>
0Q
#462801
0!
0"
0#
0$
0%
0&
0'
0:
0<
0@
0C
0E
0H
0K
0;
0L
0I
0F
0A
0=
#463764
1(
1)
1*
1N
1P
1>
1Q
#467430
0(
0)
0*
0N
0P
0>
0Q
#467601
1!
1"
1#
1$
1%
1&
1'
1:
1<
1@
1C
1E
1H
1K
1;
1L
1I
1F
1A
1=
#470000
1(
1)
1*
1N
1P
1>
1Q
#471450
0!
0"
0#
0$
0%
0&
0'
0:
0<
0@
0C
0E
0H
0K
0;
0L
0I
0F
0A
0=
#472473
0(
0)
0*
0N
0P
0>
0Q
#475873
1(
1)
1*
1N
1P
1>
1Q
#477950
1!
1"
1#
1$
1%
1&
1'
1:
1<
1@
1C
1E
1H
1K
1;
1L
1I
1F
1A
1=
#479139
0(
0)
0*
0N
0P
0>
0Q
#480000
0!
0"
0#
0$
0%
0&
0'
0:
0<
0@
0C
0E
0H
0K
0;
0L
0I
0F
0A
0=
#482539
1(
1)
1*
1N
1P
1>
1Q
#485331
1!
1"
1#
1$
1%
1&
1'
1:
1<
1@
1C
1E
1H
1K
1;
1L
1I
1F
1A
1=
#485805
0(
0)
0*
0N
0P
0>
0Q
#489205
1(
1)
1*
1N
1P
1>
1Q
#490000
0(
0)
0*
0N
0P
0>
0Q
#492356
1(
1)
1*
1N
1P
1>
1Q
#492731
0!
0"
0#
0$
0%
0&
0'
0:
0<
0@
0C
0E
0H
0K
0;
0L
0I
0F
0A
0=
#494756
0(
0)
0*
0N
0P
0>
0Q
#497356
1(
1)
1*
1N
1P
1>
1Q
#499756
0(
0)
0*
0N
0P
0>
0Q
#500941
1(
1)
1*
1N
1P
1>
1Q
#501974
0(
0)
0*
0N
0P
0>
0Q
#504274
1(
1)
1*
1N
1P
1>
1Q
#505035
1!
1"
1#
1$
1%
1&
1'
1:
1<
1@
1C
1E
1H
1K
1;
1L
1I
1F
1A
1=
#505307
0(
0)
0*
0N
0P
0>
0Q
#507607
1(
1)
1*
1N
1P
1>
1Q
#508640
0(
0)
0*
0N
0P
0>
0Q
