RegistradorSaida/simulation/qsim/RegistradorSaida.msim.vcd
$comment
	File created using the following command:
		vcd file RegistradorSaida.msim.vcd -direction
$end
$date
	Tue Aug 01 23:11:01 2023
$end
$version
	ModelSim Version 2020.1
$end
$timescale
	1ps
$end

$scope module RegistradorSaida_vlg_vec_tst $end
$var reg 1 ! CLK $end
$var reg 1 " D0 $end
$var reg 1 # D1 $end
$var reg 1 $ D2 $end
$var reg 1 % D3 $end
$var reg 1 & D4 $end
$var reg 1 ' D5 $end
$var reg 1 ( D6 $end
$var reg 1 ) D7 $end
$var reg 1 * negL0 $end
$var wire 1 + Q0 $end
$var wire 1 , Q1 $end
$var wire 1 - Q2 $end
$var wire 1 . Q3 $end
$var wire 1 / Q4 $end
$var wire 1 0 Q5 $end
$var wire 1 1 Q6 $end
$var wire 1 2 Q7 $end

$scope module i1 $end
$var wire 1 3 gnd $end
$var wire 1 4 vcc $end
$var wire 1 5 unknown $end
$var tri1 1 6 devclrn $end
$var tri1 1 7 devpor $end
$var tri1 1 8 devoe $end
$var wire 1 9 ~QUARTUS_CREATED_GND~I_combout $end
$var wire 1 : CLK~input_o $end
$var wire 1 ; CLK~inputCLKENA0_outclk $end
$var wire 1 < D0~input_o $end
$var wire 1 = inst|inst20~feeder_combout $end
$var wire 1 > negL0~input_o $end
$var wire 1 ? inst|inst20~q $end
$var wire 1 @ D1~input_o $end
$var wire 1 A inst|inst21~feeder_combout $end
$var wire 1 B inst|inst21~q $end
$var wire 1 C D2~input_o $end
$var wire 1 D inst|inst22~q $end
$var wire 1 E D3~input_o $end
$var wire 1 F inst|inst23~feeder_combout $end
$var wire 1 G inst|inst23~q $end
$var wire 1 H D4~input_o $end
$var wire 1 I inst2|inst20~feeder_combout $end
$var wire 1 J inst2|inst20~q $end
$var wire 1 K D5~input_o $end
$var wire 1 L inst2|inst21~feeder_combout $end
$var wire 1 M inst2|inst21~q $end
$var wire 1 N D6~input_o $end
$var wire 1 O inst2|inst22~q $end
$var wire 1 P D7~input_o $end
$var wire 1 Q inst2|inst23~feeder_combout $end
$var wire 1 R inst2|inst23~q $end
$upscope $end
$upscope $end
$enddefinitions $end
#0
$dumpvars
0!
1"
0#
0$
0%
1&
1'
1(
1)
0*
0+
0,
0-
0.
0/
00
01
02
03
14
x5
16
17
18
09
0:
0;
1<
1=
0>
0?
0@
0A
0B
0C
0D
0E
0F
0G
1H
1I
0J
1K
1L
0M
1N
0O
1P
1Q
0R
$end
#10000
1!
1:
1;
1R
1O
1M
1J
1?
1+
1/
10
11
12
#20000
0"
1#
1$
0&
0(
0!
0<
1@
1C
0H
0N
0:
0;
0I
1A
0=
#30000
1!
1:
1;
0O
0J
1D
1B
0?
0+
1,
1-
0/
01
#40000
0'
0)
1"
0#
0!
0K
0P
1<
0@
0:
0;
0A
1=
0Q
0L
#50000
1!
1:
1;
0R
0M
0B
1?
1+
0,
00
02
#60000
1%
1(
0"
0!
1E
1N
0<
0:
0;
0=
1F
#70000
1!
1:
1;
1O
1G
0?
0+
1.
11
#80000
1&
1)
1#
0%
0(
1"
0!
1H
1P
1@
0E
0N
1<
0:
0;
1=
0F
1A
1Q
1I
#90000
1!
1:
1;
1R
0O
1J
0G
1B
1?
1+
1,
0.
1/
01
12
#100000
0&
0)
0"
0!
0H
0P
0<
0:
0;
0=
0Q
0I
#110000
1!
1:
1;
0R
0J
0?
0+
0/
02
#120000
1'
1%
1(
0!
1K
1E
1N
0:
0;
1F
1L
#130000
1!
1:
1;
1O
1M
1G
1.
10
11
#140000
0$
0#
1)
0%
0!
0C
0@
1P
0E
0:
0;
0F
1Q
0A
#150000
1!
1:
1;
1R
0G
0D
0B
0,
0-
0.
12
#160000
1&
1"
0'
1#
0!
1H
1<
0K
1@
0:
0;
1A
0L
1=
1I
#170000
1!
1:
1;
0M
1J
1B
1?
1+
1,
1/
00
#180000
0&
1'
0#
0!
0H
1K
0@
0:
0;
0A
1L
0I
#190000
1!
1:
1;
1M
0J
0B
0,
0/
10
#200000
0(
0)
1%
0"
1&
0!
0N
0P
1E
0<
1H
0:
0;
1I
0=
1F
0Q
#210000
1!
1:
1;
0R
0O
1J
1G
0?
0+
1.
1/
01
02
#220000
1$
0'
1#
0%
0&
0!
1C
0K
1@
0E
0H
0:
0;
0I
0F
1A
0L
#230000
1!
1:
1;
0M
0J
0G
1D
1B
1,
1-
0.
0/
00
#240000
1*
1)
1"
1%
0!
1>
1P
1<
1E
0:
0;
1F
1=
1Q
#250000
1!
1:
1;
#260000
0$
0"
0!
0C
0<
0:
0;
0=
#270000
1!
1:
1;
#280000
1(
1'
1$
0!
1N
1K
1C
0:
0;
1L
#290000
1!
1:
1;
#300000
1&
1"
0'
0!
1H
1<
0K
0:
0;
0L
1=
1I
#310000
1!
1:
1;
#320000
0#
0)
0!
0@
0P
0:
0;
0Q
0A
#330000
1!
1:
1;
#340000
0$
0&
0"
0!
0C
0H
0<
0:
0;
0=
0I
#350000
1!
1:
1;
#360000
0%
1"
0!
0E
1<
0:
0;
1=
0F
#370000
1!
1:
1;
#380000
0(
0!
0N
0:
0;
#390000
1!
1:
1;
#400000
1#
1)
1$
1&
1%
0"
0!
1@
1P
1C
1H
1E
0<
0:
0;
0=
1F
1I
1Q
1A
#410000
1!
1:
1;
#420000
1'
0#
0)
0$
0&
1"
0!
1K
0@
0P
0C
0H
1<
0:
0;
1=
0I
0Q
0A
1L
#430000
1!
1:
1;
#440000
0'
1#
1)
1$
1&
0"
0!
0K
1@
1P
1C
1H
0<
0:
0;
0=
1I
1Q
1A
0L
#450000
1!
1:
1;
#460000
1'
0#
0)
0&
1"
0!
1K
0@
0P
0H
1<
0:
0;
1=
0I
0Q
0A
1L
#470000
1!
1:
1;
#480000
0*
1(
0%
0!
0>
1N
0E
0:
0;
0F
#490000
1!
1:
1;
1O
1M
0B
1?
1+
0,
10
11
#500000
0$
0'
1#
0"
0!
0C
0K
1@
0<
0:
0;
0=
1A
0L
#510000
1!
1:
1;
0M
0D
1B
0?
0+
1,
0-
00
#520000
1)
1&
1%
0#
0!
1P
1H
1E
0@
0:
0;
0A
1F
1I
1Q
#530000
1!
1:
1;
1R
1J
1G
0B
0,
1.
1/
12
#540000
1$
1"
0&
0%
1#
0!
1C
1<
0H
0E
1@
0:
0;
1A
0F
0I
1=
#550000
1!
1:
1;
0J
0G
1D
1B
1?
1+
1,
1-
0.
0/
#560000
0(
0)
1%
0#
0!
0N
0P
1E
0@
0:
0;
0A
1F
0Q
#570000
1!
1:
1;
0R
0O
1G
0B
0,
1.
01
02
#580000
1'
0$
0"
1&
0!
1K
0C
0<
1H
0:
0;
1I
0=
1L
#590000
1!
1:
1;
1M
1J
0D
0?
0+
0-
1/
10
#600000
1(
0%
1#
0'
0&
0!
1N
0E
1@
0K
0H
0:
0;
0I
0L
1A
0F
#610000
1!
1:
1;
1O
0M
0J
0G
1B
1,
0.
0/
00
11
#620000
1)
1'
1&
0!
1P
1K
1H
0:
0;
1I
1L
1Q
#630000
1!
1:
1;
1R
1M
1J
1/
10
12
#640000
1$
1"
0(
1%
0&
0!
1C
1<
0N
1E
0H
0:
0;
0I
1F
1=
#650000
1!
1:
1;
0O
0J
1G
1D
1?
1+
1-
1.
0/
01
#660000
0"
1(
0!
0<
1N
0:
0;
0=
#670000
1!
1:
1;
1O
0?
0+
11
#680000
0#
0)
0'
1"
0!
0@
0P
0K
1<
0:
0;
1=
0L
0Q
0A
#690000
1!
1:
1;
0R
0M
0B
1?
1+
0,
00
02
#700000
0$
0%
0!
0C
0E
0:
0;
0F
#710000
1!
1:
1;
0G
0D
0-
0.
#720000
0(
1'
0!
0N
1K
0:
0;
1L
#730000
1*
1!
1>
1:
1;
#740000
1&
1#
0"
1$
0!
1H
1@
0<
1C
0:
0;
0=
1A
1I
#750000
1!
1:
1;
#760000
1%
1(
0&
0#
0!
1E
1N
0H
0@
0:
0;
0A
0I
1F
#770000
1!
1:
1;
#780000
1)
1"
0%
0(
1&
0!
1P
1<
0E
0N
1H
0:
0;
1I
0F
1=
1Q
#790000
1!
1:
1;
#800000
1#
0)
0"
1%
0&
0!
1@
0P
0<
1E
0H
0:
0;
0I
1F
0=
0Q
1A
#810000
1!
1:
1;
#820000
0$
0#
1"
1&
0!
0C
0@
1<
1H
0:
0;
1I
1=
0A
#830000
1!
1:
1;
#840000
1$
1#
0"
0!
1C
1@
0<
0:
0;
0=
1A
#850000
1!
1:
1;
#860000
1(
0&
0#
1"
0!
1N
0H
0@
1<
0:
0;
1=
0A
0I
#870000
1!
1:
1;
#880000
1)
0%
0$
1&
1#
0!
1P
0E
0C
1H
1@
0:
0;
1A
1I
0F
1Q
#890000
1!
1:
1;
#900000
0'
0"
1$
0#
0!
0K
0<
1C
0@
0:
0;
0A
0=
0L
#910000
1!
1:
1;
#920000
0)
0!
0P
0:
0;
0Q
#930000
1!
1:
1;
#940000
1%
1'
0!
1E
1K
0:
0;
1L
1F
#950000
1!
1:
1;
#960000
0(
0&
1"
0$
1)
0%
0!
0N
0H
1<
0C
1P
0E
0:
0;
0F
1Q
1=
0I
#970000
1!
1:
1;
#980000
1#
0'
1(
1$
0!
1@
0K
1N
1C
0:
0;
0L
1A
#990000
1!
1:
1;
