ALP74LS157/simulation/qsim/ALP74LS157.msim.vcd
$comment
	File created using the following command:
		vcd file ALP74LS157.msim.vcd -direction
$end
$date
	Fri Jun 23 09:26:40 2023
$end
$version
	ModelSim Version 10.5b
$end
$timescale
	1ps
$end

$scope module ALP74LS157_vlg_vec_tst $end
$var reg 1 ! A0 $end
$var reg 1 " A1 $end
$var reg 1 # B0 $end
$var reg 1 $ B1 $end
$var reg 1 % C0 $end
$var reg 1 & C1 $end
$var reg 1 ' D0 $end
$var reg 1 ( D1 $end
$var reg 1 ) ENABLE $end
$var reg 1 * SELECT $end
$var wire 1 + A_OUT $end
$var wire 1 , B_OUT $end
$var wire 1 - C_OUT $end
$var wire 1 . D_OUT $end

$scope module i1 $end
$var wire 1 / gnd $end
$var wire 1 0 vcc $end
$var wire 1 1 unknown $end
$var tri1 1 2 devclrn $end
$var tri1 1 3 devpor $end
$var tri1 1 4 devoe $end
$var wire 1 5 ~QUARTUS_CREATED_GND~I_combout $end
$var wire 1 6 ~QUARTUS_CREATED_UNVM~~busy $end
$var wire 1 7 ~QUARTUS_CREATED_ADC1~~eoc $end
$var wire 1 8 A_OUT~output_o $end
$var wire 1 9 C_OUT~output_o $end
$var wire 1 : B_OUT~output_o $end
$var wire 1 ; D_OUT~output_o $end
$var wire 1 < SELECT~input_o $end
$var wire 1 = A0~input_o $end
$var wire 1 > ENABLE~input_o $end
$var wire 1 ? A1~input_o $end
$var wire 1 @ inst~0_combout $end
$var wire 1 A C0~input_o $end
$var wire 1 B C1~input_o $end
$var wire 1 C inst9~0_combout $end
$var wire 1 D B0~input_o $end
$var wire 1 E B1~input_o $end
$var wire 1 F inst5~0_combout $end
$var wire 1 G D1~input_o $end
$var wire 1 H D0~input_o $end
$var wire 1 I inst14~0_combout $end
$upscope $end
$upscope $end
$enddefinitions $end
#0
$dumpvars
1!
0"
1#
0$
1%
0&
0'
0(
1)
0*
0+
0,
0-
0.
0/
10
x1
12
13
14
05
z6
z7
08
09
0:
0;
0<
1=
1>
0?
0@
1A
0B
0C
1D
0E
0F
0G
0H
0I
$end
#5000
1'
1H
#7500
1"
1?
#10000
0#
0%
0A
0D
#15000
0!
1$
0'
0"
1%
1A
0?
0H
1E
0=
#20000
1'
1H
#22500
1"
1?
#25000
1!
0'
0H
1=
#30000
1&
0$
0"
0?
0E
1B
#35000
1#
1D
#37500
1"
1?
#40000
1'
0#
0D
1H
#45000
0!
1$
0"
0'
1#
1D
0H
0?
1E
0=
#50000
0)
1!
1'
0#
0D
1H
1=
0>
1I
1@
1C
19
18
1;
1.
1+
1-
#52500
1"
1?
#55000
0!
0'
0H
0=
0I
0@
08
0;
0.
0+
#60000
1(
0&
0$
1#
0"
1!
1=
0?
1D
0E
0B
1G
1@
1F
1:
18
1+
1,
#65000
1'
0!
0=
1H
0@
1I
1;
08
0+
1.
#67500
1"
1?
#70000
0'
0H
0I
0;
0.
#75000
1$
0#
1!
0"
0?
1=
0D
1E
1@
0F
0:
18
1+
0,
#80000
0!
0=
0@
08
0+
#82500
1"
1?
#85000
0%
0A
0C
09
0-
#90000
1&
1'
0$
1#
0"
1%
1A
0?
1D
0E
1H
1B
1C
1F
1I
1;
1:
19
1-
1,
1.
#95000
1!
0'
0#
0%
0A
0D
0H
1=
0C
0F
0I
1@
18
0;
0:
09
0-
0,
0.
1+
#97500
1"
1?
#100000
1'
1#
1D
1H
1F
1I
1;
1:
1,
1.
#105000
1$
1%
0"
0#
0D
0?
1A
1E
0F
1C
19
0:
0,
1-
#110000
0!
0'
0%
1#
1D
0A
0H
0=
1F
0C
0I
0@
08
0;
09
1:
1,
0-
0.
0+
#112500
1"
1?
#115000
1!
1'
1%
1A
1H
1=
1C
1I
1@
18
1;
19
1-
1.
1+
#120000
0(
0&
0$
0#
0"
0'
0%
0A
0H
0?
0D
0E
0B
0G
0C
0I
0F
0:
0;
09
0-
0.
0,
#125000
0!
1#
1'
1%
1A
1H
1D
0=
1C
1I
1F
0@
08
1:
1;
19
1-
1.
1,
0+
#127500
1"
1?
#130000
1!
0'
0H
1=
0I
1@
18
0;
0.
1+
#135000
1$
0#
0"
1'
1H
0?
0D
1E
1I
0F
0:
1;
1.
0,
#140000
0!
1#
1D
0=
1F
0@
08
1:
1,
0+
#142500
1"
1?
#145000
1!
1=
1@
18
1+
#150000
1&
0$
0'
0#
0"
0?
0D
0H
0E
1B
0F
0I
0;
0:
0,
0.
#155000
0!
0=
0@
08
0+
#157500
1"
1?
#160000
1'
1#
1D
1H
1F
1I
1;
1:
1,
1.
#165000
0%
1$
0"
0?
1E
0A
0C
09
0-
#172500
1"
1?
#175000
1!
0'
1%
1A
0H
1=
1C
0I
1@
18
0;
19
1-
0.
1+
#180000
1(
0&
0#
0$
0"
0!
1'
0%
0A
1H
0=
0?
0E
0D
0B
1G
0C
1I
0@
0F
0:
08
1;
09
0-
1.
0+
0,
#185000
1#
1!
1=
1D
1@
1F
1:
18
1+
1,
#187500
1"
1?
#190000
0'
1%
0!
0=
1A
0H
0@
1C
0I
0;
19
08
0+
1-
0.
#195000
1$
0#
0"
1!
1=
0?
0D
1E
1@
0F
0:
18
1+
0,
#200000
1'
1H
1I
1;
1.
#202500
1"
1?
#205000
0%
1#
1D
0A
1F
0C
09
1:
1,
0-
#210000
1&
0$
0!
0"
1%
0#
0D
1A
0?
0=
0E
1B
0F
1C
0@
08
19
0:
0,
1-
0+
#215000
0'
0%
0A
0H
0C
0I
0;
09
0-
0.
#217500
1"
1?
#220000
1'
1%
1A
1H
1C
1I
1;
19
1-
1.
#225000
1$
1!
0"
0%
0A
0?
1=
1E
0C
1@
18
09
0-
1+
#230000
1#
0'
1%
1A
0H
1D
1C
0I
1F
1:
0;
19
1-
0.
1,
#232500
1"
1?
#235000
0!
0#
1'
1H
0D
0=
1I
0F
0@
08
0:
1;
1.
0,
0+
#240000
0(
0&
0$
0"
1!
0'
0H
1=
0?
0E
0B
0G
0I
1@
18
0;
0.
1+
#245000
1#
1'
1H
1D
1I
1F
1:
1;
1.
1,
#247500
1"
1?
#250000
0!
0#
0D
0=
0F
0@
08
0:
0,
0+
#255000
0%
1$
0'
0"
1!
1#
1D
1=
0?
0H
1E
0A
1F
1@
0I
0C
09
0;
18
1:
1,
1+
0.
0-
#260000
1%
0!
0#
0D
0=
1A
0F
0@
1C
19
08
0:
0,
0+
1-
#262500
1"
1?
#265000
1#
1D
1F
1:
1,
#270000
1&
0$
0%
1!
0"
0?
1=
0A
0E
1B
1@
0C
09
18
1+
0-
#277500
1"
1?
#280000
0#
0D
0F
0:
0,
#285000
1$
0!
0"
1#
1D
0?
0=
1E
1F
0@
08
1:
1,
0+
#290000
1'
0#
0D
1H
0F
1I
1;
0:
0,
1.
#292500
1"
1?
#295000
0'
1#
1D
0H
1F
0I
0;
1:
1,
0.
#300000
1(
0&
0$
0"
0#
0D
0?
0E
0B
1G
0F
0:
0,
#305000
1'
1H
1I
1;
1.
#307500
1"
1?
#310000
1%
1A
1C
19
1-
#315000
1!
1$
0'
0"
0?
0H
1E
1=
1@
0I
0;
18
1+
0.
#320000
0%
0!
1'
1H
0=
0A
1I
0@
0C
09
08
1;
1.
0+
0-
#322500
1"
1?
#325000
1#
1!
1=
1D
1@
1F
1:
18
1+
1,
#330000
1&
0$
1%
0"
0#
0!
0=
0D
0?
1A
0E
1B
0@
0F
1C
19
0:
08
0+
0,
1-
#335000
0'
0%
1#
1!
1=
1D
0A
0H
1@
1F
0C
0I
0;
09
1:
18
1+
1,
0-
0.
#337500
1"
1?
#340000
0!
0=
0@
08
0+
#345000
1$
1'
1%
0"
0?
1A
1H
1E
1C
1I
1;
19
1-
1.
#350000
0#
1!
0%
0A
1=
0D
0C
1@
0F
0:
18
09
0-
1+
0,
#352500
1"
1?
#355000
0'
1#
1D
0H
1F
0I
0;
1:
1,
0.
#360000
0(
0&
0$
1%
0"
0?
1A
0E
0B
0G
1C
19
1-
#365000
0!
0#
0%
0A
0D
0=
0C
0F
0@
08
0:
09
0-
0,
0+
#367500
1"
1?
#370000
1'
1%
1A
1H
1C
1I
1;
19
1-
1.
#375000
1$
1#
0"
0?
1D
1E
1F
1:
1,
#380000
1!
1=
1@
18
1+
#382500
1"
1?
#385000
0'
0H
0I
0;
0.
#390000
1&
0$
0#
0!
0"
1'
1H
0?
0=
0D
0E
1B
1I
0@
0F
0:
08
1;
1.
0+
0,
#395000
0%
1#
1D
0A
1F
0C
09
1:
1,
0-
#397500
1"
1?
#400000
1!
1%
1A
1=
1C
1@
18
19
1-
1+
#405000
1$
0'
0#
0"
0!
0=
0?
0D
0H
1E
0@
0F
0I
0;
0:
08
0+
0,
0.
#410000
1#
1!
1=
1D
1@
1F
1:
18
1+
1,
#412500
1"
1?
#415000
0%
1'
0!
0=
1H
0A
0@
1I
0C
09
1;
08
0+
1.
0-
#420000
1(
0&
0$
0#
0"
1!
1=
0?
0D
0E
0B
1G
1@
0F
0:
18
1+
0,
#425000
1#
1D
1F
1:
1,
#427500
1"
1?
#430000
1%
1A
1C
19
1-
#435000
0'
1$
0"
0%
0A
0?
1E
0H
0C
0I
0;
09
0-
0.
#440000
0#
1'
1%
1A
1H
0D
1C
1I
0F
0:
1;
19
1-
1.
0,
#442500
1"
1?
#445000
0!
0=
0@
08
0+
#450000
1&
0$
0'
0%
0"
1!
1=
0?
0A
0H
0E
1B
1@
0C
0I
0;
09
18
1+
0-
0.
#455000
1#
1D
1F
1:
1,
#457500
1"
1?
#460000
1%
0!
0#
0D
0=
1A
0F
0@
1C
19
08
0:
0,
0+
1-
#465000
1$
1'
0"
1!
1#
1D
1=
0?
1H
1E
1F
1@
1I
1;
18
1:
1,
1+
1.
#470000
0%
0!
0=
0A
0@
0C
09
08
0+
0-
#472500
1"
1?
#475000
0'
0#
1%
1A
0D
0H
1C
0F
0I
0;
0:
19
1-
0,
0.
#480000
1*
0(
0&
0$
1!
0"
1#
0%
0A
1D
0?
1=
0E
0B
0G
1<
0C
09
0-
#485000
0!
0#
0D
0=
#487500
1"
1?
1@
18
1+
#490000
1'
1%
1!
1#
1D
1=
1A
1H
#495000
1$
0"
0'
0%
0!
0#
0D
0=
0A
0H
0?
1E
1F
0@
08
1:
1,
0+
#500000
1%
1A
#502500
1"
1?
1@
18
1+
#505000
1#
1D
#510000
1&
0$
1!
0%
0"
0#
0D
0?
0A
1=
0E
1B
0F
0@
1C
19
08
0:
0,
0+
1-
#515000
0!
1%
1#
1D
1A
0=
#517500
1"
1?
1@
18
1+
#520000
0%
0#
0D
0A
#525000
1$
1!
0"
1#
1D
0?
1=
1E
1F
0@
08
1:
1,
0+
#530000
1'
0!
0#
0D
0=
1H
#532500
1"
1?
1@
18
1+
#540000
1(
0&
0$
0'
1!
1#
0"
0?
1D
1=
0H
0E
0B
1G
0@
0F
1I
0C
09
1;
0:
08
0+
0,
1.
0-
#545000
1%
0!
0#
0D
0=
1A
#547500
1"
1?
1@
18
1+
#550000
1'
0%
1!
1=
0A
1H
#555000
1$
1#
0"
0'
1%
1A
0H
0?
1D
1E
0@
1F
1:
08
0+
1,
#560000
0%
0A
#562500
1"
1?
1@
18
1+
#565000
0#
1%
1A
0D
#570000
1&
0!
0$
0"
0?
0E
0=
1B
0@
0F
1C
19
0:
08
0+
0,
1-
#575000
0%
1!
1=
0A
#577500
1"
1?
1@
18
1+
#580000
1%
0!
0=
1A
#585000
1'
1$
0"
0?
1E
1H
0@
1F
1:
08
0+
1,
#590000
1!
0'
0H
1=
#592500
1"
1?
1@
18
1+
#595000
0!
1'
1H
0=
#600000
0(
0&
0%
0$
0"
1!
0'
0H
1=
0?
0E
0A
0B
0G
0I
0@
0F
0C
09
0:
08
0;
0.
0+
0,
0-
#605000
1#
0!
1'
1H
0=
1D
#607500
1"
1?
1@
18
1+
#610000
0'
0H
#615000
1%
1$
0#
1!
0"
0?
1=
0D
1E
1A
0@
1F
1:
08
0+
1,
#620000
1'
1H
#622500
1"
1?
1@
18
1+
#625000
0%
0!
0'
0H
0=
0A
#630000
1&
0$
1#
0"
1%
1A
0?
1D
0E
1B
1C
0@
0F
0:
08
19
1-
0+
0,
#635000
0%
0A
#637500
1"
1?
1@
18
1+
#640000
1!
1=
#645000
1'
1$
0"
0?
1E
1H
0@
1F
1:
08
0+
1,
#650000
0!
0=
#652500
1"
1?
1@
18
1+
#655000
1%
0'
0H
1A
#660000
1(
0&
0$
0"
1'
1H
0?
0E
0B
1G
1I
0@
0F
0C
09
0:
08
1;
1.
0+
0,
0-
#665000
0#
0%
0A
0D
#667500
1"
1?
1@
18
1+
#670000
1#
1%
1A
1D
#675000
1$
0'
0"
0#
0D
0?
0H
1E
1F
0@
08
1:
1,
0+
#680000
1!
1'
1#
1D
1H
1=
#682500
1"
1?
1@
18
1+
#685000
0%
0!
0'
0#
0D
0H
0=
0A
#690000
1&
0$
0"
1%
1'
1#
1D
1H
1A
0?
0E
1B
0F
1C
0@
08
19
0:
0,
1-
0+
#695000
0'
0H
#697500
1"
1?
1@
18
1+
#700000
0%
0#
1'
1H
0D
0A
#705000
1$
0"
1#
0'
0H
1D
0?
1E
1F
0@
08
1:
1,
0+
#710000
1'
1H
#712500
1"
1?
1@
18
1+
#715000
1!
1%
0'
0H
1A
1=
#720000
0(
0&
0$
0"
0!
0=
0?
0E
0B
0G
0@
0F
0C
0I
0;
09
0:
08
0+
0,
0-
0.
#725000
0#
0%
1'
1!
1=
1H
0A
0D
#727500
1"
1?
1@
18
1+
#730000
0'
0H
#735000
1$
0!
0"
1'
1H
0?
0=
1E
0@
1F
1:
08
0+
1,
#740000
1#
1%
1A
1D
#742500
1"
1?
1@
18
1+
#750000
1&
0$
0'
0#
0%
0"
0?
0A
0D
0H
0E
1B
0@
1C
0F
0:
19
08
0+
1-
0,
#755000
1!
1'
1#
1%
1A
1D
1H
1=
#757500
1"
1?
1@
18
1+
#760000
0!
0%
0A
0=
#765000
1$
0"
1%
1A
0?
1E
0@
1F
1:
08
0+
1,
#770000
0#
1!
0%
0A
1=
0D
#772500
1"
1?
1@
18
1+
#775000
1#
0!
1%
1A
0=
1D
#780000
1(
0&
0'
0$
0"
0#
0D
0?
0E
0H
0B
1G
0F
0@
1I
0C
09
1;
08
0:
0,
0+
1.
0-
#787500
1"
1?
1@
18
1+
#790000
1!
1#
1D
1=
#795000
0%
1$
0"
0#
0D
0?
1E
0A
1F
0@
08
1:
1,
0+
#800000
1'
1#
1D
1H
#802500
1"
1?
1@
18
1+
#805000
0!
1%
0#
0D
1A
0=
#810000
1&
0$
0"
1!
1#
1D
1=
0?
0E
1B
0F
0@
1C
19
08
0:
0,
0+
1-
#815000
0!
0=
#817500
1"
1?
1@
18
1+
#820000
1!
1=
#825000
0'
1$
0#
0"
0!
0=
0?
0D
1E
0H
0@
1F
1:
08
0+
1,
#830000
0%
1'
1H
0A
#832500
1"
1?
1@
18
1+
#835000
1!
1%
0'
0H
1A
1=
#840000
0(
0&
0$
0"
1'
1H
0?
0E
0B
0G
0I
0@
0F
0C
09
0:
08
0;
0.
0+
0,
0-
#845000
0%
0'
0H
0A
#847500
1"
1?
1@
18
1+
#850000
1#
1'
1H
1D
#855000
1$
1%
0"
0#
0'
0H
0D
0?
1A
1E
1F
0@
08
1:
1,
0+
#860000
0%
1#
1D
0A
#862500
1"
1?
1@
18
1+
#865000
0!
1%
0#
0D
1A
0=
#870000
1&
0$
1'
0"
1!
1#
1D
1=
0?
1H
0E
1B
0F
0@
1C
19
08
0:
0,
0+
1-
#875000
0#
0D
#877500
1"
1?
1@
18
1+
#880000
1#
1D
#885000
1$
0!
0"
0?
0=
1E
0@
1F
1:
08
0+
1,
#890000
0%
0A
#892500
1"
1?
1@
18
1+
#895000
0'
0#
1%
1A
0D
0H
#900000
1(
0&
0$
1!
0"
1'
1H
0?
1=
0E
0B
1G
1I
0@
0F
0C
09
0:
08
1;
1.
0+
0,
0-
#905000
1#
0%
0'
0H
0A
1D
#907500
1"
1?
1@
18
1+
#910000
0!
1%
1A
0=
#915000
1$
0#
0"
1!
1=
0?
0D
1E
0@
1F
1:
08
0+
1,
#920000
0%
1#
1D
0A
#922500
1"
1?
1@
18
1+
#925000
0!
1%
0#
0D
1A
0=
#930000
1&
0$
0"
1!
1#
1D
1=
0?
0E
1B
0F
0@
1C
19
08
0:
0,
0+
1-
#935000
0#
0D
#937500
1"
1?
1@
18
1+
#940000
0%
1#
1D
0A
#945000
1$
0"
0#
0D
0?
1E
1F
0@
08
1:
1,
0+
#950000
1'
1H
#952500
1"
1?
1@
18
1+
#955000
1%
0'
0H
1A
#960000
0(
0&
0!
0$
0"
0%
1'
1H
0A
0?
0E
0=
0B
0G
0I
0C
0@
0F
0:
08
09
0;
0.
0-
0+
0,
#965000
1#
1D
#967500
1"
1?
1@
18
1+
#970000
0'
0H
#975000
1$
1%
0#
0"
1'
1H
0?
0D
1A
1E
0@
1F
1:
08
0+
1,
#980000
1#
0'
0H
1D
#982500
1"
1?
1@
18
1+
#985000
1!
0#
0D
1=
#990000
0*
1&
0$
1'
0"
0!
0=
0?
1H
0E
1B
0<
0@
1I
0F
1C
19
0:
1;
08
0+
1.
0,
1-
#995000
0'
0H
0I
0;
0.
#997500
1"
1?
